EESchema Schematic File Version 4
LIBS:pc-fan-cache
EELAYER 30 0
EELAYER END
$Descr A4 11693 8268
encoding utf-8
Sheet 1 1
Title ""
Date ""
Rev ""
Comp ""
Comment1 ""
Comment2 ""
Comment3 ""
Comment4 ""
$EndDescr
$Comp
L Transistor_FET:IRF540N Q1
U 1 1 5DB28531
P 3250 4050
F 0 "Q1" H 3456 4096 50  0000 L CNN
F 1 "IRF540N" H 3456 4005 50  0000 L CNN
F 2 "Package_TO_SOT_THT:TO-220-3_Vertical" H 3500 3975 50  0001 L CIN
F 3 "http://www.irf.com/product-info/datasheets/data/irf540n.pdf" H 3250 4050 50  0001 L CNN
	1    3250 4050
	0    1    1    0   
$EndComp
$Comp
L Connector:Conn_01x05_Female J1
U 1 1 5DB2910C
P 1550 1150
F 0 "J1" H 1578 1176 50  0000 L CNN
F 1 "MAX6675_Module_1" H 1578 1085 50  0000 L CNN
F 2 "Connector_PinSocket_2.54mm:PinSocket_1x05_P2.54mm_Horizontal" H 1550 1150 50  0001 C CNN
F 3 "~" H 1550 1150 50  0001 C CNN
	1    1550 1150
	1    0    0    -1  
$EndComp
$Comp
L Connector:Conn_01x03_Female J8
U 1 1 5DB2A1B5
P 4050 4050
F 0 "J8" H 3942 3725 50  0000 C CNN
F 1 "FAN_1" H 3942 3816 50  0000 C CNN
F 2 "Connector_PinSocket_2.54mm:PinSocket_1x03_P2.54mm_Horizontal" H 4050 4050 50  0001 C CNN
F 3 "~" H 4050 4050 50  0001 C CNN
	1    4050 4050
	1    0    0    -1  
$EndComp
$Comp
L power:GND #PWR013
U 1 1 5DB2AE77
P 3050 4150
F 0 "#PWR013" H 3050 3900 50  0001 C CNN
F 1 "GND" H 3055 3977 50  0000 C CNN
F 2 "" H 3050 4150 50  0001 C CNN
F 3 "" H 3050 4150 50  0001 C CNN
	1    3050 4150
	0    1    1    0   
$EndComp
$Comp
L power:GND #PWR02
U 1 1 5DB2E944
P 1350 1350
F 0 "#PWR02" H 1350 1100 50  0001 C CNN
F 1 "GND" V 1355 1222 50  0000 R CNN
F 2 "" H 1350 1350 50  0001 C CNN
F 3 "" H 1350 1350 50  0001 C CNN
	1    1350 1350
	0    1    1    0   
$EndComp
$Comp
L power:GND #PWR021
U 1 1 5DB2F5FB
P 5550 2950
F 0 "#PWR021" H 5550 2700 50  0001 C CNN
F 1 "GND" V 5555 2822 50  0000 R CNN
F 2 "" H 5550 2950 50  0001 C CNN
F 3 "" H 5550 2950 50  0001 C CNN
	1    5550 2950
	1    0    0    -1  
$EndComp
$Comp
L Connector:Conn_01x04_Female J7
U 1 1 5DB316A6
P 3450 5100
F 0 "J7" H 3342 4675 50  0000 C CNN
F 1 "Power" H 3342 4766 50  0000 C CNN
F 2 "Connector_PinSocket_2.54mm:PinSocket_1x04_P2.54mm_Horizontal" H 3450 5100 50  0001 C CNN
F 3 "~" H 3450 5100 50  0001 C CNN
	1    3450 5100
	-1   0    0    1   
$EndComp
$Comp
L power:GND #PWR016
U 1 1 5DB331D7
P 3650 5100
F 0 "#PWR016" H 3650 4850 50  0001 C CNN
F 1 "GND" V 3655 4972 50  0000 R CNN
F 2 "" H 3650 5100 50  0001 C CNN
F 3 "" H 3650 5100 50  0001 C CNN
	1    3650 5100
	0    -1   -1   0   
$EndComp
$Comp
L power:GND #PWR015
U 1 1 5DB333F5
P 3650 5000
F 0 "#PWR015" H 3650 4750 50  0001 C CNN
F 1 "GND" V 3655 4872 50  0000 R CNN
F 2 "" H 3650 5000 50  0001 C CNN
F 3 "" H 3650 5000 50  0001 C CNN
	1    3650 5000
	0    -1   -1   0   
$EndComp
Wire Wire Line
	3850 4150 3450 4150
$Comp
L power:+5V #PWR017
U 1 1 5DB40680
P 3650 5200
F 0 "#PWR017" H 3650 5050 50  0001 C CNN
F 1 "+5V" V 3665 5328 50  0000 L CNN
F 2 "" H 3650 5200 50  0001 C CNN
F 3 "" H 3650 5200 50  0001 C CNN
	1    3650 5200
	0    1    1    0   
$EndComp
$Comp
L power:+12V #PWR014
U 1 1 5DB40A85
P 3650 4900
F 0 "#PWR014" H 3650 4750 50  0001 C CNN
F 1 "+12V" V 3665 5028 50  0000 L CNN
F 2 "" H 3650 4900 50  0001 C CNN
F 3 "" H 3650 4900 50  0001 C CNN
	1    3650 4900
	0    1    1    0   
$EndComp
$Comp
L power:+12V #PWR018
U 1 1 5DB45398
P 3850 4050
F 0 "#PWR018" H 3850 3900 50  0001 C CNN
F 1 "+12V" V 3865 4178 50  0000 L CNN
F 2 "" H 3850 4050 50  0001 C CNN
F 3 "" H 3850 4050 50  0001 C CNN
	1    3850 4050
	0    -1   -1   0   
$EndComp
Text GLabel 3850 3950 0    50   Input ~ 0
Sense_1
Text GLabel 3250 3850 1    50   Input ~ 0
PWM_1
$Comp
L Transistor_FET:IRF540N Q2
U 1 1 5DB6C6D6
P 4700 4050
F 0 "Q2" H 4906 4096 50  0000 L CNN
F 1 "IRF540N" H 4906 4005 50  0000 L CNN
F 2 "Package_TO_SOT_THT:TO-220-3_Vertical" H 4950 3975 50  0001 L CIN
F 3 "http://www.irf.com/product-info/datasheets/data/irf540n.pdf" H 4700 4050 50  0001 L CNN
	1    4700 4050
	0    1    1    0   
$EndComp
$Comp
L Connector:Conn_01x03_Female J9
U 1 1 5DB6C6DC
P 5500 4050
F 0 "J9" H 5528 4076 50  0000 L CNN
F 1 "FAN_2" H 5528 3985 50  0000 L CNN
F 2 "Connector_PinSocket_2.54mm:PinSocket_1x03_P2.54mm_Horizontal" H 5500 4050 50  0001 C CNN
F 3 "~" H 5500 4050 50  0001 C CNN
	1    5500 4050
	1    0    0    -1  
$EndComp
$Comp
L power:GND #PWR019
U 1 1 5DB6C6E2
P 4500 4150
F 0 "#PWR019" H 4500 3900 50  0001 C CNN
F 1 "GND" H 4505 3977 50  0000 C CNN
F 2 "" H 4500 4150 50  0001 C CNN
F 3 "" H 4500 4150 50  0001 C CNN
	1    4500 4150
	0    1    1    0   
$EndComp
Wire Wire Line
	5300 4150 4900 4150
$Comp
L power:+12V #PWR020
U 1 1 5DB6C6E9
P 5300 4050
F 0 "#PWR020" H 5300 3900 50  0001 C CNN
F 1 "+12V" V 5315 4178 50  0000 L CNN
F 2 "" H 5300 4050 50  0001 C CNN
F 3 "" H 5300 4050 50  0001 C CNN
	1    5300 4050
	0    -1   -1   0   
$EndComp
Text GLabel 5300 3950 0    50   Input ~ 0
Sense_2
Text GLabel 4700 3850 1    50   Input ~ 0
PWM_2
$Comp
L Transistor_FET:IRF540N Q4
U 1 1 5DB6DA2E
P 6350 4050
F 0 "Q4" H 6556 4096 50  0000 L CNN
F 1 "IRF540N" H 6556 4005 50  0000 L CNN
F 2 "Package_TO_SOT_THT:TO-220-3_Vertical" H 6600 3975 50  0001 L CIN
F 3 "http://www.irf.com/product-info/datasheets/data/irf540n.pdf" H 6350 4050 50  0001 L CNN
	1    6350 4050
	0    1    1    0   
$EndComp
$Comp
L Connector:Conn_01x03_Female J11
U 1 1 5DB6DA34
P 7150 4050
F 0 "J11" H 7178 4076 50  0000 L CNN
F 1 "FAN_3" H 7178 3985 50  0000 L CNN
F 2 "Connector_PinSocket_2.54mm:PinSocket_1x03_P2.54mm_Horizontal" H 7150 4050 50  0001 C CNN
F 3 "~" H 7150 4050 50  0001 C CNN
	1    7150 4050
	1    0    0    -1  
$EndComp
$Comp
L power:GND #PWR023
U 1 1 5DB6DA3A
P 6150 4150
F 0 "#PWR023" H 6150 3900 50  0001 C CNN
F 1 "GND" H 6155 3977 50  0000 C CNN
F 2 "" H 6150 4150 50  0001 C CNN
F 3 "" H 6150 4150 50  0001 C CNN
	1    6150 4150
	0    1    1    0   
$EndComp
Wire Wire Line
	6950 4150 6550 4150
$Comp
L power:+12V #PWR025
U 1 1 5DB6DA41
P 6950 4050
F 0 "#PWR025" H 6950 3900 50  0001 C CNN
F 1 "+12V" V 6965 4178 50  0000 L CNN
F 2 "" H 6950 4050 50  0001 C CNN
F 3 "" H 6950 4050 50  0001 C CNN
	1    6950 4050
	0    -1   -1   0   
$EndComp
Text GLabel 6950 3950 0    50   Input ~ 0
Sense_3
Text GLabel 6350 3850 1    50   Input ~ 0
PWM_3
$Comp
L Transistor_FET:IRF540N Q6
U 1 1 5DB6EF8E
P 7950 4000
F 0 "Q6" H 8156 4046 50  0000 L CNN
F 1 "IRF540N" H 8156 3955 50  0000 L CNN
F 2 "Package_TO_SOT_THT:TO-220-3_Vertical" H 8200 3925 50  0001 L CIN
F 3 "http://www.irf.com/product-info/datasheets/data/irf540n.pdf" H 7950 4000 50  0001 L CNN
	1    7950 4000
	0    1    1    0   
$EndComp
$Comp
L Connector:Conn_01x03_Female J13
U 1 1 5DB6EF94
P 8750 4000
F 0 "J13" H 8778 4026 50  0000 L CNN
F 1 "FAN_4" H 8778 3935 50  0000 L CNN
F 2 "Connector_PinSocket_2.54mm:PinSocket_1x03_P2.54mm_Horizontal" H 8750 4000 50  0001 C CNN
F 3 "~" H 8750 4000 50  0001 C CNN
	1    8750 4000
	1    0    0    -1  
$EndComp
$Comp
L power:GND #PWR027
U 1 1 5DB6EF9A
P 7750 4100
F 0 "#PWR027" H 7750 3850 50  0001 C CNN
F 1 "GND" H 7755 3927 50  0000 C CNN
F 2 "" H 7750 4100 50  0001 C CNN
F 3 "" H 7750 4100 50  0001 C CNN
	1    7750 4100
	0    1    1    0   
$EndComp
Wire Wire Line
	8550 4100 8150 4100
$Comp
L power:+12V #PWR029
U 1 1 5DB6EFA1
P 8550 4000
F 0 "#PWR029" H 8550 3850 50  0001 C CNN
F 1 "+12V" V 8565 4128 50  0000 L CNN
F 2 "" H 8550 4000 50  0001 C CNN
F 3 "" H 8550 4000 50  0001 C CNN
	1    8550 4000
	0    -1   -1   0   
$EndComp
Text GLabel 8550 3900 0    50   Input ~ 0
Sense_4
Text GLabel 7950 3800 1    50   Input ~ 0
PWM_4
$Comp
L Transistor_FET:IRF540N Q3
U 1 1 5DB712C2
P 6250 5200
F 0 "Q3" H 6456 5246 50  0000 L CNN
F 1 "IRF540N" H 6456 5155 50  0000 L CNN
F 2 "Package_TO_SOT_THT:TO-220-3_Vertical" H 6500 5125 50  0001 L CIN
F 3 "http://www.irf.com/product-info/datasheets/data/irf540n.pdf" H 6250 5200 50  0001 L CNN
	1    6250 5200
	0    1    1    0   
$EndComp
$Comp
L Connector:Conn_01x03_Female J10
U 1 1 5DB712C8
P 7050 5200
F 0 "J10" H 7078 5226 50  0000 L CNN
F 1 "FAN_5" H 7078 5135 50  0000 L CNN
F 2 "Connector_PinSocket_2.54mm:PinSocket_1x03_P2.54mm_Horizontal" H 7050 5200 50  0001 C CNN
F 3 "~" H 7050 5200 50  0001 C CNN
	1    7050 5200
	1    0    0    -1  
$EndComp
$Comp
L power:GND #PWR022
U 1 1 5DB712CE
P 6050 5300
F 0 "#PWR022" H 6050 5050 50  0001 C CNN
F 1 "GND" H 6055 5127 50  0000 C CNN
F 2 "" H 6050 5300 50  0001 C CNN
F 3 "" H 6050 5300 50  0001 C CNN
	1    6050 5300
	0    1    1    0   
$EndComp
Wire Wire Line
	6850 5300 6450 5300
$Comp
L power:+12V #PWR024
U 1 1 5DB712D5
P 6850 5200
F 0 "#PWR024" H 6850 5050 50  0001 C CNN
F 1 "+12V" V 6865 5328 50  0000 L CNN
F 2 "" H 6850 5200 50  0001 C CNN
F 3 "" H 6850 5200 50  0001 C CNN
	1    6850 5200
	0    -1   -1   0   
$EndComp
Text GLabel 6850 5100 0    50   Input ~ 0
Sense_5
Text GLabel 6250 5000 1    50   Input ~ 0
PWM_5
$Comp
L Transistor_FET:IRF540N Q5
U 1 1 5DB736F6
P 7800 5250
F 0 "Q5" H 8006 5296 50  0000 L CNN
F 1 "IRF540N" H 8006 5205 50  0000 L CNN
F 2 "Package_TO_SOT_THT:TO-220-3_Vertical" H 8050 5175 50  0001 L CIN
F 3 "http://www.irf.com/product-info/datasheets/data/irf540n.pdf" H 7800 5250 50  0001 L CNN
	1    7800 5250
	0    1    1    0   
$EndComp
$Comp
L Connector:Conn_01x03_Female J12
U 1 1 5DB736FC
P 8600 5250
F 0 "J12" H 8628 5276 50  0000 L CNN
F 1 "FAN_6" H 8628 5185 50  0000 L CNN
F 2 "Connector_PinSocket_2.54mm:PinSocket_1x03_P2.54mm_Horizontal" H 8600 5250 50  0001 C CNN
F 3 "~" H 8600 5250 50  0001 C CNN
	1    8600 5250
	1    0    0    -1  
$EndComp
$Comp
L power:GND #PWR026
U 1 1 5DB73702
P 7600 5350
F 0 "#PWR026" H 7600 5100 50  0001 C CNN
F 1 "GND" H 7605 5177 50  0000 C CNN
F 2 "" H 7600 5350 50  0001 C CNN
F 3 "" H 7600 5350 50  0001 C CNN
	1    7600 5350
	0    1    1    0   
$EndComp
Wire Wire Line
	8400 5350 8000 5350
$Comp
L power:+12V #PWR028
U 1 1 5DB73709
P 8400 5250
F 0 "#PWR028" H 8400 5100 50  0001 C CNN
F 1 "+12V" V 8415 5378 50  0000 L CNN
F 2 "" H 8400 5250 50  0001 C CNN
F 3 "" H 8400 5250 50  0001 C CNN
	1    8400 5250
	0    -1   -1   0   
$EndComp
Text GLabel 8400 5150 0    50   Input ~ 0
Sense_6
Text GLabel 7800 5050 1    50   Input ~ 0
PWM_6
Text GLabel 1350 1150 0    50   Input ~ 0
SCK
Text GLabel 1350 1050 0    50   Input ~ 0
CS_1
Text GLabel 1350 950  0    50   Input ~ 0
S0
$Comp
L Connector:Conn_01x05_Female J2
U 1 1 5DBAB259
P 1550 1900
F 0 "J2" H 1578 1926 50  0000 L CNN
F 1 "MAX6675_Module_2" H 1578 1835 50  0000 L CNN
F 2 "Connector_PinSocket_2.54mm:PinSocket_1x05_P2.54mm_Horizontal" H 1550 1900 50  0001 C CNN
F 3 "~" H 1550 1900 50  0001 C CNN
	1    1550 1900
	1    0    0    -1  
$EndComp
$Comp
L power:GND #PWR04
U 1 1 5DBAB25F
P 1350 2100
F 0 "#PWR04" H 1350 1850 50  0001 C CNN
F 1 "GND" V 1355 1972 50  0000 R CNN
F 2 "" H 1350 2100 50  0001 C CNN
F 3 "" H 1350 2100 50  0001 C CNN
	1    1350 2100
	0    1    1    0   
$EndComp
Text GLabel 1350 1900 0    50   Input ~ 0
SCK
Text GLabel 1350 1800 0    50   Input ~ 0
CS_2
Text GLabel 1350 1700 0    50   Input ~ 0
S0
$Comp
L Connector:Conn_01x05_Female J3
U 1 1 5DBAC09D
P 1550 2700
F 0 "J3" H 1578 2726 50  0000 L CNN
F 1 "MAX6675_Module_3" H 1578 2635 50  0000 L CNN
F 2 "Connector_PinSocket_2.54mm:PinSocket_1x05_P2.54mm_Horizontal" H 1550 2700 50  0001 C CNN
F 3 "~" H 1550 2700 50  0001 C CNN
	1    1550 2700
	1    0    0    -1  
$EndComp
$Comp
L power:GND #PWR06
U 1 1 5DBAC0A3
P 1350 2900
F 0 "#PWR06" H 1350 2650 50  0001 C CNN
F 1 "GND" V 1355 2772 50  0000 R CNN
F 2 "" H 1350 2900 50  0001 C CNN
F 3 "" H 1350 2900 50  0001 C CNN
	1    1350 2900
	0    1    1    0   
$EndComp
Text GLabel 1350 2700 0    50   Input ~ 0
SCK
Text GLabel 1350 2600 0    50   Input ~ 0
CS_3
Text GLabel 1350 2500 0    50   Input ~ 0
S0
$Comp
L Connector:Conn_01x05_Female J4
U 1 1 5DBACB0B
P 3000 1000
F 0 "J4" H 3028 1026 50  0000 L CNN
F 1 "MAX6675_Module_4" H 3028 935 50  0000 L CNN
F 2 "Connector_PinSocket_2.54mm:PinSocket_1x05_P2.54mm_Horizontal" H 3000 1000 50  0001 C CNN
F 3 "~" H 3000 1000 50  0001 C CNN
	1    3000 1000
	1    0    0    -1  
$EndComp
$Comp
L power:GND #PWR08
U 1 1 5DBACB11
P 2800 1200
F 0 "#PWR08" H 2800 950 50  0001 C CNN
F 1 "GND" V 2805 1072 50  0000 R CNN
F 2 "" H 2800 1200 50  0001 C CNN
F 3 "" H 2800 1200 50  0001 C CNN
	1    2800 1200
	0    1    1    0   
$EndComp
Text GLabel 2800 1000 0    50   Input ~ 0
SCK
Text GLabel 2800 900  0    50   Input ~ 0
CS_4
Text GLabel 2800 800  0    50   Input ~ 0
S0
$Comp
L Connector:Conn_01x05_Female J5
U 1 1 5DBADA6D
P 3000 1750
F 0 "J5" H 3028 1776 50  0000 L CNN
F 1 "MAX6675_Module_5" H 3028 1685 50  0000 L CNN
F 2 "Connector_PinSocket_2.54mm:PinSocket_1x05_P2.54mm_Horizontal" H 3000 1750 50  0001 C CNN
F 3 "~" H 3000 1750 50  0001 C CNN
	1    3000 1750
	1    0    0    -1  
$EndComp
$Comp
L power:GND #PWR010
U 1 1 5DBADA73
P 2800 1950
F 0 "#PWR010" H 2800 1700 50  0001 C CNN
F 1 "GND" V 2805 1822 50  0000 R CNN
F 2 "" H 2800 1950 50  0001 C CNN
F 3 "" H 2800 1950 50  0001 C CNN
	1    2800 1950
	0    1    1    0   
$EndComp
Text GLabel 2800 1750 0    50   Input ~ 0
SCK
Text GLabel 2800 1650 0    50   Input ~ 0
CS_5
Text GLabel 2800 1550 0    50   Input ~ 0
S0
$Comp
L Connector:Conn_01x05_Female J6
U 1 1 5DBAEB69
P 3000 2600
F 0 "J6" H 3028 2626 50  0000 L CNN
F 1 "MAX6675_Module_6" H 3028 2535 50  0000 L CNN
F 2 "Connector_PinSocket_2.54mm:PinSocket_1x05_P2.54mm_Horizontal" H 3000 2600 50  0001 C CNN
F 3 "~" H 3000 2600 50  0001 C CNN
	1    3000 2600
	1    0    0    -1  
$EndComp
$Comp
L power:GND #PWR012
U 1 1 5DBAEB6F
P 2800 2800
F 0 "#PWR012" H 2800 2550 50  0001 C CNN
F 1 "GND" V 2805 2672 50  0000 R CNN
F 2 "" H 2800 2800 50  0001 C CNN
F 3 "" H 2800 2800 50  0001 C CNN
	1    2800 2800
	0    1    1    0   
$EndComp
Text GLabel 2800 2600 0    50   Input ~ 0
SCK
Text GLabel 2800 2500 0    50   Input ~ 0
CS_6
Text GLabel 2800 2400 0    50   Input ~ 0
S0
Text GLabel 6150 2500 2    50   Input ~ 0
S0
Text GLabel 6150 2600 2    50   Input ~ 0
SCK
$Comp
L power:+5V #PWR0101
U 1 1 5DC0157F
P 5550 850
F 0 "#PWR0101" H 5550 700 50  0001 C CNN
F 1 "+5V" V 5565 978 50  0000 L CNN
F 2 "" H 5550 850 50  0001 C CNN
F 3 "" H 5550 850 50  0001 C CNN
	1    5550 850 
	1    0    0    -1  
$EndComp
Text GLabel 4650 2000 0    50   Input ~ 0
PWM_1
Text GLabel 4650 2100 0    50   Input ~ 0
PWM_2
Text GLabel 4650 2200 0    50   Input ~ 0
PWM_3
Text GLabel 4650 2300 0    50   Input ~ 0
PWM_4
Text GLabel 6150 2300 2    50   Input ~ 0
PWM_5
Text GLabel 6150 2200 2    50   Input ~ 0
PWM_6
Text GLabel 6150 1100 2    50   Input ~ 0
CS_1
Text GLabel 6150 1200 2    50   Input ~ 0
CS_2
Text GLabel 6150 1300 2    50   Input ~ 0
CS_3
Text GLabel 6150 1400 2    50   Input ~ 0
CS_4
Text GLabel 6150 1500 2    50   Input ~ 0
CS_5
Text GLabel 4650 1900 0    50   Input ~ 0
CS_6
Text GLabel 6150 1600 2    50   Input ~ 0
Sense_6
Text GLabel 6150 1700 2    50   Input ~ 0
Sense_5
Text GLabel 6150 1800 2    50   Input ~ 0
Sense_4
Text GLabel 6150 1900 2    50   Input ~ 0
Sense_3
Text GLabel 6150 2000 2    50   Input ~ 0
Sense_2
Text GLabel 6150 2100 2    50   Input ~ 0
Sense_1
$Comp
L Connector:Conn_01x04_Female J14
U 1 1 5DCDCF19
P 1400 3950
F 0 "J14" H 1428 3926 50  0000 L CNN
F 1 "Display" H 1428 3835 50  0000 L CNN
F 2 "Connector_PinSocket_2.54mm:PinSocket_1x04_P2.54mm_Horizontal" H 1400 3950 50  0001 C CNN
F 3 "~" H 1400 3950 50  0001 C CNN
	1    1400 3950
	1    0    0    -1  
$EndComp
$Comp
L power:+5V #PWR0102
U 1 1 5DCE629D
P 1900 4950
F 0 "#PWR0102" H 1900 4800 50  0001 C CNN
F 1 "+5V" H 1915 5123 50  0000 C CNN
F 2 "" H 1900 4950 50  0001 C CNN
F 3 "" H 1900 4950 50  0001 C CNN
	1    1900 4950
	0    -1   -1   0   
$EndComp
$Comp
L power:GND #PWR0103
U 1 1 5DCE68F7
P 1200 3950
F 0 "#PWR0103" H 1200 3700 50  0001 C CNN
F 1 "GND" V 1205 3822 50  0000 R CNN
F 2 "" H 1200 3950 50  0001 C CNN
F 3 "" H 1200 3950 50  0001 C CNN
	1    1200 3950
	0    1    1    0   
$EndComp
Text GLabel 1200 4050 0    50   Input ~ 0
SDA
Text GLabel 1200 4150 0    50   Input ~ 0
SCL
Text GLabel 4650 2500 0    50   Input ~ 0
SDA
Text GLabel 4650 2400 0    50   Input ~ 0
SCL
$Comp
L bluepill:BP U1
U 1 1 5DB5D4BB
P 5400 1900
F 0 "U1" H 5400 3153 60  0000 C CNN
F 1 "BP" H 5400 3047 60  0000 C CNN
F 2 "bluepill:BLUEPILL" H 5300 2650 60  0001 C CNN
F 3 "" H 5300 2650 60  0001 C CNN
	1    5400 1900
	1    0    0    -1  
$EndComp
$Comp
L Regulator_Linear:AMS1117-3.3 U2
U 1 1 5DB40721
P 2200 4950
F 0 "U2" H 2200 5192 50  0000 C CNN
F 1 "AMS1117-3.3" H 2200 5101 50  0000 C CNN
F 2 "Package_TO_SOT_SMD:SOT-223-3_TabPin2" H 2200 5150 50  0001 C CNN
F 3 "http://www.advanced-monolithic.com/pdf/ds1117.pdf" H 2300 4700 50  0001 C CNN
	1    2200 4950
	1    0    0    -1  
$EndComp
$Comp
L power:GND #PWR0104
U 1 1 5DB51BED
P 2200 5250
F 0 "#PWR0104" H 2200 5000 50  0001 C CNN
F 1 "GND" H 2205 5077 50  0000 C CNN
F 2 "" H 2200 5250 50  0001 C CNN
F 3 "" H 2200 5250 50  0001 C CNN
	1    2200 5250
	1    0    0    -1  
$EndComp
$Comp
L power:+3.3V #PWR0105
U 1 1 5DB521DC
P 2500 4950
F 0 "#PWR0105" H 2500 4800 50  0001 C CNN
F 1 "+3.3V" V 2515 5078 50  0000 L CNN
F 2 "" H 2500 4950 50  0001 C CNN
F 3 "" H 2500 4950 50  0001 C CNN
	1    2500 4950
	0    1    1    0   
$EndComp
$Comp
L power:+3.3V #PWR0106
U 1 1 5DB558E5
P 1200 3850
F 0 "#PWR0106" H 1200 3700 50  0001 C CNN
F 1 "+3.3V" V 1215 3978 50  0000 L CNN
F 2 "" H 1200 3850 50  0001 C CNN
F 3 "" H 1200 3850 50  0001 C CNN
	1    1200 3850
	0    -1   -1   0   
$EndComp
$Comp
L power:+3.3V #PWR0107
U 1 1 5DB59C84
P 1350 1250
F 0 "#PWR0107" H 1350 1100 50  0001 C CNN
F 1 "+3.3V" V 1365 1378 50  0000 L CNN
F 2 "" H 1350 1250 50  0001 C CNN
F 3 "" H 1350 1250 50  0001 C CNN
	1    1350 1250
	0    -1   -1   0   
$EndComp
$Comp
L power:+3.3V #PWR0108
U 1 1 5DB5A042
P 1350 2000
F 0 "#PWR0108" H 1350 1850 50  0001 C CNN
F 1 "+3.3V" V 1365 2128 50  0000 L CNN
F 2 "" H 1350 2000 50  0001 C CNN
F 3 "" H 1350 2000 50  0001 C CNN
	1    1350 2000
	0    -1   -1   0   
$EndComp
$Comp
L power:+3.3V #PWR0109
U 1 1 5DB5B06D
P 1350 2800
F 0 "#PWR0109" H 1350 2650 50  0001 C CNN
F 1 "+3.3V" V 1365 2928 50  0000 L CNN
F 2 "" H 1350 2800 50  0001 C CNN
F 3 "" H 1350 2800 50  0001 C CNN
	1    1350 2800
	0    -1   -1   0   
$EndComp
$Comp
L power:+3.3V #PWR0110
U 1 1 5DB5B6D3
P 2800 1100
F 0 "#PWR0110" H 2800 950 50  0001 C CNN
F 1 "+3.3V" V 2815 1228 50  0000 L CNN
F 2 "" H 2800 1100 50  0001 C CNN
F 3 "" H 2800 1100 50  0001 C CNN
	1    2800 1100
	0    -1   -1   0   
$EndComp
$Comp
L power:+3.3V #PWR0111
U 1 1 5DB5BD99
P 2800 1850
F 0 "#PWR0111" H 2800 1700 50  0001 C CNN
F 1 "+3.3V" V 2815 1978 50  0000 L CNN
F 2 "" H 2800 1850 50  0001 C CNN
F 3 "" H 2800 1850 50  0001 C CNN
	1    2800 1850
	0    -1   -1   0   
$EndComp
$Comp
L power:+3.3V #PWR0112
U 1 1 5DB5C41D
P 2800 2700
F 0 "#PWR0112" H 2800 2550 50  0001 C CNN
F 1 "+3.3V" V 2815 2828 50  0000 L CNN
F 2 "" H 2800 2700 50  0001 C CNN
F 3 "" H 2800 2700 50  0001 C CNN
	1    2800 2700
	0    -1   -1   0   
$EndComp
$Comp
L Device:R R1
U 1 1 5DB64913
P 3850 3800
F 0 "R1" H 3920 3846 50  0000 L CNN
F 1 "10K" H 3920 3755 50  0000 L CNN
F 2 "Resistor_THT:R_Axial_DIN0204_L3.6mm_D1.6mm_P2.54mm_Vertical" V 3780 3800 50  0001 C CNN
F 3 "~" H 3850 3800 50  0001 C CNN
	1    3850 3800
	1    0    0    -1  
$EndComp
$Comp
L power:+3.3V #PWR0113
U 1 1 5DB6A5A7
P 3850 3650
F 0 "#PWR0113" H 3850 3500 50  0001 C CNN
F 1 "+3.3V" V 3865 3778 50  0000 L CNN
F 2 "" H 3850 3650 50  0001 C CNN
F 3 "" H 3850 3650 50  0001 C CNN
	1    3850 3650
	1    0    0    -1  
$EndComp
$Comp
L Device:R R2
U 1 1 5DB72DD2
P 5300 3800
F 0 "R2" H 5370 3846 50  0000 L CNN
F 1 "10K" H 5370 3755 50  0000 L CNN
F 2 "Resistor_THT:R_Axial_DIN0204_L3.6mm_D1.6mm_P2.54mm_Vertical" V 5230 3800 50  0001 C CNN
F 3 "~" H 5300 3800 50  0001 C CNN
	1    5300 3800
	1    0    0    -1  
$EndComp
$Comp
L power:+3.3V #PWR0114
U 1 1 5DB72DD8
P 5300 3650
F 0 "#PWR0114" H 5300 3500 50  0001 C CNN
F 1 "+3.3V" V 5315 3778 50  0000 L CNN
F 2 "" H 5300 3650 50  0001 C CNN
F 3 "" H 5300 3650 50  0001 C CNN
	1    5300 3650
	1    0    0    -1  
$EndComp
$Comp
L Device:R R4
U 1 1 5DB738A8
P 6950 3800
F 0 "R4" H 7020 3846 50  0000 L CNN
F 1 "10K" H 7020 3755 50  0000 L CNN
F 2 "Resistor_THT:R_Axial_DIN0204_L3.6mm_D1.6mm_P2.54mm_Vertical" V 6880 3800 50  0001 C CNN
F 3 "~" H 6950 3800 50  0001 C CNN
	1    6950 3800
	1    0    0    -1  
$EndComp
$Comp
L power:+3.3V #PWR0115
U 1 1 5DB738AE
P 6950 3650
F 0 "#PWR0115" H 6950 3500 50  0001 C CNN
F 1 "+3.3V" V 6965 3778 50  0000 L CNN
F 2 "" H 6950 3650 50  0001 C CNN
F 3 "" H 6950 3650 50  0001 C CNN
	1    6950 3650
	1    0    0    -1  
$EndComp
$Comp
L Device:R R3
U 1 1 5DB7430E
P 6850 4950
F 0 "R3" H 6920 4996 50  0000 L CNN
F 1 "10K" H 6920 4905 50  0000 L CNN
F 2 "Resistor_THT:R_Axial_DIN0204_L3.6mm_D1.6mm_P2.54mm_Vertical" V 6780 4950 50  0001 C CNN
F 3 "~" H 6850 4950 50  0001 C CNN
	1    6850 4950
	1    0    0    -1  
$EndComp
$Comp
L power:+3.3V #PWR0116
U 1 1 5DB74314
P 6850 4800
F 0 "#PWR0116" H 6850 4650 50  0001 C CNN
F 1 "+3.3V" V 6865 4928 50  0000 L CNN
F 2 "" H 6850 4800 50  0001 C CNN
F 3 "" H 6850 4800 50  0001 C CNN
	1    6850 4800
	1    0    0    -1  
$EndComp
$Comp
L Device:R R6
U 1 1 5DB760F4
P 8550 3750
F 0 "R6" H 8620 3796 50  0000 L CNN
F 1 "10K" H 8620 3705 50  0000 L CNN
F 2 "Resistor_THT:R_Axial_DIN0204_L3.6mm_D1.6mm_P2.54mm_Vertical" V 8480 3750 50  0001 C CNN
F 3 "~" H 8550 3750 50  0001 C CNN
	1    8550 3750
	1    0    0    -1  
$EndComp
$Comp
L power:+3.3V #PWR0117
U 1 1 5DB760FA
P 8550 3600
F 0 "#PWR0117" H 8550 3450 50  0001 C CNN
F 1 "+3.3V" V 8565 3728 50  0000 L CNN
F 2 "" H 8550 3600 50  0001 C CNN
F 3 "" H 8550 3600 50  0001 C CNN
	1    8550 3600
	1    0    0    -1  
$EndComp
$Comp
L Device:R R5
U 1 1 5DB76ABA
P 8400 5000
F 0 "R5" H 8470 5046 50  0000 L CNN
F 1 "10K" H 8470 4955 50  0000 L CNN
F 2 "Resistor_THT:R_Axial_DIN0204_L3.6mm_D1.6mm_P2.54mm_Vertical" V 8330 5000 50  0001 C CNN
F 3 "~" H 8400 5000 50  0001 C CNN
	1    8400 5000
	1    0    0    -1  
$EndComp
$Comp
L power:+3.3V #PWR0118
U 1 1 5DB76AC0
P 8400 4850
F 0 "#PWR0118" H 8400 4700 50  0001 C CNN
F 1 "+3.3V" V 8415 4978 50  0000 L CNN
F 2 "" H 8400 4850 50  0001 C CNN
F 3 "" H 8400 4850 50  0001 C CNN
	1    8400 4850
	1    0    0    -1  
$EndComp
$Comp
L power:+3.3V #PWR0119
U 1 1 5DB69C5E
P 5400 850
F 0 "#PWR0119" H 5400 700 50  0001 C CNN
F 1 "+3.3V" V 5415 978 50  0000 L CNN
F 2 "" H 5400 850 50  0001 C CNN
F 3 "" H 5400 850 50  0001 C CNN
	1    5400 850 
	1    0    0    -1  
$EndComp
$EndSCHEMATC
