%!PS-Adobe-3.0
%%Creator: PCBNEW
%%CreationDate: Sat Oct 26 00:16:51 2019
%%Title: /home/sahaj/data/projects/pc-fan/pc-fan/pc-fan-NPTH-drl_map.ps
%%Pages: 1
%%PageOrder: Ascend
%%BoundingBox: 0 0 596 842
%%DocumentMedia: A4 595 842 0 () ()
%%Orientation: Landscape
%%EndComments
%%BeginProlog
/line { newpath moveto lineto stroke } bind def
/cir0 { newpath 0 360 arc stroke } bind def
/cir1 { newpath 0 360 arc gsave fill grestore stroke } bind def
/cir2 { newpath 0 360 arc gsave fill grestore stroke } bind def
/arc0 { newpath arc stroke } bind def
/arc1 { newpath 4 index 4 index moveto arc closepath gsave fill
    grestore stroke } bind def
/arc2 { newpath 4 index 4 index moveto arc closepath gsave fill
    grestore stroke } bind def
/poly0 { stroke } bind def
/poly1 { closepath gsave fill grestore stroke } bind def
/poly2 { closepath gsave fill grestore stroke } bind def
/rect0 { rectstroke } bind def
/rect1 { rectfill } bind def
/rect2 { rectfill } bind def
/linemode0 { 0 setlinecap 0 setlinejoin 0 setlinewidth } bind def
/linemode1 { 1 setlinecap 1 setlinejoin } bind def
/dashedline { [200] 100 setdash } bind def
/solidline { [] 0 setdash } bind def
/phantomshow { moveto
    /KicadFont findfont 0.000001 scalefont setfont
    show } bind def
/textshow { gsave
    findfont exch scalefont setfont concat 1 scale 0 0 moveto show
    } bind def
/reencodefont {
  findfont dup length dict begin
  { 1 index /FID ne
    { def }
    { pop pop } ifelse
  } forall
  /Encoding ISOLatin1Encoding def
  currentdict
  end } bind def
/KicadFont /Helvetica reencodefont definefont pop
/KicadFont-Bold /Helvetica-Bold reencodefont definefont pop
/KicadFont-Oblique /Helvetica-Oblique reencodefont definefont pop
/KicadFont-BoldOblique /Helvetica-BoldOblique reencodefont definefont pop
%%EndProlog
%%Page: 1 1
%%BeginPageSetup
gsave
0.0072 0.0072 scale
linemode1
82680 0 translate 90 rotate
78.3305 setlinewidth
%%EndPageSetup
0 0 0 setrgbcolor
30.8388 setlinewidth
newpath
86335 37024.4 moveto
86335 37212.4 lineto
stroke
0 0 0 setrgbcolor
newpath
30595 37024.4 moveto
86335 37024.4 lineto
stroke
0 0 0 setrgbcolor
newpath
86335 61400.9 moveto
86335 37212.4 lineto
stroke
0 0 0 setrgbcolor
newpath
82481.1 61400.9 moveto
86335 61400.9 lineto
stroke
0 0 0 setrgbcolor
newpath
65123.1 61400.9 moveto
82481.1 61400.9 lineto
stroke
0 0 0 setrgbcolor
newpath
65123.1 78727.6 moveto
65123.1 61400.9 lineto
stroke
0 0 0 setrgbcolor
newpath
30595 78727.6 moveto
65123.1 78727.6 lineto
stroke
0 0 0 setrgbcolor
newpath
30595 37024.4 moveto
30595 78727.6 lineto
stroke
78.74 setlinewidth
newpath
49740.5 60296.6 moveto
51899.2 58137.9 lineto
stroke
newpath
51899.2 60296.6 moveto
49740.5 58137.9 lineto
stroke
newpath
66261.4 45999.5 moveto
68420.1 43840.8 lineto
stroke
newpath
68420.1 45999.5 moveto
66261.4 43840.8 lineto
stroke
newpath
34113.8 60413.8 moveto
36272.6 58255.1 lineto
stroke
newpath
36272.6 60413.8 moveto
34113.8 58255.1 lineto
stroke
newpath
66340.4 53989.2 moveto
68499.1 51830.5 lineto
stroke
newpath
68499.1 53989.2 moveto
66340.4 51830.5 lineto
stroke
newpath
41750.8 60374.3 moveto
43909.5 58215.6 lineto
stroke
newpath
43909.5 60374.3 moveto
41750.8 58215.6 lineto
stroke
newpath
57933.7 60241.5 moveto
60092.4 58082.7 lineto
stroke
newpath
60092.4 60241.5 moveto
57933.7 58082.7 lineto
stroke
118.11 setlinewidth
0 0 0 setrgbcolor
0 0 0 setrgbcolor
newpath
31707.3 35175.5 moveto
31707.3 36356.6 lineto
31988.5 36356.6 lineto
32157.2 36300.3 lineto
32269.7 36187.9 lineto
32325.9 36075.4 lineto
32382.2 35850.4 lineto
32382.2 35681.7 lineto
32325.9 35456.7 lineto
32269.7 35344.2 lineto
32157.2 35231.7 lineto
31988.5 35175.5 lineto
31707.3 35175.5 lineto
stroke
newpath
32888.4 35175.5 moveto
32888.4 35962.9 lineto
stroke
newpath
32888.4 35737.9 moveto
32944.6 35850.4 lineto
33000.9 35906.6 lineto
33113.3 35962.9 lineto
33225.8 35962.9 lineto
stroke
newpath
33619.5 35175.5 moveto
33619.5 35962.9 lineto
stroke
newpath
33619.5 36356.6 moveto
33563.3 36300.3 lineto
33619.5 36244.1 lineto
33675.8 36300.3 lineto
33619.5 36356.6 lineto
33619.5 36244.1 lineto
stroke
newpath
34350.7 35175.5 moveto
34238.2 35231.7 lineto
34182 35344.2 lineto
34182 36356.6 lineto
stroke
newpath
34969.4 35175.5 moveto
34856.9 35231.7 lineto
34800.6 35344.2 lineto
34800.6 36356.6 lineto
stroke
newpath
36319.2 35175.5 moveto
36319.2 36356.6 lineto
36712.9 35512.9 lineto
37106.6 36356.6 lineto
37106.6 35175.5 lineto
stroke
newpath
38175.2 35175.5 moveto
38175.2 35794.2 lineto
38119 35906.6 lineto
38006.5 35962.9 lineto
37781.5 35962.9 lineto
37669 35906.6 lineto
stroke
newpath
38175.2 35231.7 moveto
38062.7 35175.5 lineto
37781.5 35175.5 lineto
37669 35231.7 lineto
37612.8 35344.2 lineto
37612.8 35456.7 lineto
37669 35569.2 lineto
37781.5 35625.4 lineto
38062.7 35625.4 lineto
38175.2 35681.7 lineto
stroke
newpath
38737.6 35962.9 moveto
38737.6 34781.8 lineto
stroke
newpath
38737.6 35906.6 moveto
38850.1 35962.9 lineto
39075.1 35962.9 lineto
39187.6 35906.6 lineto
39243.8 35850.4 lineto
39300.1 35737.9 lineto
39300.1 35400.5 lineto
39243.8 35288 lineto
39187.6 35231.7 lineto
39075.1 35175.5 lineto
38850.1 35175.5 lineto
38737.6 35231.7 lineto
stroke
newpath
39806.3 35288 moveto
39862.5 35231.7 lineto
39806.3 35175.5 lineto
39750 35231.7 lineto
39806.3 35288 lineto
39806.3 35175.5 lineto
stroke
newpath
39806.3 35906.6 moveto
39862.5 35850.4 lineto
39806.3 35794.2 lineto
39750 35850.4 lineto
39806.3 35906.6 lineto
39806.3 35794.2 lineto
stroke
newpath
28420.9 34308.8 moveto
30579.6 32150.1 lineto
stroke
newpath
30579.6 34308.8 moveto
28420.9 32150.1 lineto
stroke
0 0 0 setrgbcolor
0 0 0 setrgbcolor
newpath
31594.8 33876.3 moveto
32325.9 33876.3 lineto
31932.2 33426.3 lineto
32101 33426.3 lineto
32213.5 33370.1 lineto
32269.7 33313.8 lineto
32325.9 33201.4 lineto
32325.9 32920.1 lineto
32269.7 32807.7 lineto
32213.5 32751.4 lineto
32101 32695.2 lineto
31763.5 32695.2 lineto
31651 32751.4 lineto
31594.8 32807.7 lineto
stroke
newpath
32832.1 32807.7 moveto
32888.4 32751.4 lineto
32832.1 32695.2 lineto
32775.9 32751.4 lineto
32832.1 32807.7 lineto
32832.1 32695.2 lineto
stroke
newpath
33957 33876.3 moveto
33394.6 33876.3 lineto
33338.3 33313.8 lineto
33394.6 33370.1 lineto
33507 33426.3 lineto
33788.3 33426.3 lineto
33900.7 33370.1 lineto
33957 33313.8 lineto
34013.2 33201.4 lineto
34013.2 32920.1 lineto
33957 32807.7 lineto
33900.7 32751.4 lineto
33788.3 32695.2 lineto
33507 32695.2 lineto
33394.6 32751.4 lineto
33338.3 32807.7 lineto
stroke
newpath
34744.4 33876.3 moveto
34856.9 33876.3 lineto
34969.4 33820 lineto
35025.6 33763.8 lineto
35081.8 33651.3 lineto
35138.1 33426.3 lineto
35138.1 33145.1 lineto
35081.8 32920.1 lineto
35025.6 32807.7 lineto
34969.4 32751.4 lineto
34856.9 32695.2 lineto
34744.4 32695.2 lineto
34631.9 32751.4 lineto
34575.7 32807.7 lineto
34519.4 32920.1 lineto
34463.2 33145.1 lineto
34463.2 33426.3 lineto
34519.4 33651.3 lineto
34575.7 33763.8 lineto
34631.9 33820 lineto
34744.4 33876.3 lineto
stroke
newpath
35644.3 32695.2 moveto
35644.3 33482.6 lineto
stroke
newpath
35644.3 33370.1 moveto
35700.5 33426.3 lineto
35813 33482.6 lineto
35981.7 33482.6 lineto
36094.2 33426.3 lineto
36150.5 33313.8 lineto
36150.5 32695.2 lineto
stroke
newpath
36150.5 33313.8 moveto
36206.7 33426.3 lineto
36319.2 33482.6 lineto
36487.9 33482.6 lineto
36600.4 33426.3 lineto
36656.7 33313.8 lineto
36656.7 32695.2 lineto
stroke
newpath
37219.1 32695.2 moveto
37219.1 33482.6 lineto
stroke
newpath
37219.1 33370.1 moveto
37275.3 33426.3 lineto
37387.8 33482.6 lineto
37556.5 33482.6 lineto
37669 33426.3 lineto
37725.3 33313.8 lineto
37725.3 32695.2 lineto
stroke
newpath
37725.3 33313.8 moveto
37781.5 33426.3 lineto
37894 33482.6 lineto
38062.7 33482.6 lineto
38175.2 33426.3 lineto
38231.5 33313.8 lineto
38231.5 32695.2 lineto
stroke
newpath
40537.4 33932.5 moveto
39525 32414 lineto
stroke
newpath
42056 33876.3 moveto
42168.5 33876.3 lineto
42280.9 33820 lineto
42337.2 33763.8 lineto
42393.4 33651.3 lineto
42449.7 33426.3 lineto
42449.7 33145.1 lineto
42393.4 32920.1 lineto
42337.2 32807.7 lineto
42280.9 32751.4 lineto
42168.5 32695.2 lineto
42056 32695.2 lineto
41943.5 32751.4 lineto
41887.2 32807.7 lineto
41831 32920.1 lineto
41774.8 33145.1 lineto
41774.8 33426.3 lineto
41831 33651.3 lineto
41887.2 33763.8 lineto
41943.5 33820 lineto
42056 33876.3 lineto
stroke
newpath
42955.9 32807.7 moveto
43012.1 32751.4 lineto
42955.9 32695.2 lineto
42899.6 32751.4 lineto
42955.9 32807.7 lineto
42955.9 32695.2 lineto
stroke
newpath
44137 32695.2 moveto
43462.1 32695.2 lineto
stroke
newpath
43799.5 32695.2 moveto
43799.5 33876.3 lineto
43687 33707.5 lineto
43574.5 33595.1 lineto
43462.1 33538.8 lineto
stroke
newpath
44530.7 33876.3 moveto
45261.8 33876.3 lineto
44868.1 33426.3 lineto
45036.9 33426.3 lineto
45149.3 33370.1 lineto
45205.6 33313.8 lineto
45261.8 33201.4 lineto
45261.8 32920.1 lineto
45205.6 32807.7 lineto
45149.3 32751.4 lineto
45036.9 32695.2 lineto
44699.4 32695.2 lineto
44586.9 32751.4 lineto
44530.7 32807.7 lineto
stroke
newpath
45936.7 33370.1 moveto
45824.3 33426.3 lineto
45768 33482.6 lineto
45711.8 33595.1 lineto
45711.8 33651.3 lineto
45768 33763.8 lineto
45824.3 33820 lineto
45936.7 33876.3 lineto
46161.7 33876.3 lineto
46274.2 33820 lineto
46330.4 33763.8 lineto
46386.7 33651.3 lineto
46386.7 33595.1 lineto
46330.4 33482.6 lineto
46274.2 33426.3 lineto
46161.7 33370.1 lineto
45936.7 33370.1 lineto
45824.3 33313.8 lineto
45768 33257.6 lineto
45711.8 33145.1 lineto
45711.8 32920.1 lineto
45768 32807.7 lineto
45824.3 32751.4 lineto
45936.7 32695.2 lineto
46161.7 32695.2 lineto
46274.2 32751.4 lineto
46330.4 32807.7 lineto
46386.7 32920.1 lineto
46386.7 33145.1 lineto
46330.4 33257.6 lineto
46274.2 33313.8 lineto
46161.7 33370.1 lineto
stroke
newpath
46836.6 33876.3 moveto
46836.6 33651.3 lineto
stroke
newpath
47286.6 33876.3 moveto
47286.6 33651.3 lineto
stroke
newpath
49030.1 32245.2 moveto
48973.9 32301.5 lineto
48861.4 32470.2 lineto
48805.1 32582.7 lineto
48748.9 32751.4 lineto
48692.6 33032.6 lineto
48692.6 33257.6 lineto
48748.9 33538.8 lineto
48805.1 33707.5 lineto
48861.4 33820 lineto
48973.9 33988.8 lineto
49030.1 34045 lineto
stroke
newpath
49986.2 33876.3 moveto
49761.3 33876.3 lineto
49648.8 33820 lineto
49592.5 33763.8 lineto
49480.1 33595.1 lineto
49423.8 33370.1 lineto
49423.8 32920.1 lineto
49480.1 32807.7 lineto
49536.3 32751.4 lineto
49648.8 32695.2 lineto
49873.8 32695.2 lineto
49986.2 32751.4 lineto
50042.5 32807.7 lineto
50098.7 32920.1 lineto
50098.7 33201.4 lineto
50042.5 33313.8 lineto
49986.2 33370.1 lineto
49873.8 33426.3 lineto
49648.8 33426.3 lineto
49536.3 33370.1 lineto
49480.1 33313.8 lineto
49423.8 33201.4 lineto
stroke
newpath
51504.8 32695.2 moveto
51504.8 33876.3 lineto
stroke
newpath
52011 32695.2 moveto
52011 33313.8 lineto
51954.7 33426.3 lineto
51842.3 33482.6 lineto
51673.5 33482.6 lineto
51561 33426.3 lineto
51504.8 33370.1 lineto
stroke
newpath
52742.1 32695.2 moveto
52629.7 32751.4 lineto
52573.4 32807.7 lineto
52517.2 32920.1 lineto
52517.2 33257.6 lineto
52573.4 33370.1 lineto
52629.7 33426.3 lineto
52742.1 33482.6 lineto
52910.9 33482.6 lineto
53023.4 33426.3 lineto
53079.6 33370.1 lineto
53135.8 33257.6 lineto
53135.8 32920.1 lineto
53079.6 32807.7 lineto
53023.4 32751.4 lineto
52910.9 32695.2 lineto
52742.1 32695.2 lineto
stroke
newpath
53810.8 32695.2 moveto
53698.3 32751.4 lineto
53642 32863.9 lineto
53642 33876.3 lineto
stroke
newpath
54710.6 32751.4 moveto
54598.2 32695.2 lineto
54373.2 32695.2 lineto
54260.7 32751.4 lineto
54204.5 32863.9 lineto
54204.5 33313.8 lineto
54260.7 33426.3 lineto
54373.2 33482.6 lineto
54598.2 33482.6 lineto
54710.6 33426.3 lineto
54766.9 33313.8 lineto
54766.9 33201.4 lineto
54204.5 33088.9 lineto
stroke
newpath
55216.8 32751.4 moveto
55329.3 32695.2 lineto
55554.3 32695.2 lineto
55666.8 32751.4 lineto
55723 32863.9 lineto
55723 32920.1 lineto
55666.8 33032.6 lineto
55554.3 33088.9 lineto
55385.6 33088.9 lineto
55273.1 33145.1 lineto
55216.8 33257.6 lineto
55216.8 33313.8 lineto
55273.1 33426.3 lineto
55385.6 33482.6 lineto
55554.3 33482.6 lineto
55666.8 33426.3 lineto
stroke
newpath
56116.7 32245.2 moveto
56173 32301.5 lineto
56285.5 32470.2 lineto
56341.7 32582.7 lineto
56397.9 32751.4 lineto
56454.2 33032.6 lineto
56454.2 33257.6 lineto
56397.9 33538.8 lineto
56341.7 33707.5 lineto
56285.5 33820 lineto
56173 33988.8 lineto
56116.7 34045 lineto
stroke
newpath
58254 32245.2 moveto
58197.7 32301.5 lineto
58085.2 32470.2 lineto
58029 32582.7 lineto
57972.7 32751.4 lineto
57916.5 33032.6 lineto
57916.5 33257.6 lineto
57972.7 33538.8 lineto
58029 33707.5 lineto
58085.2 33820 lineto
58197.7 33988.8 lineto
58254 34045 lineto
stroke
newpath
58703.9 33482.6 moveto
58703.9 32695.2 lineto
stroke
newpath
58703.9 33370.1 moveto
58760.1 33426.3 lineto
58872.6 33482.6 lineto
59041.4 33482.6 lineto
59153.8 33426.3 lineto
59210.1 33313.8 lineto
59210.1 32695.2 lineto
stroke
newpath
59941.2 32695.2 moveto
59828.8 32751.4 lineto
59772.5 32807.7 lineto
59716.3 32920.1 lineto
59716.3 33257.6 lineto
59772.5 33370.1 lineto
59828.8 33426.3 lineto
59941.2 33482.6 lineto
60110 33482.6 lineto
60222.5 33426.3 lineto
60278.7 33370.1 lineto
60334.9 33257.6 lineto
60334.9 32920.1 lineto
60278.7 32807.7 lineto
60222.5 32751.4 lineto
60110 32695.2 lineto
59941.2 32695.2 lineto
stroke
newpath
60672.4 33482.6 moveto
61122.3 33482.6 lineto
stroke
newpath
60841.1 33876.3 moveto
60841.1 32863.9 lineto
60897.4 32751.4 lineto
61009.9 32695.2 lineto
61122.3 32695.2 lineto
stroke
newpath
62415.9 33482.6 moveto
62415.9 32301.5 lineto
stroke
newpath
62415.9 33426.3 moveto
62528.4 33482.6 lineto
62753.4 33482.6 lineto
62865.9 33426.3 lineto
62922.1 33370.1 lineto
62978.4 33257.6 lineto
62978.4 32920.1 lineto
62922.1 32807.7 lineto
62865.9 32751.4 lineto
62753.4 32695.2 lineto
62528.4 32695.2 lineto
62415.9 32751.4 lineto
stroke
newpath
63653.3 32695.2 moveto
63540.8 32751.4 lineto
63484.6 32863.9 lineto
63484.6 33876.3 lineto
stroke
newpath
64609.4 32695.2 moveto
64609.4 33313.8 lineto
64553.2 33426.3 lineto
64440.7 33482.6 lineto
64215.7 33482.6 lineto
64103.2 33426.3 lineto
stroke
newpath
64609.4 32751.4 moveto
64496.9 32695.2 lineto
64215.7 32695.2 lineto
64103.2 32751.4 lineto
64047 32863.9 lineto
64047 32976.4 lineto
64103.2 33088.9 lineto
64215.7 33145.1 lineto
64496.9 33145.1 lineto
64609.4 33201.4 lineto
stroke
newpath
65003.1 33482.6 moveto
65453.1 33482.6 lineto
stroke
newpath
65171.8 33876.3 moveto
65171.8 32863.9 lineto
65228.1 32751.4 lineto
65340.6 32695.2 lineto
65453.1 32695.2 lineto
stroke
newpath
66296.7 32751.4 moveto
66184.2 32695.2 lineto
65959.2 32695.2 lineto
65846.8 32751.4 lineto
65790.5 32863.9 lineto
65790.5 33313.8 lineto
65846.8 33426.3 lineto
65959.2 33482.6 lineto
66184.2 33482.6 lineto
66296.7 33426.3 lineto
66352.9 33313.8 lineto
66352.9 33201.4 lineto
65790.5 33088.9 lineto
stroke
newpath
67365.3 32695.2 moveto
67365.3 33876.3 lineto
stroke
newpath
67365.3 32751.4 moveto
67252.8 32695.2 lineto
67027.9 32695.2 lineto
66915.4 32751.4 lineto
66859.1 32807.7 lineto
66802.9 32920.1 lineto
66802.9 33257.6 lineto
66859.1 33370.1 lineto
66915.4 33426.3 lineto
67027.9 33482.6 lineto
67252.8 33482.6 lineto
67365.3 33426.3 lineto
stroke
newpath
67815.3 32245.2 moveto
67871.5 32301.5 lineto
67984 32470.2 lineto
68040.2 32582.7 lineto
68096.5 32751.4 lineto
68152.7 33032.6 lineto
68152.7 33257.6 lineto
68096.5 33538.8 lineto
68040.2 33707.5 lineto
67984 33820 lineto
67871.5 33988.8 lineto
67815.3 34045 lineto
stroke
showpage
grestore
%%EOF
