%!PS-Adobe-3.0
%%Creator: PCBNEW
%%CreationDate: Sat Oct 26 00:16:51 2019
%%Title: /home/sahaj/data/projects/pc-fan/pc-fan/pc-fan-PTH-drl_map.ps
%%Pages: 1
%%PageOrder: Ascend
%%BoundingBox: 0 0 596 842
%%DocumentMedia: A4 595 842 0 () ()
%%Orientation: Landscape
%%EndComments
%%BeginProlog
/line { newpath moveto lineto stroke } bind def
/cir0 { newpath 0 360 arc stroke } bind def
/cir1 { newpath 0 360 arc gsave fill grestore stroke } bind def
/cir2 { newpath 0 360 arc gsave fill grestore stroke } bind def
/arc0 { newpath arc stroke } bind def
/arc1 { newpath 4 index 4 index moveto arc closepath gsave fill
    grestore stroke } bind def
/arc2 { newpath 4 index 4 index moveto arc closepath gsave fill
    grestore stroke } bind def
/poly0 { stroke } bind def
/poly1 { closepath gsave fill grestore stroke } bind def
/poly2 { closepath gsave fill grestore stroke } bind def
/rect0 { rectstroke } bind def
/rect1 { rectfill } bind def
/rect2 { rectfill } bind def
/linemode0 { 0 setlinecap 0 setlinejoin 0 setlinewidth } bind def
/linemode1 { 1 setlinecap 1 setlinejoin } bind def
/dashedline { [200] 100 setdash } bind def
/solidline { [] 0 setdash } bind def
/phantomshow { moveto
    /KicadFont findfont 0.000001 scalefont setfont
    show } bind def
/textshow { gsave
    findfont exch scalefont setfont concat 1 scale 0 0 moveto show
    } bind def
/reencodefont {
  findfont dup length dict begin
  { 1 index /FID ne
    { def }
    { pop pop } ifelse
  } forall
  /Encoding ISOLatin1Encoding def
  currentdict
  end } bind def
/KicadFont /Helvetica reencodefont definefont pop
/KicadFont-Bold /Helvetica-Bold reencodefont definefont pop
/KicadFont-Oblique /Helvetica-Oblique reencodefont definefont pop
/KicadFont-BoldOblique /Helvetica-BoldOblique reencodefont definefont pop
%%EndProlog
%%Page: 1 1
%%BeginPageSetup
gsave
0.0072 0.0072 scale
linemode1
82680 0 translate 90 rotate
78.3305 setlinewidth
%%EndPageSetup
0 0 0 setrgbcolor
30.8388 setlinewidth
newpath
86335 37024.4 moveto
86335 37212.4 lineto
stroke
0 0 0 setrgbcolor
newpath
30595 37024.4 moveto
86335 37024.4 lineto
stroke
0 0 0 setrgbcolor
newpath
86335 61400.9 moveto
86335 37212.4 lineto
stroke
0 0 0 setrgbcolor
newpath
82481.1 61400.9 moveto
86335 61400.9 lineto
stroke
0 0 0 setrgbcolor
newpath
65123.1 61400.9 moveto
82481.1 61400.9 lineto
stroke
0 0 0 setrgbcolor
newpath
65123.1 78727.6 moveto
65123.1 61400.9 lineto
stroke
0 0 0 setrgbcolor
newpath
30595 78727.6 moveto
65123.1 78727.6 lineto
stroke
0 0 0 setrgbcolor
newpath
30595 37024.4 moveto
30595 78727.6 lineto
stroke
78.74 setlinewidth
newpath
33197.9 66380.2 moveto
33506.3 66071.8 lineto
stroke
newpath
33506.3 66380.2 moveto
33197.9 66071.8 lineto
stroke
newpath
33197.9 65440.3 moveto
33506.3 65131.9 lineto
stroke
newpath
33506.3 65440.3 moveto
33197.9 65131.9 lineto
stroke
newpath
33197.9 64437.6 moveto
33506.3 64129.2 lineto
stroke
newpath
33506.3 64437.6 moveto
33197.9 64129.2 lineto
stroke
newpath
33197.9 63403.7 moveto
33506.3 63095.3 lineto
stroke
newpath
33506.3 63403.7 moveto
33197.9 63095.3 lineto
stroke
newpath
33197.9 62369.7 moveto
33506.3 62061.3 lineto
stroke
newpath
33506.3 62369.7 moveto
33197.9 62061.3 lineto
stroke
newpath
33197.9 60677.8 moveto
33506.3 60369.4 lineto
stroke
newpath
33506.3 60677.8 moveto
33197.9 60369.4 lineto
stroke
newpath
33197.9 59643.8 moveto
33506.3 59335.4 lineto
stroke
newpath
33506.3 59643.8 moveto
33197.9 59335.4 lineto
stroke
newpath
33197.9 58578.5 moveto
33506.3 58270.1 lineto
stroke
newpath
33506.3 58578.5 moveto
33197.9 58270.1 lineto
stroke
newpath
35046.4 65440.3 moveto
35354.8 65131.9 lineto
stroke
newpath
35354.8 65440.3 moveto
35046.4 65131.9 lineto
stroke
newpath
35046.4 64437.6 moveto
35354.8 64129.2 lineto
stroke
newpath
35354.8 64437.6 moveto
35046.4 64129.2 lineto
stroke
newpath
35046.4 63403.7 moveto
35354.8 63095.3 lineto
stroke
newpath
35354.8 63403.7 moveto
35046.4 63095.3 lineto
stroke
newpath
35046.4 62369.7 moveto
35354.8 62061.3 lineto
stroke
newpath
35354.8 62369.7 moveto
35046.4 62061.3 lineto
stroke
newpath
35077.9 66380.2 moveto
35386.3 66071.8 lineto
stroke
newpath
35386.3 66380.2 moveto
35077.9 66071.8 lineto
stroke
newpath
37177.4 60458.4 moveto
37485.8 60150.1 lineto
stroke
newpath
37485.8 60458.4 moveto
37177.4 60150.1 lineto
stroke
newpath
37177.4 59424.5 moveto
37485.8 59116.1 lineto
stroke
newpath
37485.8 59424.5 moveto
37177.4 59116.1 lineto
stroke
newpath
37177.4 58453.2 moveto
37485.8 58144.8 lineto
stroke
newpath
37485.8 58453.2 moveto
37177.4 58144.8 lineto
stroke
newpath
37208.8 63309.7 moveto
37517.2 63001.3 lineto
stroke
newpath
37517.2 63309.7 moveto
37208.8 63001.3 lineto
stroke
newpath
37208.8 62307 moveto
37517.2 61998.6 lineto
stroke
newpath
37517.2 62307 moveto
37208.8 61998.6 lineto
stroke
newpath
37239.7 66411.6 moveto
37548 66103.2 lineto
stroke
newpath
37548 66411.6 moveto
37239.7 66103.2 lineto
stroke
newpath
37239.7 64343.6 moveto
37548 64035.2 lineto
stroke
newpath
37548 64343.6 moveto
37239.7 64035.2 lineto
stroke
newpath
37271.1 65377.6 moveto
37579.5 65069.2 lineto
stroke
newpath
37579.5 65377.6 moveto
37271.1 65069.2 lineto
stroke
newpath
40717.7 66348.9 moveto
41026 66040.5 lineto
stroke
newpath
41026 66348.9 moveto
40717.7 66040.5 lineto
stroke
newpath
40717.7 65408.9 moveto
41026 65100.5 lineto
stroke
newpath
41026 65408.9 moveto
40717.7 65100.5 lineto
stroke
newpath
40717.7 64406.3 moveto
41026 64097.9 lineto
stroke
newpath
41026 64406.3 moveto
40717.7 64097.9 lineto
stroke
newpath
40717.7 63372.3 moveto
41026 63063.9 lineto
stroke
newpath
41026 63372.3 moveto
40717.7 63063.9 lineto
stroke
newpath
40717.7 62338.4 moveto
41026 62030 lineto
stroke
newpath
41026 62338.4 moveto
40717.7 62030 lineto
stroke
newpath
40717.7 60646.4 moveto
41026 60338 lineto
stroke
newpath
41026 60646.4 moveto
40717.7 60338 lineto
stroke
newpath
40717.7 59612.5 moveto
41026 59304.1 lineto
stroke
newpath
41026 59612.5 moveto
40717.7 59304.1 lineto
stroke
newpath
40717.7 58547.2 moveto
41026 58238.8 lineto
stroke
newpath
41026 58547.2 moveto
40717.7 58238.8 lineto
stroke
newpath
42566.1 65408.9 moveto
42874.5 65100.5 lineto
stroke
newpath
42874.5 65408.9 moveto
42566.1 65100.5 lineto
stroke
newpath
42566.1 64406.3 moveto
42874.5 64097.9 lineto
stroke
newpath
42874.5 64406.3 moveto
42566.1 64097.9 lineto
stroke
newpath
42566.1 63372.3 moveto
42874.5 63063.9 lineto
stroke
newpath
42874.5 63372.3 moveto
42566.1 63063.9 lineto
stroke
newpath
42566.1 62338.4 moveto
42874.5 62030 lineto
stroke
newpath
42874.5 62338.4 moveto
42566.1 62030 lineto
stroke
newpath
42597.6 66348.9 moveto
42906 66040.5 lineto
stroke
newpath
42906 66348.9 moveto
42597.6 66040.5 lineto
stroke
newpath
44697.1 60427.1 moveto
45005.5 60118.7 lineto
stroke
newpath
45005.5 60427.1 moveto
44697.1 60118.7 lineto
stroke
newpath
44697.1 59393.1 moveto
45005.5 59084.8 lineto
stroke
newpath
45005.5 59393.1 moveto
44697.1 59084.8 lineto
stroke
newpath
44697.1 58421.8 moveto
45005.5 58113.5 lineto
stroke
newpath
45005.5 58421.8 moveto
44697.1 58113.5 lineto
stroke
newpath
44728.5 63278.3 moveto
45036.9 62969.9 lineto
stroke
newpath
45036.9 63278.3 moveto
44728.5 62969.9 lineto
stroke
newpath
44728.5 62275.7 moveto
45036.9 61967.3 lineto
stroke
newpath
45036.9 62275.7 moveto
44728.5 61967.3 lineto
stroke
newpath
44759.4 66380.2 moveto
45067.8 66071.8 lineto
stroke
newpath
45067.8 66380.2 moveto
44759.4 66071.8 lineto
stroke
newpath
44759.4 64312.3 moveto
45067.8 64003.9 lineto
stroke
newpath
45067.8 64312.3 moveto
44759.4 64003.9 lineto
stroke
newpath
44790.8 65346.3 moveto
45099.2 65037.9 lineto
stroke
newpath
45099.2 65346.3 moveto
44790.8 65037.9 lineto
stroke
newpath
48645.1 66474.2 moveto
48953.5 66165.8 lineto
stroke
newpath
48953.5 66474.2 moveto
48645.1 66165.8 lineto
stroke
newpath
48645.1 65534.3 moveto
48953.5 65225.9 lineto
stroke
newpath
48953.5 65534.3 moveto
48645.1 65225.9 lineto
stroke
newpath
48645.1 64531.6 moveto
48953.5 64223.2 lineto
stroke
newpath
48953.5 64531.6 moveto
48645.1 64223.2 lineto
stroke
newpath
48645.1 63497.7 moveto
48953.5 63189.3 lineto
stroke
newpath
48953.5 63497.7 moveto
48645.1 63189.3 lineto
stroke
newpath
48645.1 62463.7 moveto
48953.5 62155.3 lineto
stroke
newpath
48953.5 62463.7 moveto
48645.1 62155.3 lineto
stroke
newpath
48645.1 60771.8 moveto
48953.5 60463.4 lineto
stroke
newpath
48953.5 60771.8 moveto
48645.1 60463.4 lineto
stroke
newpath
48645.1 59737.8 moveto
48953.5 59429.4 lineto
stroke
newpath
48953.5 59737.8 moveto
48645.1 59429.4 lineto
stroke
newpath
48645.1 58672.5 moveto
48953.5 58364.1 lineto
stroke
newpath
48953.5 58672.5 moveto
48645.1 58364.1 lineto
stroke
newpath
50493.5 65534.3 moveto
50801.9 65225.9 lineto
stroke
newpath
50801.9 65534.3 moveto
50493.5 65225.9 lineto
stroke
newpath
50493.5 64531.6 moveto
50801.9 64223.2 lineto
stroke
newpath
50801.9 64531.6 moveto
50493.5 64223.2 lineto
stroke
newpath
50493.5 63497.7 moveto
50801.9 63189.3 lineto
stroke
newpath
50801.9 63497.7 moveto
50493.5 63189.3 lineto
stroke
newpath
50493.5 62463.7 moveto
50801.9 62155.3 lineto
stroke
newpath
50801.9 62463.7 moveto
50493.5 62155.3 lineto
stroke
newpath
50525 66474.2 moveto
50833.4 66165.8 lineto
stroke
newpath
50833.4 66474.2 moveto
50525 66165.8 lineto
stroke
newpath
52623.9 60552.4 moveto
52932.3 60244 lineto
stroke
newpath
52932.3 60552.4 moveto
52623.9 60244 lineto
stroke
newpath
52623.9 59518.5 moveto
52932.3 59210.1 lineto
stroke
newpath
52932.3 59518.5 moveto
52623.9 59210.1 lineto
stroke
newpath
52623.9 58547.2 moveto
52932.3 58238.8 lineto
stroke
newpath
52932.3 58547.2 moveto
52623.9 58238.8 lineto
stroke
newpath
52655.3 63403.7 moveto
52963.7 63095.3 lineto
stroke
newpath
52963.7 63403.7 moveto
52655.3 63095.3 lineto
stroke
newpath
52655.3 62401 moveto
52963.7 62092.6 lineto
stroke
newpath
52963.7 62401 moveto
52655.3 62092.6 lineto
stroke
newpath
52686.8 66505.6 moveto
52995.2 66197.2 lineto
stroke
newpath
52995.2 66505.6 moveto
52686.8 66197.2 lineto
stroke
newpath
52686.8 64437.6 moveto
52995.2 64129.2 lineto
stroke
newpath
52995.2 64437.6 moveto
52686.8 64129.2 lineto
stroke
newpath
52718.3 65471.6 moveto
53026.6 65163.2 lineto
stroke
newpath
53026.6 65471.6 moveto
52718.3 65163.2 lineto
stroke
newpath
56822.3 66536.9 moveto
57130.7 66228.5 lineto
stroke
newpath
57130.7 66536.9 moveto
56822.3 66228.5 lineto
stroke
newpath
56822.3 65596.9 moveto
57130.7 65288.5 lineto
stroke
newpath
57130.7 65596.9 moveto
56822.3 65288.5 lineto
stroke
newpath
56822.3 64594.3 moveto
57130.7 64285.9 lineto
stroke
newpath
57130.7 64594.3 moveto
56822.3 64285.9 lineto
stroke
newpath
56822.3 63560.3 moveto
57130.7 63251.9 lineto
stroke
newpath
57130.7 63560.3 moveto
56822.3 63251.9 lineto
stroke
newpath
56822.3 62526.4 moveto
57130.7 62218 lineto
stroke
newpath
57130.7 62526.4 moveto
56822.3 62218 lineto
stroke
newpath
56822.3 60834.4 moveto
57130.7 60526 lineto
stroke
newpath
57130.7 60834.4 moveto
56822.3 60526 lineto
stroke
newpath
56822.3 59800.5 moveto
57130.7 59492.1 lineto
stroke
newpath
57130.7 59800.5 moveto
56822.3 59492.1 lineto
stroke
newpath
56822.3 58735.2 moveto
57130.7 58426.8 lineto
stroke
newpath
57130.7 58735.2 moveto
56822.3 58426.8 lineto
stroke
newpath
58671.4 65596.9 moveto
58979.8 65288.5 lineto
stroke
newpath
58979.8 65596.9 moveto
58671.4 65288.5 lineto
stroke
newpath
58671.4 64594.3 moveto
58979.8 64285.9 lineto
stroke
newpath
58979.8 64594.3 moveto
58671.4 64285.9 lineto
stroke
newpath
58671.4 63560.3 moveto
58979.8 63251.9 lineto
stroke
newpath
58979.8 63560.3 moveto
58671.4 63251.9 lineto
stroke
newpath
58671.4 62526.4 moveto
58979.8 62218 lineto
stroke
newpath
58979.8 62526.4 moveto
58671.4 62218 lineto
stroke
newpath
58702.2 66536.9 moveto
59010.6 66228.5 lineto
stroke
newpath
59010.6 66536.9 moveto
58702.2 66228.5 lineto
stroke
newpath
60801.7 60615.1 moveto
61110.1 60306.7 lineto
stroke
newpath
61110.1 60615.1 moveto
60801.7 60306.7 lineto
stroke
newpath
60801.7 59581.1 moveto
61110.1 59272.7 lineto
stroke
newpath
61110.1 59581.1 moveto
60801.7 59272.7 lineto
stroke
newpath
60801.7 58609.8 moveto
61110.1 58301.5 lineto
stroke
newpath
61110.1 58609.8 moveto
60801.7 58301.5 lineto
stroke
newpath
60833.2 63466.3 moveto
61141.6 63157.9 lineto
stroke
newpath
61141.6 63466.3 moveto
60833.2 63157.9 lineto
stroke
newpath
60833.2 62463.7 moveto
61141.6 62155.3 lineto
stroke
newpath
61141.6 62463.7 moveto
60833.2 62155.3 lineto
stroke
newpath
60864.6 66568.2 moveto
61173 66259.8 lineto
stroke
newpath
61173 66568.2 moveto
60864.6 66259.8 lineto
stroke
newpath
60864.6 64500.3 moveto
61173 64191.9 lineto
stroke
newpath
61173 64500.3 moveto
60864.6 64191.9 lineto
stroke
newpath
60895.5 65534.3 moveto
61203.9 65225.9 lineto
stroke
newpath
61203.9 65534.3 moveto
60895.5 65225.9 lineto
stroke
newpath
66316.3 43382.4 moveto
66624.7 43074 lineto
stroke
newpath
66624.7 43382.4 moveto
66316.3 43074 lineto
stroke
newpath
66441.5 51027.4 moveto
66749.9 50719.1 lineto
stroke
newpath
66749.9 51027.4 moveto
66441.5 50719.1 lineto
stroke
newpath
66441.5 47361.6 moveto
66749.9 47053.2 lineto
stroke
newpath
66749.9 47361.6 moveto
66441.5 47053.2 lineto
stroke
newpath
66566.7 55006.6 moveto
66875.1 54698.2 lineto
stroke
newpath
66875.1 55006.6 moveto
66566.7 54698.2 lineto
stroke
newpath
67287.7 43382.4 moveto
67596.1 43074 lineto
stroke
newpath
67596.1 43382.4 moveto
67287.7 43074 lineto
stroke
newpath
67412.9 51027.4 moveto
67721.3 50719.1 lineto
stroke
newpath
67721.3 51027.4 moveto
67412.9 50719.1 lineto
stroke
newpath
67506.7 47361.6 moveto
67815.1 47053.2 lineto
stroke
newpath
67815.1 47361.6 moveto
67506.7 47053.2 lineto
stroke
newpath
67631.9 55006.6 moveto
67940.3 54698.2 lineto
stroke
newpath
67940.3 55006.6 moveto
67631.9 54698.2 lineto
stroke
newpath
68321.4 43382.4 moveto
68629.8 43074 lineto
stroke
newpath
68629.8 43382.4 moveto
68321.4 43074 lineto
stroke
newpath
68446.6 51027.4 moveto
68755 50719.1 lineto
stroke
newpath
68755 51027.4 moveto
68446.6 50719.1 lineto
stroke
newpath
68541 47361.6 moveto
68849.4 47053.2 lineto
stroke
newpath
68849.4 47361.6 moveto
68541 47053.2 lineto
stroke
newpath
68666.2 55006.6 moveto
68974.6 54698.2 lineto
stroke
newpath
68974.6 55006.6 moveto
68666.2 54698.2 lineto
stroke
newpath
70169.9 43351.1 moveto
70478.3 43042.7 lineto
stroke
newpath
70478.3 43351.1 moveto
70169.9 43042.7 lineto
stroke
newpath
70232.8 47361.6 moveto
70541.2 47053.2 lineto
stroke
newpath
70541.2 47361.6 moveto
70232.8 47053.2 lineto
stroke
newpath
70232.8 45513 moveto
70541.2 45204.6 lineto
stroke
newpath
70541.2 45513 moveto
70232.8 45204.6 lineto
stroke
newpath
70295.1 50996.1 moveto
70603.5 50687.7 lineto
stroke
newpath
70603.5 50996.1 moveto
70295.1 50687.7 lineto
stroke
newpath
70358 55006.6 moveto
70666.4 54698.2 lineto
stroke
newpath
70666.4 55006.6 moveto
70358 54698.2 lineto
stroke
newpath
70358 53158 moveto
70666.4 52849.7 lineto
stroke
newpath
70666.4 53158 moveto
70358 52849.7 lineto
stroke
newpath
71172.8 43351.1 moveto
71481.2 43042.7 lineto
stroke
newpath
71481.2 43351.1 moveto
71172.8 43042.7 lineto
stroke
newpath
71266.5 47361.6 moveto
71574.9 47053.2 lineto
stroke
newpath
71574.9 47361.6 moveto
71266.5 47053.2 lineto
stroke
newpath
71266.5 45513 moveto
71574.9 45204.6 lineto
stroke
newpath
71574.9 45513 moveto
71266.5 45204.6 lineto
stroke
newpath
71298 50996.1 moveto
71606.4 50687.7 lineto
stroke
newpath
71606.4 50996.1 moveto
71298 50687.7 lineto
stroke
newpath
71391.7 55006.6 moveto
71700.1 54698.2 lineto
stroke
newpath
71700.1 55006.6 moveto
71391.7 54698.2 lineto
stroke
newpath
71391.7 53158 moveto
71700.1 52849.7 lineto
stroke
newpath
71700.1 53158 moveto
71391.7 52849.7 lineto
stroke
newpath
72206.5 43319.7 moveto
72514.9 43011.3 lineto
stroke
newpath
72514.9 43319.7 moveto
72206.5 43011.3 lineto
stroke
newpath
72300.9 47361.6 moveto
72609.3 47053.2 lineto
stroke
newpath
72609.3 47361.6 moveto
72300.9 47053.2 lineto
stroke
newpath
72300.9 45513 moveto
72609.3 45204.6 lineto
stroke
newpath
72609.3 45513 moveto
72300.9 45204.6 lineto
stroke
newpath
72331.7 50964.8 moveto
72640.1 50656.4 lineto
stroke
newpath
72640.1 50964.8 moveto
72331.7 50656.4 lineto
stroke
newpath
72426.1 55006.6 moveto
72734.5 54698.2 lineto
stroke
newpath
72734.5 55006.6 moveto
72426.1 54698.2 lineto
stroke
newpath
72426.1 53158 moveto
72734.5 52849.7 lineto
stroke
newpath
72734.5 53158 moveto
72426.1 52849.7 lineto
stroke
newpath
73240.8 43288.4 moveto
73549.2 42980 lineto
stroke
newpath
73549.2 43288.4 moveto
73240.8 42980 lineto
stroke
newpath
73303.1 47361.6 moveto
73611.5 47053.2 lineto
stroke
newpath
73611.5 47361.6 moveto
73303.1 47053.2 lineto
stroke
newpath
73303.1 45513 moveto
73611.5 45204.6 lineto
stroke
newpath
73611.5 45513 moveto
73303.1 45204.6 lineto
stroke
newpath
73366 50933.5 moveto
73674.4 50625.1 lineto
stroke
newpath
73674.4 50933.5 moveto
73366 50625.1 lineto
stroke
newpath
73428.3 55006.6 moveto
73736.7 54698.2 lineto
stroke
newpath
73736.7 55006.6 moveto
73428.3 54698.2 lineto
stroke
newpath
73428.3 53158 moveto
73736.7 52849.7 lineto
stroke
newpath
73736.7 53158 moveto
73428.3 52849.7 lineto
stroke
newpath
74243.1 47361.6 moveto
74551.5 47053.2 lineto
stroke
newpath
74551.5 47361.6 moveto
74243.1 47053.2 lineto
stroke
newpath
74243.1 45481.7 moveto
74551.5 45173.3 lineto
stroke
newpath
74551.5 45481.7 moveto
74243.1 45173.3 lineto
stroke
newpath
74274.6 43319.7 moveto
74582.9 43011.3 lineto
stroke
newpath
74582.9 43319.7 moveto
74274.6 43011.3 lineto
stroke
newpath
74368.3 55006.6 moveto
74676.7 54698.2 lineto
stroke
newpath
74676.7 55006.6 moveto
74368.3 54698.2 lineto
stroke
newpath
74368.3 53126.7 moveto
74676.7 52818.3 lineto
stroke
newpath
74676.7 53126.7 moveto
74368.3 52818.3 lineto
stroke
newpath
74399.8 50964.8 moveto
74708.2 50656.4 lineto
stroke
newpath
74708.2 50964.8 moveto
74399.8 50656.4 lineto
stroke
32475.1 53599.2 234.991 cir0
32475.1 44199.5 234.991 cir0
34041.7 53599.2 234.991 cir0
34041.7 44199.5 234.991 cir0
35608.3 53599.2 234.991 cir0
35608.3 44199.5 234.991 cir0
37174.9 53599.2 234.991 cir0
37174.9 44199.5 234.991 cir0
38741.5 53599.2 234.991 cir0
38741.5 52032.5 234.991 cir0
38741.5 50465.9 234.991 cir0
38741.5 44199.5 234.991 cir0
40308.1 53599.2 234.991 cir0
40308.1 52032.5 234.991 cir0
40308.1 50465.9 234.991 cir0
40308.1 44199.5 234.991 cir0
41874.7 53599.2 234.991 cir0
41874.7 52032.5 234.991 cir0
41874.7 50465.9 234.991 cir0
41874.7 44199.5 234.991 cir0
43441.3 53599.2 234.991 cir0
43441.3 44199.5 234.991 cir0
45007.9 53599.2 234.991 cir0
45007.9 44199.5 234.991 cir0
46574.6 53599.2 234.991 cir0
46574.6 44199.5 234.991 cir0
48141.2 53599.2 234.991 cir0
48141.2 44199.5 234.991 cir0
49707.8 53599.2 234.991 cir0
49707.8 44199.5 234.991 cir0
51274.4 53599.2 234.991 cir0
51274.4 44199.5 234.991 cir0
52841 53599.2 234.991 cir0
52841 44199.5 234.991 cir0
54407.6 53599.2 234.991 cir0
54407.6 44199.5 234.991 cir0
55974.2 53599.2 234.991 cir0
55974.2 44199.5 234.991 cir0
57540.8 53599.2 234.991 cir0
57540.8 44199.5 234.991 cir0
59107.4 53599.2 234.991 cir0
59107.4 44199.5 234.991 cir0
59890.7 51249.2 234.991 cir0
59890.7 49682.6 234.991 cir0
59890.7 48116 234.991 cir0
59890.7 46549.4 234.991 cir0
60674 53599.2 234.991 cir0
60674 44199.5 234.991 cir0
62240.7 53599.2 234.991 cir0
62240.7 44199.5 234.991 cir0
newpath
42830.1 76576.4 moveto
42830.1 75959.6 lineto
stroke
newpath
42521.7 76268 moveto
43138.5 76268 lineto
stroke
newpath
44396.7 76576.4 moveto
44396.7 75959.6 lineto
stroke
newpath
44088.3 76268 moveto
44705.1 76268 lineto
stroke
newpath
45963.3 76576.4 moveto
45963.3 75959.6 lineto
stroke
newpath
45654.9 76268 moveto
46271.7 76268 lineto
stroke
newpath
84470.5 53218.2 moveto
84470.5 52601.5 lineto
stroke
newpath
84162.1 52909.8 moveto
84778.9 52909.8 lineto
stroke
newpath
84470.5 51651.6 moveto
84470.5 51034.9 lineto
stroke
newpath
84162.1 51343.2 moveto
84778.9 51343.2 lineto
stroke
newpath
84470.5 50085 moveto
84470.5 49468.2 lineto
stroke
newpath
84162.1 49776.6 moveto
84778.9 49776.6 lineto
stroke
newpath
80005.6 38962.1 moveto
80005.6 38345.3 lineto
stroke
newpath
79697.2 38653.7 moveto
80314 38653.7 lineto
stroke
newpath
81572.2 38962.1 moveto
81572.2 38345.3 lineto
stroke
newpath
81263.9 38653.7 moveto
81880.6 38653.7 lineto
stroke
newpath
83138.9 38962.1 moveto
83138.9 38345.3 lineto
stroke
newpath
82830.5 38653.7 moveto
83447.2 38653.7 lineto
stroke
newpath
84705.5 38962.1 moveto
84705.5 38345.3 lineto
stroke
newpath
84397.1 38653.7 moveto
85013.9 38653.7 lineto
stroke
newpath
51493.3 39024.8 moveto
51493.3 38408 lineto
stroke
newpath
51185 38716.4 moveto
51801.7 38716.4 lineto
stroke
newpath
53060 39024.8 moveto
53060 38408 lineto
stroke
newpath
52751.6 38716.4 moveto
53368.3 38716.4 lineto
stroke
newpath
54626.6 39024.8 moveto
54626.6 38408 lineto
stroke
newpath
54318.2 38716.4 moveto
54934.9 38716.4 lineto
stroke
newpath
56193.2 39024.8 moveto
56193.2 38408 lineto
stroke
newpath
55884.8 38716.4 moveto
56501.6 38716.4 lineto
stroke
newpath
57759.8 39024.8 moveto
57759.8 38408 lineto
stroke
newpath
57451.4 38716.4 moveto
58068.2 38716.4 lineto
stroke
newpath
58982.2 76560.7 moveto
58982.2 75943.9 lineto
stroke
newpath
58673.8 76252.3 moveto
59290.6 76252.3 lineto
stroke
newpath
60548.8 76560.7 moveto
60548.8 75943.9 lineto
stroke
newpath
60240.4 76252.3 moveto
60857.2 76252.3 lineto
stroke
newpath
62115.4 76560.7 moveto
62115.4 75943.9 lineto
stroke
newpath
61807.1 76252.3 moveto
62423.8 76252.3 lineto
stroke
newpath
41749.5 38930.8 moveto
41749.5 38314 lineto
stroke
newpath
41441.1 38622.4 moveto
42057.9 38622.4 lineto
stroke
newpath
43316.1 38930.8 moveto
43316.1 38314 lineto
stroke
newpath
43007.7 38622.4 moveto
43624.5 38622.4 lineto
stroke
newpath
44882.7 38930.8 moveto
44882.7 38314 lineto
stroke
newpath
44574.4 38622.4 moveto
45191.1 38622.4 lineto
stroke
newpath
46449.4 38930.8 moveto
46449.4 38314 lineto
stroke
newpath
46141 38622.4 moveto
46757.7 38622.4 lineto
stroke
newpath
48016 38930.8 moveto
48016 38314 lineto
stroke
newpath
47707.6 38622.4 moveto
48324.3 38622.4 lineto
stroke
newpath
31997.1 38946.4 moveto
31997.1 38329.6 lineto
stroke
newpath
31688.7 38638 moveto
32305.5 38638 lineto
stroke
newpath
33563.7 38946.4 moveto
33563.7 38329.6 lineto
stroke
newpath
33255.3 38638 moveto
33872.1 38638 lineto
stroke
newpath
35130.3 38946.4 moveto
35130.3 38329.6 lineto
stroke
newpath
34821.9 38638 moveto
35438.7 38638 lineto
stroke
newpath
36696.9 38946.4 moveto
36696.9 38329.6 lineto
stroke
newpath
36388.5 38638 moveto
37005.3 38638 lineto
stroke
newpath
38263.5 38946.4 moveto
38263.5 38329.6 lineto
stroke
newpath
37955.1 38638 moveto
38571.9 38638 lineto
stroke
newpath
84470.5 45228.5 moveto
84470.5 44611.8 lineto
stroke
newpath
84162.1 44920.1 moveto
84778.9 44920.1 lineto
stroke
newpath
84470.5 43661.9 moveto
84470.5 43045.1 lineto
stroke
newpath
84162.1 43353.5 moveto
84778.9 43353.5 lineto
stroke
newpath
84470.5 42095.3 moveto
84470.5 41478.5 lineto
stroke
newpath
84162.1 41786.9 moveto
84778.9 41786.9 lineto
stroke
newpath
66376.1 59578.7 moveto
66376.1 58961.9 lineto
stroke
newpath
66067.7 59270.3 moveto
66684.5 59270.3 lineto
stroke
newpath
67942.7 59578.7 moveto
67942.7 58961.9 lineto
stroke
newpath
67634.4 59270.3 moveto
68251.1 59270.3 lineto
stroke
newpath
69509.4 59578.7 moveto
69509.4 58961.9 lineto
stroke
newpath
69201 59270.3 moveto
69817.7 59270.3 lineto
stroke
newpath
71076 59578.7 moveto
71076 58961.9 lineto
stroke
newpath
70767.6 59270.3 moveto
71384.3 59270.3 lineto
stroke
newpath
72642.6 59578.7 moveto
72642.6 58961.9 lineto
stroke
newpath
72334.2 59270.3 moveto
72951 59270.3 lineto
stroke
newpath
61175.5 39087.4 moveto
61175.5 38470.6 lineto
stroke
newpath
60867.1 38779 moveto
61483.9 38779 lineto
stroke
newpath
62742.1 39087.4 moveto
62742.1 38470.6 lineto
stroke
newpath
62433.7 38779 moveto
63050.5 38779 lineto
stroke
newpath
64308.7 39087.4 moveto
64308.7 38470.6 lineto
stroke
newpath
64000.3 38779 moveto
64617.1 38779 lineto
stroke
newpath
65875.3 39087.4 moveto
65875.3 38470.6 lineto
stroke
newpath
65566.9 38779 moveto
66183.7 38779 lineto
stroke
newpath
67441.9 39087.4 moveto
67441.9 38470.6 lineto
stroke
newpath
67133.5 38779 moveto
67750.3 38779 lineto
stroke
newpath
76528.3 59672.7 moveto
76528.3 59055.9 lineto
stroke
newpath
76219.9 59364.3 moveto
76836.6 59364.3 lineto
stroke
newpath
78094.9 59672.7 moveto
78094.9 59055.9 lineto
stroke
newpath
77786.5 59364.3 moveto
78403.3 59364.3 lineto
stroke
newpath
79661.5 59672.7 moveto
79661.5 59055.9 lineto
stroke
newpath
79353.1 59364.3 moveto
79969.9 59364.3 lineto
stroke
newpath
81228.1 59672.7 moveto
81228.1 59055.9 lineto
stroke
newpath
80919.7 59364.3 moveto
81536.5 59364.3 lineto
stroke
newpath
35193.2 76615.2 moveto
35193.2 75998.5 lineto
stroke
newpath
34884.8 76306.9 moveto
35501.6 76306.9 lineto
stroke
newpath
36759.8 76615.2 moveto
36759.8 75998.5 lineto
stroke
newpath
36451.4 76306.9 moveto
37068.2 76306.9 lineto
stroke
newpath
38326.4 76615.2 moveto
38326.4 75998.5 lineto
stroke
newpath
38018 76306.9 moveto
38634.8 76306.9 lineto
stroke
newpath
50819.8 76576.4 moveto
50819.8 75959.6 lineto
stroke
newpath
50511.4 76268 moveto
51128.2 76268 lineto
stroke
newpath
52386.4 76576.4 moveto
52386.4 75959.6 lineto
stroke
newpath
52078 76268 moveto
52694.8 76268 lineto
stroke
newpath
53953 76576.4 moveto
53953 75959.6 lineto
stroke
newpath
53644.7 76268 moveto
54261.4 76268 lineto
stroke
newpath
70857 39024.8 moveto
70857 38408 lineto
stroke
newpath
70548.6 38716.4 moveto
71165.4 38716.4 lineto
stroke
newpath
72423.6 39024.8 moveto
72423.6 38408 lineto
stroke
newpath
72115.2 38716.4 moveto
72732 38716.4 lineto
stroke
newpath
73990.2 39024.8 moveto
73990.2 38408 lineto
stroke
newpath
73681.8 38716.4 moveto
74298.6 38716.4 lineto
stroke
newpath
75556.8 39024.8 moveto
75556.8 38408 lineto
stroke
newpath
75248.4 38716.4 moveto
75865.2 38716.4 lineto
stroke
newpath
77123.4 39024.8 moveto
77123.4 38408 lineto
stroke
newpath
76815.1 38716.4 moveto
77431.8 38716.4 lineto
stroke
newpath
49493.1 69252.8 moveto
49493.1 69732.6 lineto
49013.3 69732.6 lineto
49013.3 69252.8 lineto
49493.1 69252.8 lineto
poly0
newpath
51059.7 69252.8 moveto
51059.7 69732.6 lineto
50580 69732.6 lineto
50580 69252.8 lineto
51059.7 69252.8 lineto
poly0
newpath
52626.3 69252.8 moveto
52626.3 69732.6 lineto
52146.6 69732.6 lineto
52146.6 69252.8 lineto
52626.3 69252.8 lineto
poly0
newpath
77935.1 54236.6 moveto
77935.1 54716.3 lineto
77455.3 54716.3 lineto
77455.3 54236.6 lineto
77935.1 54236.6 lineto
poly0
newpath
77935.1 52670 moveto
77935.1 53149.7 lineto
77455.3 53149.7 lineto
77455.3 52670 lineto
77935.1 52670 lineto
poly0
newpath
77935.1 51103.4 moveto
77935.1 51583.1 lineto
77455.3 51583.1 lineto
77455.3 51103.4 lineto
77935.1 51103.4 lineto
poly0
newpath
41503.4 69330.6 moveto
41503.4 69810.3 lineto
41023.6 69810.3 lineto
41023.6 69330.6 lineto
41503.4 69330.6 lineto
poly0
newpath
43070 69330.6 moveto
43070 69810.3 lineto
42590.2 69810.3 lineto
42590.2 69330.6 lineto
43070 69330.6 lineto
poly0
newpath
44636.6 69330.6 moveto
44636.6 69810.3 lineto
44156.9 69810.3 lineto
44156.9 69330.6 lineto
44636.6 69330.6 lineto
poly0
newpath
77856.1 46246.9 moveto
77856.1 46726.6 lineto
77376.4 46726.6 lineto
77376.4 46246.9 lineto
77856.1 46246.9 lineto
poly0
newpath
77856.1 44680.3 moveto
77856.1 45160 lineto
77376.4 45160 lineto
77376.4 44680.3 lineto
77856.1 44680.3 lineto
poly0
newpath
77856.1 43113.7 moveto
77856.1 43593.4 lineto
77376.4 43593.4 lineto
77376.4 43113.7 lineto
77856.1 43113.7 lineto
poly0
newpath
57686.3 69197.7 moveto
57686.3 69677.4 lineto
57206.6 69677.4 lineto
57206.6 69197.7 lineto
57686.3 69197.7 lineto
poly0
newpath
59252.9 69197.7 moveto
59252.9 69677.4 lineto
58773.2 69677.4 lineto
58773.2 69197.7 lineto
59252.9 69197.7 lineto
poly0
newpath
60819.5 69197.7 moveto
60819.5 69677.4 lineto
60339.8 69677.4 lineto
60339.8 69197.7 lineto
60819.5 69197.7 lineto
poly0
newpath
33866.5 69370 moveto
33866.5 69849.8 lineto
33386.7 69849.8 lineto
33386.7 69370 lineto
33866.5 69370 lineto
poly0
newpath
35433.1 69370 moveto
35433.1 69849.8 lineto
34953.3 69849.8 lineto
34953.3 69370 lineto
35433.1 69370 lineto
poly0
newpath
36999.7 69370 moveto
36999.7 69849.8 lineto
36519.9 69849.8 lineto
36519.9 69370 lineto
36999.7 69370 lineto
poly0
118.11 setlinewidth
0 0 0 setrgbcolor
0 0 0 setrgbcolor
newpath
31707.3 35175.5 moveto
31707.3 36356.6 lineto
31988.5 36356.6 lineto
32157.2 36300.3 lineto
32269.7 36187.9 lineto
32325.9 36075.4 lineto
32382.2 35850.4 lineto
32382.2 35681.7 lineto
32325.9 35456.7 lineto
32269.7 35344.2 lineto
32157.2 35231.7 lineto
31988.5 35175.5 lineto
31707.3 35175.5 lineto
stroke
newpath
32888.4 35175.5 moveto
32888.4 35962.9 lineto
stroke
newpath
32888.4 35737.9 moveto
32944.6 35850.4 lineto
33000.9 35906.6 lineto
33113.3 35962.9 lineto
33225.8 35962.9 lineto
stroke
newpath
33619.5 35175.5 moveto
33619.5 35962.9 lineto
stroke
newpath
33619.5 36356.6 moveto
33563.3 36300.3 lineto
33619.5 36244.1 lineto
33675.8 36300.3 lineto
33619.5 36356.6 lineto
33619.5 36244.1 lineto
stroke
newpath
34350.7 35175.5 moveto
34238.2 35231.7 lineto
34182 35344.2 lineto
34182 36356.6 lineto
stroke
newpath
34969.4 35175.5 moveto
34856.9 35231.7 lineto
34800.6 35344.2 lineto
34800.6 36356.6 lineto
stroke
newpath
36319.2 35175.5 moveto
36319.2 36356.6 lineto
36712.9 35512.9 lineto
37106.6 36356.6 lineto
37106.6 35175.5 lineto
stroke
newpath
38175.2 35175.5 moveto
38175.2 35794.2 lineto
38119 35906.6 lineto
38006.5 35962.9 lineto
37781.5 35962.9 lineto
37669 35906.6 lineto
stroke
newpath
38175.2 35231.7 moveto
38062.7 35175.5 lineto
37781.5 35175.5 lineto
37669 35231.7 lineto
37612.8 35344.2 lineto
37612.8 35456.7 lineto
37669 35569.2 lineto
37781.5 35625.4 lineto
38062.7 35625.4 lineto
38175.2 35681.7 lineto
stroke
newpath
38737.6 35962.9 moveto
38737.6 34781.8 lineto
stroke
newpath
38737.6 35906.6 moveto
38850.1 35962.9 lineto
39075.1 35962.9 lineto
39187.6 35906.6 lineto
39243.8 35850.4 lineto
39300.1 35737.9 lineto
39300.1 35400.5 lineto
39243.8 35288 lineto
39187.6 35231.7 lineto
39075.1 35175.5 lineto
38850.1 35175.5 lineto
38737.6 35231.7 lineto
stroke
newpath
39806.3 35288 moveto
39862.5 35231.7 lineto
39806.3 35175.5 lineto
39750 35231.7 lineto
39806.3 35288 lineto
39806.3 35175.5 lineto
stroke
newpath
39806.3 35906.6 moveto
39862.5 35850.4 lineto
39806.3 35794.2 lineto
39750 35850.4 lineto
39806.3 35906.6 lineto
39806.3 35794.2 lineto
stroke
newpath
30271.2 33383.7 moveto
30579.6 33075.3 lineto
stroke
newpath
30579.6 33383.7 moveto
30271.2 33075.3 lineto
stroke
0 0 0 setrgbcolor
0 0 0 setrgbcolor
newpath
31932.2 33876.3 moveto
32044.7 33876.3 lineto
32157.2 33820 lineto
32213.5 33763.8 lineto
32269.7 33651.3 lineto
32325.9 33426.3 lineto
32325.9 33145.1 lineto
32269.7 32920.1 lineto
32213.5 32807.7 lineto
32157.2 32751.4 lineto
32044.7 32695.2 lineto
31932.2 32695.2 lineto
31819.8 32751.4 lineto
31763.5 32807.7 lineto
31707.3 32920.1 lineto
31651 33145.1 lineto
31651 33426.3 lineto
31707.3 33651.3 lineto
31763.5 33763.8 lineto
31819.8 33820 lineto
31932.2 33876.3 lineto
stroke
newpath
32832.1 32807.7 moveto
32888.4 32751.4 lineto
32832.1 32695.2 lineto
32775.9 32751.4 lineto
32832.1 32807.7 lineto
32832.1 32695.2 lineto
stroke
newpath
33957 33876.3 moveto
33394.6 33876.3 lineto
33338.3 33313.8 lineto
33394.6 33370.1 lineto
33507 33426.3 lineto
33788.3 33426.3 lineto
33900.7 33370.1 lineto
33957 33313.8 lineto
34013.2 33201.4 lineto
34013.2 32920.1 lineto
33957 32807.7 lineto
33900.7 32751.4 lineto
33788.3 32695.2 lineto
33507 32695.2 lineto
33394.6 32751.4 lineto
33338.3 32807.7 lineto
stroke
newpath
34744.4 33876.3 moveto
34856.9 33876.3 lineto
34969.4 33820 lineto
35025.6 33763.8 lineto
35081.8 33651.3 lineto
35138.1 33426.3 lineto
35138.1 33145.1 lineto
35081.8 32920.1 lineto
35025.6 32807.7 lineto
34969.4 32751.4 lineto
34856.9 32695.2 lineto
34744.4 32695.2 lineto
34631.9 32751.4 lineto
34575.7 32807.7 lineto
34519.4 32920.1 lineto
34463.2 33145.1 lineto
34463.2 33426.3 lineto
34519.4 33651.3 lineto
34575.7 33763.8 lineto
34631.9 33820 lineto
34744.4 33876.3 lineto
stroke
newpath
35644.3 32695.2 moveto
35644.3 33482.6 lineto
stroke
newpath
35644.3 33370.1 moveto
35700.5 33426.3 lineto
35813 33482.6 lineto
35981.7 33482.6 lineto
36094.2 33426.3 lineto
36150.5 33313.8 lineto
36150.5 32695.2 lineto
stroke
newpath
36150.5 33313.8 moveto
36206.7 33426.3 lineto
36319.2 33482.6 lineto
36487.9 33482.6 lineto
36600.4 33426.3 lineto
36656.7 33313.8 lineto
36656.7 32695.2 lineto
stroke
newpath
37219.1 32695.2 moveto
37219.1 33482.6 lineto
stroke
newpath
37219.1 33370.1 moveto
37275.3 33426.3 lineto
37387.8 33482.6 lineto
37556.5 33482.6 lineto
37669 33426.3 lineto
37725.3 33313.8 lineto
37725.3 32695.2 lineto
stroke
newpath
37725.3 33313.8 moveto
37781.5 33426.3 lineto
37894 33482.6 lineto
38062.7 33482.6 lineto
38175.2 33426.3 lineto
38231.5 33313.8 lineto
38231.5 32695.2 lineto
stroke
newpath
40537.4 33932.5 moveto
39525 32414 lineto
stroke
newpath
42056 33876.3 moveto
42168.5 33876.3 lineto
42280.9 33820 lineto
42337.2 33763.8 lineto
42393.4 33651.3 lineto
42449.7 33426.3 lineto
42449.7 33145.1 lineto
42393.4 32920.1 lineto
42337.2 32807.7 lineto
42280.9 32751.4 lineto
42168.5 32695.2 lineto
42056 32695.2 lineto
41943.5 32751.4 lineto
41887.2 32807.7 lineto
41831 32920.1 lineto
41774.8 33145.1 lineto
41774.8 33426.3 lineto
41831 33651.3 lineto
41887.2 33763.8 lineto
41943.5 33820 lineto
42056 33876.3 lineto
stroke
newpath
42955.9 32807.7 moveto
43012.1 32751.4 lineto
42955.9 32695.2 lineto
42899.6 32751.4 lineto
42955.9 32807.7 lineto
42955.9 32695.2 lineto
stroke
newpath
43743.3 33876.3 moveto
43855.8 33876.3 lineto
43968.2 33820 lineto
44024.5 33763.8 lineto
44080.7 33651.3 lineto
44137 33426.3 lineto
44137 33145.1 lineto
44080.7 32920.1 lineto
44024.5 32807.7 lineto
43968.2 32751.4 lineto
43855.8 32695.2 lineto
43743.3 32695.2 lineto
43630.8 32751.4 lineto
43574.5 32807.7 lineto
43518.3 32920.1 lineto
43462.1 33145.1 lineto
43462.1 33426.3 lineto
43518.3 33651.3 lineto
43574.5 33763.8 lineto
43630.8 33820 lineto
43743.3 33876.3 lineto
stroke
newpath
44586.9 33763.8 moveto
44643.2 33820 lineto
44755.6 33876.3 lineto
45036.9 33876.3 lineto
45149.3 33820 lineto
45205.6 33763.8 lineto
45261.8 33651.3 lineto
45261.8 33538.8 lineto
45205.6 33370.1 lineto
44530.7 32695.2 lineto
45261.8 32695.2 lineto
stroke
newpath
45993 33876.3 moveto
46105.5 33876.3 lineto
46218 33820 lineto
46274.2 33763.8 lineto
46330.4 33651.3 lineto
46386.7 33426.3 lineto
46386.7 33145.1 lineto
46330.4 32920.1 lineto
46274.2 32807.7 lineto
46218 32751.4 lineto
46105.5 32695.2 lineto
45993 32695.2 lineto
45880.5 32751.4 lineto
45824.3 32807.7 lineto
45768 32920.1 lineto
45711.8 33145.1 lineto
45711.8 33426.3 lineto
45768 33651.3 lineto
45824.3 33763.8 lineto
45880.5 33820 lineto
45993 33876.3 lineto
stroke
newpath
46836.6 33876.3 moveto
46836.6 33651.3 lineto
stroke
newpath
47286.6 33876.3 moveto
47286.6 33651.3 lineto
stroke
newpath
49030.1 32245.2 moveto
48973.9 32301.5 lineto
48861.4 32470.2 lineto
48805.1 32582.7 lineto
48748.9 32751.4 lineto
48692.6 33032.6 lineto
48692.6 33257.6 lineto
48748.9 33538.8 lineto
48805.1 33707.5 lineto
48861.4 33820 lineto
48973.9 33988.8 lineto
49030.1 34045 lineto
stroke
newpath
50098.7 32695.2 moveto
49423.8 32695.2 lineto
stroke
newpath
49761.3 32695.2 moveto
49761.3 33876.3 lineto
49648.8 33707.5 lineto
49536.3 33595.1 lineto
49423.8 33538.8 lineto
stroke
newpath
50548.7 33763.8 moveto
50604.9 33820 lineto
50717.4 33876.3 lineto
50998.6 33876.3 lineto
51111.1 33820 lineto
51167.3 33763.8 lineto
51223.6 33651.3 lineto
51223.6 33538.8 lineto
51167.3 33370.1 lineto
50492.4 32695.2 lineto
51223.6 32695.2 lineto
stroke
newpath
52236 33876.3 moveto
52011 33876.3 lineto
51898.5 33820 lineto
51842.3 33763.8 lineto
51729.8 33595.1 lineto
51673.5 33370.1 lineto
51673.5 32920.1 lineto
51729.8 32807.7 lineto
51786 32751.4 lineto
51898.5 32695.2 lineto
52123.5 32695.2 lineto
52236 32751.4 lineto
52292.2 32807.7 lineto
52348.4 32920.1 lineto
52348.4 33201.4 lineto
52292.2 33313.8 lineto
52236 33370.1 lineto
52123.5 33426.3 lineto
51898.5 33426.3 lineto
51786 33370.1 lineto
51729.8 33313.8 lineto
51673.5 33201.4 lineto
stroke
newpath
53754.5 32695.2 moveto
53754.5 33876.3 lineto
stroke
newpath
54260.7 32695.2 moveto
54260.7 33313.8 lineto
54204.5 33426.3 lineto
54092 33482.6 lineto
53923.2 33482.6 lineto
53810.8 33426.3 lineto
53754.5 33370.1 lineto
stroke
newpath
54991.9 32695.2 moveto
54879.4 32751.4 lineto
54823.1 32807.7 lineto
54766.9 32920.1 lineto
54766.9 33257.6 lineto
54823.1 33370.1 lineto
54879.4 33426.3 lineto
54991.9 33482.6 lineto
55160.6 33482.6 lineto
55273.1 33426.3 lineto
55329.3 33370.1 lineto
55385.6 33257.6 lineto
55385.6 32920.1 lineto
55329.3 32807.7 lineto
55273.1 32751.4 lineto
55160.6 32695.2 lineto
54991.9 32695.2 lineto
stroke
newpath
56060.5 32695.2 moveto
55948 32751.4 lineto
55891.8 32863.9 lineto
55891.8 33876.3 lineto
stroke
newpath
56960.4 32751.4 moveto
56847.9 32695.2 lineto
56622.9 32695.2 lineto
56510.4 32751.4 lineto
56454.2 32863.9 lineto
56454.2 33313.8 lineto
56510.4 33426.3 lineto
56622.9 33482.6 lineto
56847.9 33482.6 lineto
56960.4 33426.3 lineto
57016.6 33313.8 lineto
57016.6 33201.4 lineto
56454.2 33088.9 lineto
stroke
newpath
57466.6 32751.4 moveto
57579 32695.2 lineto
57804 32695.2 lineto
57916.5 32751.4 lineto
57972.7 32863.9 lineto
57972.7 32920.1 lineto
57916.5 33032.6 lineto
57804 33088.9 lineto
57635.3 33088.9 lineto
57522.8 33145.1 lineto
57466.6 33257.6 lineto
57466.6 33313.8 lineto
57522.8 33426.3 lineto
57635.3 33482.6 lineto
57804 33482.6 lineto
57916.5 33426.3 lineto
stroke
newpath
58366.4 32245.2 moveto
58422.7 32301.5 lineto
58535.2 32470.2 lineto
58591.4 32582.7 lineto
58647.7 32751.4 lineto
58703.9 33032.6 lineto
58703.9 33257.6 lineto
58647.7 33538.8 lineto
58591.4 33707.5 lineto
58535.2 33820 lineto
58422.7 33988.8 lineto
58366.4 34045 lineto
stroke
30344.6 31670.4 234.991 cir0
0 0 0 setrgbcolor
0 0 0 setrgbcolor
newpath
31932.2 32317.2 moveto
32044.7 32317.2 lineto
32157.2 32261 lineto
32213.5 32204.7 lineto
32269.7 32092.2 lineto
32325.9 31867.3 lineto
32325.9 31586.1 lineto
32269.7 31361.1 lineto
32213.5 31248.6 lineto
32157.2 31192.4 lineto
32044.7 31136.1 lineto
31932.2 31136.1 lineto
31819.8 31192.4 lineto
31763.5 31248.6 lineto
31707.3 31361.1 lineto
31651 31586.1 lineto
31651 31867.3 lineto
31707.3 32092.2 lineto
31763.5 32204.7 lineto
31819.8 32261 lineto
31932.2 32317.2 lineto
stroke
newpath
32832.1 31248.6 moveto
32888.4 31192.4 lineto
32832.1 31136.1 lineto
32775.9 31192.4 lineto
32832.1 31248.6 lineto
32832.1 31136.1 lineto
stroke
newpath
33282.1 32317.2 moveto
34069.5 32317.2 lineto
33563.3 31136.1 lineto
stroke
newpath
35025.6 32317.2 moveto
34800.6 32317.2 lineto
34688.1 32261 lineto
34631.9 32204.7 lineto
34519.4 32036 lineto
34463.2 31811 lineto
34463.2 31361.1 lineto
34519.4 31248.6 lineto
34575.7 31192.4 lineto
34688.1 31136.1 lineto
34913.1 31136.1 lineto
35025.6 31192.4 lineto
35081.8 31248.6 lineto
35138.1 31361.1 lineto
35138.1 31642.3 lineto
35081.8 31754.8 lineto
35025.6 31811 lineto
34913.1 31867.3 lineto
34688.1 31867.3 lineto
34575.7 31811 lineto
34519.4 31754.8 lineto
34463.2 31642.3 lineto
stroke
newpath
35644.3 31136.1 moveto
35644.3 31923.5 lineto
stroke
newpath
35644.3 31811 moveto
35700.5 31867.3 lineto
35813 31923.5 lineto
35981.7 31923.5 lineto
36094.2 31867.3 lineto
36150.5 31754.8 lineto
36150.5 31136.1 lineto
stroke
newpath
36150.5 31754.8 moveto
36206.7 31867.3 lineto
36319.2 31923.5 lineto
36487.9 31923.5 lineto
36600.4 31867.3 lineto
36656.7 31754.8 lineto
36656.7 31136.1 lineto
stroke
newpath
37219.1 31136.1 moveto
37219.1 31923.5 lineto
stroke
newpath
37219.1 31811 moveto
37275.3 31867.3 lineto
37387.8 31923.5 lineto
37556.5 31923.5 lineto
37669 31867.3 lineto
37725.3 31754.8 lineto
37725.3 31136.1 lineto
stroke
newpath
37725.3 31754.8 moveto
37781.5 31867.3 lineto
37894 31923.5 lineto
38062.7 31923.5 lineto
38175.2 31867.3 lineto
38231.5 31754.8 lineto
38231.5 31136.1 lineto
stroke
newpath
40537.4 32373.5 moveto
39525 30854.9 lineto
stroke
newpath
42056 32317.2 moveto
42168.5 32317.2 lineto
42280.9 32261 lineto
42337.2 32204.7 lineto
42393.4 32092.2 lineto
42449.7 31867.3 lineto
42449.7 31586.1 lineto
42393.4 31361.1 lineto
42337.2 31248.6 lineto
42280.9 31192.4 lineto
42168.5 31136.1 lineto
42056 31136.1 lineto
41943.5 31192.4 lineto
41887.2 31248.6 lineto
41831 31361.1 lineto
41774.8 31586.1 lineto
41774.8 31867.3 lineto
41831 32092.2 lineto
41887.2 32204.7 lineto
41943.5 32261 lineto
42056 32317.2 lineto
stroke
newpath
42955.9 31248.6 moveto
43012.1 31192.4 lineto
42955.9 31136.1 lineto
42899.6 31192.4 lineto
42955.9 31248.6 lineto
42955.9 31136.1 lineto
stroke
newpath
43743.3 32317.2 moveto
43855.8 32317.2 lineto
43968.2 32261 lineto
44024.5 32204.7 lineto
44080.7 32092.2 lineto
44137 31867.3 lineto
44137 31586.1 lineto
44080.7 31361.1 lineto
44024.5 31248.6 lineto
43968.2 31192.4 lineto
43855.8 31136.1 lineto
43743.3 31136.1 lineto
43630.8 31192.4 lineto
43574.5 31248.6 lineto
43518.3 31361.1 lineto
43462.1 31586.1 lineto
43462.1 31867.3 lineto
43518.3 32092.2 lineto
43574.5 32204.7 lineto
43630.8 32261 lineto
43743.3 32317.2 lineto
stroke
newpath
44530.7 32317.2 moveto
45261.8 32317.2 lineto
44868.1 31867.3 lineto
45036.9 31867.3 lineto
45149.3 31811 lineto
45205.6 31754.8 lineto
45261.8 31642.3 lineto
45261.8 31361.1 lineto
45205.6 31248.6 lineto
45149.3 31192.4 lineto
45036.9 31136.1 lineto
44699.4 31136.1 lineto
44586.9 31192.4 lineto
44530.7 31248.6 lineto
stroke
newpath
45993 32317.2 moveto
46105.5 32317.2 lineto
46218 32261 lineto
46274.2 32204.7 lineto
46330.4 32092.2 lineto
46386.7 31867.3 lineto
46386.7 31586.1 lineto
46330.4 31361.1 lineto
46274.2 31248.6 lineto
46218 31192.4 lineto
46105.5 31136.1 lineto
45993 31136.1 lineto
45880.5 31192.4 lineto
45824.3 31248.6 lineto
45768 31361.1 lineto
45711.8 31586.1 lineto
45711.8 31867.3 lineto
45768 32092.2 lineto
45824.3 32204.7 lineto
45880.5 32261 lineto
45993 32317.2 lineto
stroke
newpath
46836.6 32317.2 moveto
46836.6 32092.2 lineto
stroke
newpath
47286.6 32317.2 moveto
47286.6 32092.2 lineto
stroke
newpath
49030.1 30686.2 moveto
48973.9 30742.4 lineto
48861.4 30911.1 lineto
48805.1 31023.6 lineto
48748.9 31192.4 lineto
48692.6 31473.6 lineto
48692.6 31698.5 lineto
48748.9 31979.8 lineto
48805.1 32148.5 lineto
48861.4 32261 lineto
48973.9 32429.7 lineto
49030.1 32485.9 lineto
stroke
newpath
50042.5 32317.2 moveto
49480.1 32317.2 lineto
49423.8 31754.8 lineto
49480.1 31811 lineto
49592.5 31867.3 lineto
49873.8 31867.3 lineto
49986.2 31811 lineto
50042.5 31754.8 lineto
50098.7 31642.3 lineto
50098.7 31361.1 lineto
50042.5 31248.6 lineto
49986.2 31192.4 lineto
49873.8 31136.1 lineto
49592.5 31136.1 lineto
49480.1 31192.4 lineto
49423.8 31248.6 lineto
stroke
newpath
50829.9 32317.2 moveto
50942.4 32317.2 lineto
51054.9 32261 lineto
51111.1 32204.7 lineto
51167.3 32092.2 lineto
51223.6 31867.3 lineto
51223.6 31586.1 lineto
51167.3 31361.1 lineto
51111.1 31248.6 lineto
51054.9 31192.4 lineto
50942.4 31136.1 lineto
50829.9 31136.1 lineto
50717.4 31192.4 lineto
50661.2 31248.6 lineto
50604.9 31361.1 lineto
50548.7 31586.1 lineto
50548.7 31867.3 lineto
50604.9 32092.2 lineto
50661.2 32204.7 lineto
50717.4 32261 lineto
50829.9 32317.2 lineto
stroke
newpath
52629.7 31136.1 moveto
52629.7 32317.2 lineto
stroke
newpath
53135.8 31136.1 moveto
53135.8 31754.8 lineto
53079.6 31867.3 lineto
52967.1 31923.5 lineto
52798.4 31923.5 lineto
52685.9 31867.3 lineto
52629.7 31811 lineto
stroke
newpath
53867 31136.1 moveto
53754.5 31192.4 lineto
53698.3 31248.6 lineto
53642 31361.1 lineto
53642 31698.5 lineto
53698.3 31811 lineto
53754.5 31867.3 lineto
53867 31923.5 lineto
54035.7 31923.5 lineto
54148.2 31867.3 lineto
54204.5 31811 lineto
54260.7 31698.5 lineto
54260.7 31361.1 lineto
54204.5 31248.6 lineto
54148.2 31192.4 lineto
54035.7 31136.1 lineto
53867 31136.1 lineto
stroke
newpath
54935.6 31136.1 moveto
54823.1 31192.4 lineto
54766.9 31304.8 lineto
54766.9 32317.2 lineto
stroke
newpath
55835.5 31192.4 moveto
55723 31136.1 lineto
55498.1 31136.1 lineto
55385.6 31192.4 lineto
55329.3 31304.8 lineto
55329.3 31754.8 lineto
55385.6 31867.3 lineto
55498.1 31923.5 lineto
55723 31923.5 lineto
55835.5 31867.3 lineto
55891.8 31754.8 lineto
55891.8 31642.3 lineto
55329.3 31529.8 lineto
stroke
newpath
56341.7 31192.4 moveto
56454.2 31136.1 lineto
56679.2 31136.1 lineto
56791.6 31192.4 lineto
56847.9 31304.8 lineto
56847.9 31361.1 lineto
56791.6 31473.6 lineto
56679.2 31529.8 lineto
56510.4 31529.8 lineto
56397.9 31586.1 lineto
56341.7 31698.5 lineto
56341.7 31754.8 lineto
56397.9 31867.3 lineto
56510.4 31923.5 lineto
56679.2 31923.5 lineto
56791.6 31867.3 lineto
stroke
newpath
57241.6 30686.2 moveto
57297.8 30742.4 lineto
57410.3 30911.1 lineto
57466.6 31023.6 lineto
57522.8 31192.4 lineto
57579 31473.6 lineto
57579 31698.5 lineto
57522.8 31979.8 lineto
57466.6 32148.5 lineto
57410.3 32261 lineto
57297.8 32429.7 lineto
57241.6 32485.9 lineto
stroke
newpath
30271.2 30419.8 moveto
30271.2 29803 lineto
stroke
newpath
29962.8 30111.4 moveto
30579.6 30111.4 lineto
stroke
0 0 0 setrgbcolor
0 0 0 setrgbcolor
newpath
32325.9 29577.1 moveto
31651 29577.1 lineto
stroke
newpath
31988.5 29577.1 moveto
31988.5 30758.2 lineto
31876 30589.4 lineto
31763.5 30476.9 lineto
31651 30420.7 lineto
stroke
newpath
32832.1 29689.5 moveto
32888.4 29633.3 lineto
32832.1 29577.1 lineto
32775.9 29633.3 lineto
32832.1 29689.5 lineto
32832.1 29577.1 lineto
stroke
newpath
33619.5 30758.2 moveto
33732 30758.2 lineto
33844.5 30701.9 lineto
33900.7 30645.7 lineto
33957 30533.2 lineto
34013.2 30308.2 lineto
34013.2 30027 lineto
33957 29802 lineto
33900.7 29689.5 lineto
33844.5 29633.3 lineto
33732 29577.1 lineto
33619.5 29577.1 lineto
33507 29633.3 lineto
33450.8 29689.5 lineto
33394.6 29802 lineto
33338.3 30027 lineto
33338.3 30308.2 lineto
33394.6 30533.2 lineto
33450.8 30645.7 lineto
33507 30701.9 lineto
33619.5 30758.2 lineto
stroke
newpath
34744.4 30758.2 moveto
34856.9 30758.2 lineto
34969.4 30701.9 lineto
35025.6 30645.7 lineto
35081.8 30533.2 lineto
35138.1 30308.2 lineto
35138.1 30027 lineto
35081.8 29802 lineto
35025.6 29689.5 lineto
34969.4 29633.3 lineto
34856.9 29577.1 lineto
34744.4 29577.1 lineto
34631.9 29633.3 lineto
34575.7 29689.5 lineto
34519.4 29802 lineto
34463.2 30027 lineto
34463.2 30308.2 lineto
34519.4 30533.2 lineto
34575.7 30645.7 lineto
34631.9 30701.9 lineto
34744.4 30758.2 lineto
stroke
newpath
35644.3 29577.1 moveto
35644.3 30364.5 lineto
stroke
newpath
35644.3 30252 moveto
35700.5 30308.2 lineto
35813 30364.5 lineto
35981.7 30364.5 lineto
36094.2 30308.2 lineto
36150.5 30195.7 lineto
36150.5 29577.1 lineto
stroke
newpath
36150.5 30195.7 moveto
36206.7 30308.2 lineto
36319.2 30364.5 lineto
36487.9 30364.5 lineto
36600.4 30308.2 lineto
36656.7 30195.7 lineto
36656.7 29577.1 lineto
stroke
newpath
37219.1 29577.1 moveto
37219.1 30364.5 lineto
stroke
newpath
37219.1 30252 moveto
37275.3 30308.2 lineto
37387.8 30364.5 lineto
37556.5 30364.5 lineto
37669 30308.2 lineto
37725.3 30195.7 lineto
37725.3 29577.1 lineto
stroke
newpath
37725.3 30195.7 moveto
37781.5 30308.2 lineto
37894 30364.5 lineto
38062.7 30364.5 lineto
38175.2 30308.2 lineto
38231.5 30195.7 lineto
38231.5 29577.1 lineto
stroke
newpath
40537.4 30814.4 moveto
39525 29295.8 lineto
stroke
newpath
42056 30758.2 moveto
42168.5 30758.2 lineto
42280.9 30701.9 lineto
42337.2 30645.7 lineto
42393.4 30533.2 lineto
42449.7 30308.2 lineto
42449.7 30027 lineto
42393.4 29802 lineto
42337.2 29689.5 lineto
42280.9 29633.3 lineto
42168.5 29577.1 lineto
42056 29577.1 lineto
41943.5 29633.3 lineto
41887.2 29689.5 lineto
41831 29802 lineto
41774.8 30027 lineto
41774.8 30308.2 lineto
41831 30533.2 lineto
41887.2 30645.7 lineto
41943.5 30701.9 lineto
42056 30758.2 lineto
stroke
newpath
42955.9 29689.5 moveto
43012.1 29633.3 lineto
42955.9 29577.1 lineto
42899.6 29633.3 lineto
42955.9 29689.5 lineto
42955.9 29577.1 lineto
stroke
newpath
43743.3 30758.2 moveto
43855.8 30758.2 lineto
43968.2 30701.9 lineto
44024.5 30645.7 lineto
44080.7 30533.2 lineto
44137 30308.2 lineto
44137 30027 lineto
44080.7 29802 lineto
44024.5 29689.5 lineto
43968.2 29633.3 lineto
43855.8 29577.1 lineto
43743.3 29577.1 lineto
43630.8 29633.3 lineto
43574.5 29689.5 lineto
43518.3 29802 lineto
43462.1 30027 lineto
43462.1 30308.2 lineto
43518.3 30533.2 lineto
43574.5 30645.7 lineto
43630.8 30701.9 lineto
43743.3 30758.2 lineto
stroke
newpath
44530.7 30758.2 moveto
45261.8 30758.2 lineto
44868.1 30308.2 lineto
45036.9 30308.2 lineto
45149.3 30252 lineto
45205.6 30195.7 lineto
45261.8 30083.2 lineto
45261.8 29802 lineto
45205.6 29689.5 lineto
45149.3 29633.3 lineto
45036.9 29577.1 lineto
44699.4 29577.1 lineto
44586.9 29633.3 lineto
44530.7 29689.5 lineto
stroke
newpath
45824.3 29577.1 moveto
46049.2 29577.1 lineto
46161.7 29633.3 lineto
46218 29689.5 lineto
46330.4 29858.3 lineto
46386.7 30083.2 lineto
46386.7 30533.2 lineto
46330.4 30645.7 lineto
46274.2 30701.9 lineto
46161.7 30758.2 lineto
45936.7 30758.2 lineto
45824.3 30701.9 lineto
45768 30645.7 lineto
45711.8 30533.2 lineto
45711.8 30252 lineto
45768 30139.5 lineto
45824.3 30083.2 lineto
45936.7 30027 lineto
46161.7 30027 lineto
46274.2 30083.2 lineto
46330.4 30139.5 lineto
46386.7 30252 lineto
stroke
newpath
46836.6 30758.2 moveto
46836.6 30533.2 lineto
stroke
newpath
47286.6 30758.2 moveto
47286.6 30533.2 lineto
stroke
newpath
49030.1 29127.1 moveto
48973.9 29183.4 lineto
48861.4 29352.1 lineto
48805.1 29464.6 lineto
48748.9 29633.3 lineto
48692.6 29914.5 lineto
48692.6 30139.5 lineto
48748.9 30420.7 lineto
48805.1 30589.4 lineto
48861.4 30701.9 lineto
48973.9 30870.7 lineto
49030.1 30926.9 lineto
stroke
newpath
50042.5 30758.2 moveto
49480.1 30758.2 lineto
49423.8 30195.7 lineto
49480.1 30252 lineto
49592.5 30308.2 lineto
49873.8 30308.2 lineto
49986.2 30252 lineto
50042.5 30195.7 lineto
50098.7 30083.2 lineto
50098.7 29802 lineto
50042.5 29689.5 lineto
49986.2 29633.3 lineto
49873.8 29577.1 lineto
49592.5 29577.1 lineto
49480.1 29633.3 lineto
49423.8 29689.5 lineto
stroke
newpath
51111.1 30758.2 moveto
50886.1 30758.2 lineto
50773.6 30701.9 lineto
50717.4 30645.7 lineto
50604.9 30476.9 lineto
50548.7 30252 lineto
50548.7 29802 lineto
50604.9 29689.5 lineto
50661.2 29633.3 lineto
50773.6 29577.1 lineto
50998.6 29577.1 lineto
51111.1 29633.3 lineto
51167.3 29689.5 lineto
51223.6 29802 lineto
51223.6 30083.2 lineto
51167.3 30195.7 lineto
51111.1 30252 lineto
50998.6 30308.2 lineto
50773.6 30308.2 lineto
50661.2 30252 lineto
50604.9 30195.7 lineto
50548.7 30083.2 lineto
stroke
newpath
52629.7 29577.1 moveto
52629.7 30758.2 lineto
stroke
newpath
53135.8 29577.1 moveto
53135.8 30195.7 lineto
53079.6 30308.2 lineto
52967.1 30364.5 lineto
52798.4 30364.5 lineto
52685.9 30308.2 lineto
52629.7 30252 lineto
stroke
newpath
53867 29577.1 moveto
53754.5 29633.3 lineto
53698.3 29689.5 lineto
53642 29802 lineto
53642 30139.5 lineto
53698.3 30252 lineto
53754.5 30308.2 lineto
53867 30364.5 lineto
54035.7 30364.5 lineto
54148.2 30308.2 lineto
54204.5 30252 lineto
54260.7 30139.5 lineto
54260.7 29802 lineto
54204.5 29689.5 lineto
54148.2 29633.3 lineto
54035.7 29577.1 lineto
53867 29577.1 lineto
stroke
newpath
54935.6 29577.1 moveto
54823.1 29633.3 lineto
54766.9 29745.8 lineto
54766.9 30758.2 lineto
stroke
newpath
55835.5 29633.3 moveto
55723 29577.1 lineto
55498.1 29577.1 lineto
55385.6 29633.3 lineto
55329.3 29745.8 lineto
55329.3 30195.7 lineto
55385.6 30308.2 lineto
55498.1 30364.5 lineto
55723 30364.5 lineto
55835.5 30308.2 lineto
55891.8 30195.7 lineto
55891.8 30083.2 lineto
55329.3 29970.8 lineto
stroke
newpath
56341.7 29633.3 moveto
56454.2 29577.1 lineto
56679.2 29577.1 lineto
56791.6 29633.3 lineto
56847.9 29745.8 lineto
56847.9 29802 lineto
56791.6 29914.5 lineto
56679.2 29970.8 lineto
56510.4 29970.8 lineto
56397.9 30027 lineto
56341.7 30139.5 lineto
56341.7 30195.7 lineto
56397.9 30308.2 lineto
56510.4 30364.5 lineto
56679.2 30364.5 lineto
56791.6 30308.2 lineto
stroke
newpath
57241.6 29127.1 moveto
57297.8 29183.4 lineto
57410.3 29352.1 lineto
57466.6 29464.6 lineto
57522.8 29633.3 lineto
57579 29914.5 lineto
57579 30139.5 lineto
57522.8 30420.7 lineto
57466.6 30589.4 lineto
57410.3 30701.9 lineto
57297.8 30870.7 lineto
57241.6 30926.9 lineto
stroke
newpath
30480.2 28312.4 moveto
30480.2 28792.2 lineto
30000.5 28792.2 lineto
30000.5 28312.4 lineto
30480.2 28312.4 lineto
poly0
0 0 0 setrgbcolor
0 0 0 setrgbcolor
newpath
32325.9 28018 moveto
31651 28018 lineto
stroke
newpath
31988.5 28018 moveto
31988.5 29199.1 lineto
31876 29030.4 lineto
31763.5 28917.9 lineto
31651 28861.7 lineto
stroke
newpath
32832.1 28130.5 moveto
32888.4 28074.3 lineto
32832.1 28018 lineto
32775.9 28074.3 lineto
32832.1 28130.5 lineto
32832.1 28018 lineto
stroke
newpath
34013.2 28018 moveto
33338.3 28018 lineto
stroke
newpath
33675.8 28018 moveto
33675.8 29199.1 lineto
33563.3 29030.4 lineto
33450.8 28917.9 lineto
33338.3 28861.7 lineto
stroke
newpath
34744.4 29199.1 moveto
34856.9 29199.1 lineto
34969.4 29142.9 lineto
35025.6 29086.6 lineto
35081.8 28974.1 lineto
35138.1 28749.2 lineto
35138.1 28468 lineto
35081.8 28243 lineto
35025.6 28130.5 lineto
34969.4 28074.3 lineto
34856.9 28018 lineto
34744.4 28018 lineto
34631.9 28074.3 lineto
34575.7 28130.5 lineto
34519.4 28243 lineto
34463.2 28468 lineto
34463.2 28749.2 lineto
34519.4 28974.1 lineto
34575.7 29086.6 lineto
34631.9 29142.9 lineto
34744.4 29199.1 lineto
stroke
newpath
35644.3 28018 moveto
35644.3 28805.4 lineto
stroke
newpath
35644.3 28692.9 moveto
35700.5 28749.2 lineto
35813 28805.4 lineto
35981.7 28805.4 lineto
36094.2 28749.2 lineto
36150.5 28636.7 lineto
36150.5 28018 lineto
stroke
newpath
36150.5 28636.7 moveto
36206.7 28749.2 lineto
36319.2 28805.4 lineto
36487.9 28805.4 lineto
36600.4 28749.2 lineto
36656.7 28636.7 lineto
36656.7 28018 lineto
stroke
newpath
37219.1 28018 moveto
37219.1 28805.4 lineto
stroke
newpath
37219.1 28692.9 moveto
37275.3 28749.2 lineto
37387.8 28805.4 lineto
37556.5 28805.4 lineto
37669 28749.2 lineto
37725.3 28636.7 lineto
37725.3 28018 lineto
stroke
newpath
37725.3 28636.7 moveto
37781.5 28749.2 lineto
37894 28805.4 lineto
38062.7 28805.4 lineto
38175.2 28749.2 lineto
38231.5 28636.7 lineto
38231.5 28018 lineto
stroke
newpath
40537.4 29255.4 moveto
39525 27736.8 lineto
stroke
newpath
42056 29199.1 moveto
42168.5 29199.1 lineto
42280.9 29142.9 lineto
42337.2 29086.6 lineto
42393.4 28974.1 lineto
42449.7 28749.2 lineto
42449.7 28468 lineto
42393.4 28243 lineto
42337.2 28130.5 lineto
42280.9 28074.3 lineto
42168.5 28018 lineto
42056 28018 lineto
41943.5 28074.3 lineto
41887.2 28130.5 lineto
41831 28243 lineto
41774.8 28468 lineto
41774.8 28749.2 lineto
41831 28974.1 lineto
41887.2 29086.6 lineto
41943.5 29142.9 lineto
42056 29199.1 lineto
stroke
newpath
42955.9 28130.5 moveto
43012.1 28074.3 lineto
42955.9 28018 lineto
42899.6 28074.3 lineto
42955.9 28130.5 lineto
42955.9 28018 lineto
stroke
newpath
43743.3 29199.1 moveto
43855.8 29199.1 lineto
43968.2 29142.9 lineto
44024.5 29086.6 lineto
44080.7 28974.1 lineto
44137 28749.2 lineto
44137 28468 lineto
44080.7 28243 lineto
44024.5 28130.5 lineto
43968.2 28074.3 lineto
43855.8 28018 lineto
43743.3 28018 lineto
43630.8 28074.3 lineto
43574.5 28130.5 lineto
43518.3 28243 lineto
43462.1 28468 lineto
43462.1 28749.2 lineto
43518.3 28974.1 lineto
43574.5 29086.6 lineto
43630.8 29142.9 lineto
43743.3 29199.1 lineto
stroke
newpath
45149.3 28805.4 moveto
45149.3 28018 lineto
stroke
newpath
44868.1 29255.4 moveto
44586.9 28411.7 lineto
45318.1 28411.7 lineto
stroke
newpath
45655.5 29199.1 moveto
46386.7 29199.1 lineto
45993 28749.2 lineto
46161.7 28749.2 lineto
46274.2 28692.9 lineto
46330.4 28636.7 lineto
46386.7 28524.2 lineto
46386.7 28243 lineto
46330.4 28130.5 lineto
46274.2 28074.3 lineto
46161.7 28018 lineto
45824.3 28018 lineto
45711.8 28074.3 lineto
45655.5 28130.5 lineto
stroke
newpath
46836.6 29199.1 moveto
46836.6 28974.1 lineto
stroke
newpath
47286.6 29199.1 moveto
47286.6 28974.1 lineto
stroke
newpath
49030.1 27568.1 moveto
48973.9 27624.3 lineto
48861.4 27793 lineto
48805.1 27905.5 lineto
48748.9 28074.3 lineto
48692.6 28355.5 lineto
48692.6 28580.4 lineto
48748.9 28861.7 lineto
48805.1 29030.4 lineto
48861.4 29142.9 lineto
48973.9 29311.6 lineto
49030.1 29367.8 lineto
stroke
newpath
50098.7 28018 moveto
49423.8 28018 lineto
stroke
newpath
49761.3 28018 moveto
49761.3 29199.1 lineto
49648.8 29030.4 lineto
49536.3 28917.9 lineto
49423.8 28861.7 lineto
stroke
newpath
50773.6 28692.9 moveto
50661.2 28749.2 lineto
50604.9 28805.4 lineto
50548.7 28917.9 lineto
50548.7 28974.1 lineto
50604.9 29086.6 lineto
50661.2 29142.9 lineto
50773.6 29199.1 lineto
50998.6 29199.1 lineto
51111.1 29142.9 lineto
51167.3 29086.6 lineto
51223.6 28974.1 lineto
51223.6 28917.9 lineto
51167.3 28805.4 lineto
51111.1 28749.2 lineto
50998.6 28692.9 lineto
50773.6 28692.9 lineto
50661.2 28636.7 lineto
50604.9 28580.4 lineto
50548.7 28468 lineto
50548.7 28243 lineto
50604.9 28130.5 lineto
50661.2 28074.3 lineto
50773.6 28018 lineto
50998.6 28018 lineto
51111.1 28074.3 lineto
51167.3 28130.5 lineto
51223.6 28243 lineto
51223.6 28468 lineto
51167.3 28580.4 lineto
51111.1 28636.7 lineto
50998.6 28692.9 lineto
stroke
newpath
52629.7 28018 moveto
52629.7 29199.1 lineto
stroke
newpath
53135.8 28018 moveto
53135.8 28636.7 lineto
53079.6 28749.2 lineto
52967.1 28805.4 lineto
52798.4 28805.4 lineto
52685.9 28749.2 lineto
52629.7 28692.9 lineto
stroke
newpath
53867 28018 moveto
53754.5 28074.3 lineto
53698.3 28130.5 lineto
53642 28243 lineto
53642 28580.4 lineto
53698.3 28692.9 lineto
53754.5 28749.2 lineto
53867 28805.4 lineto
54035.7 28805.4 lineto
54148.2 28749.2 lineto
54204.5 28692.9 lineto
54260.7 28580.4 lineto
54260.7 28243 lineto
54204.5 28130.5 lineto
54148.2 28074.3 lineto
54035.7 28018 lineto
53867 28018 lineto
stroke
newpath
54935.6 28018 moveto
54823.1 28074.3 lineto
54766.9 28186.7 lineto
54766.9 29199.1 lineto
stroke
newpath
55835.5 28074.3 moveto
55723 28018 lineto
55498.1 28018 lineto
55385.6 28074.3 lineto
55329.3 28186.7 lineto
55329.3 28636.7 lineto
55385.6 28749.2 lineto
55498.1 28805.4 lineto
55723 28805.4 lineto
55835.5 28749.2 lineto
55891.8 28636.7 lineto
55891.8 28524.2 lineto
55329.3 28411.7 lineto
stroke
newpath
56341.7 28074.3 moveto
56454.2 28018 lineto
56679.2 28018 lineto
56791.6 28074.3 lineto
56847.9 28186.7 lineto
56847.9 28243 lineto
56791.6 28355.5 lineto
56679.2 28411.7 lineto
56510.4 28411.7 lineto
56397.9 28468 lineto
56341.7 28580.4 lineto
56341.7 28636.7 lineto
56397.9 28749.2 lineto
56510.4 28805.4 lineto
56679.2 28805.4 lineto
56791.6 28749.2 lineto
stroke
newpath
57241.6 27568.1 moveto
57297.8 27624.3 lineto
57410.3 27793 lineto
57466.6 27905.5 lineto
57522.8 28074.3 lineto
57579 28355.5 lineto
57579 28580.4 lineto
57522.8 28861.7 lineto
57466.6 29030.4 lineto
57410.3 29142.9 lineto
57297.8 29311.6 lineto
57241.6 29367.8 lineto
stroke
showpage
grestore
%%EOF
