G04 #@! TF.GenerationSoftware,KiCad,Pcbnew,5.1.4-3.fc30*
G04 #@! TF.CreationDate,2019-10-26T00:17:43+05:30*
G04 #@! TF.ProjectId,pc-fan,70632d66-616e-42e6-9b69-6361645f7063,rev?*
G04 #@! TF.SameCoordinates,Original*
G04 #@! TF.FileFunction,Copper,L1,Top*
G04 #@! TF.FilePolarity,Positive*
%FSLAX46Y46*%
G04 Gerber Fmt 4.6, Leading zero omitted, Abs format (unit mm)*
G04 Created by KiCad (PCBNEW 5.1.4-3.fc30) date 2019-10-26 00:17:43*
%MOMM*%
%LPD*%
G04 APERTURE LIST*
%ADD10C,1.524000*%
%ADD11O,1.905000X2.000000*%
%ADD12R,1.905000X2.000000*%
%ADD13O,2.000000X1.905000*%
%ADD14R,2.000000X1.905000*%
%ADD15O,1.700000X1.700000*%
%ADD16R,1.700000X1.700000*%
%ADD17C,0.800000*%
%ADD18C,0.400000*%
%ADD19C,0.250000*%
G04 APERTURE END LIST*
D10*
X181153000Y-90424000D03*
X153213000Y-80264000D03*
X150673000Y-80264000D03*
X148133000Y-80264000D03*
X153213000Y-77724000D03*
X150673000Y-77724000D03*
X148133000Y-77724000D03*
X182423000Y-78994000D03*
X182423000Y-81534000D03*
X182423000Y-84074000D03*
X182423000Y-86614000D03*
X137973000Y-75184000D03*
X140513000Y-75184000D03*
X143053000Y-75184000D03*
X145593000Y-75184000D03*
X148133000Y-75184000D03*
X150673000Y-75184000D03*
X153213000Y-75184000D03*
X155753000Y-75184000D03*
X158293000Y-75184000D03*
X160833000Y-75184000D03*
X163373000Y-75184000D03*
X165913000Y-75184000D03*
X168453000Y-75184000D03*
X170993000Y-75184000D03*
X173533000Y-75184000D03*
X176073000Y-75184000D03*
X178613000Y-75184000D03*
X181153000Y-75184000D03*
X183693000Y-75184000D03*
X186233000Y-75184000D03*
X186233000Y-90424000D03*
X183693000Y-90424000D03*
X178613000Y-90424000D03*
X176073000Y-90424000D03*
X173533000Y-90424000D03*
X170993000Y-90424000D03*
X168453000Y-90424000D03*
X165913000Y-90424000D03*
X163373000Y-90424000D03*
X160833000Y-90424000D03*
X158293000Y-90424000D03*
X155753000Y-90424000D03*
X153213000Y-90424000D03*
X150673000Y-90424000D03*
X148133000Y-90424000D03*
X145593000Y-90424000D03*
X143053000Y-90424000D03*
X140513000Y-90424000D03*
X137973000Y-90424000D03*
D11*
X139840000Y-49225200D03*
X142380000Y-49225200D03*
D12*
X144920000Y-49225200D03*
D11*
X152222000Y-49289200D03*
X154762000Y-49289200D03*
D12*
X157302000Y-49289200D03*
D13*
X211162000Y-86715600D03*
X211162000Y-89255600D03*
D14*
X211162000Y-91795600D03*
D11*
X165176000Y-49415200D03*
X167716000Y-49415200D03*
D12*
X170256000Y-49415200D03*
D11*
X178460000Y-49504600D03*
X181000000Y-49504600D03*
D12*
X183540000Y-49504600D03*
D13*
X211290000Y-73761600D03*
X211290000Y-76301600D03*
D14*
X211290000Y-78841600D03*
D15*
X209398000Y-65836800D03*
X211938000Y-65836800D03*
X214478000Y-65836800D03*
D16*
X217018000Y-65836800D03*
D15*
X167716000Y-38430200D03*
X170256000Y-38430200D03*
D16*
X172796000Y-38430200D03*
D15*
X142380000Y-38367200D03*
X144920000Y-38367200D03*
D16*
X147460000Y-38367200D03*
D15*
X180950000Y-38455600D03*
X183490000Y-38455600D03*
D16*
X186030000Y-38455600D03*
D15*
X154762000Y-38430200D03*
X157302000Y-38430200D03*
D16*
X159842000Y-38430200D03*
D15*
X222275000Y-76301600D03*
X222275000Y-78841600D03*
D16*
X222275000Y-81381600D03*
D15*
X222275000Y-89255600D03*
X222275000Y-91795600D03*
D16*
X222275000Y-94335600D03*
D15*
X222656000Y-99415600D03*
X220116000Y-99415600D03*
X217576000Y-99415600D03*
D16*
X215036000Y-99415600D03*
D15*
X147358000Y-99441000D03*
X144818000Y-99441000D03*
X142278000Y-99441000D03*
X139738000Y-99441000D03*
D16*
X137198000Y-99441000D03*
D15*
X163170000Y-99466400D03*
X160630000Y-99466400D03*
X158090000Y-99466400D03*
X155550000Y-99466400D03*
D16*
X153010000Y-99466400D03*
D15*
X178968000Y-99314000D03*
X176428000Y-99314000D03*
X173888000Y-99314000D03*
X171348000Y-99314000D03*
D16*
X168808000Y-99314000D03*
D15*
X194666000Y-99212400D03*
X192126000Y-99212400D03*
X189586000Y-99212400D03*
X187046000Y-99212400D03*
D16*
X184506000Y-99212400D03*
D15*
X210363000Y-99314000D03*
X207823000Y-99314000D03*
X205283000Y-99314000D03*
X202743000Y-99314000D03*
D16*
X200203000Y-99314000D03*
D15*
X192938000Y-65989200D03*
X195478000Y-65989200D03*
X198018000Y-65989200D03*
X200558000Y-65989200D03*
D16*
X203098000Y-65989200D03*
D17*
X154584000Y-57912000D03*
X158191000Y-56388000D03*
X154635000Y-54762400D03*
X154584000Y-59588400D03*
X158090000Y-61366400D03*
X151587000Y-57912000D03*
X151587000Y-54762400D03*
X154584000Y-61264800D03*
X158039000Y-67614800D03*
X151587000Y-61264800D03*
X158140000Y-54711600D03*
X151587000Y-59588400D03*
X158140000Y-58064400D03*
X158090000Y-59740800D03*
X154584000Y-56286400D03*
X158039000Y-64363600D03*
X151587000Y-67411600D03*
X151587000Y-65684400D03*
X151587000Y-64008000D03*
X158039000Y-66040000D03*
X151587000Y-56286400D03*
X167437000Y-57708800D03*
X171044000Y-56184800D03*
X167488000Y-54559200D03*
X167437000Y-59385200D03*
X170942000Y-61163200D03*
X164440000Y-57708800D03*
X164440000Y-54559200D03*
X167437000Y-61061600D03*
X170891000Y-67411600D03*
X164440000Y-61061600D03*
X170993000Y-54508400D03*
X164440000Y-59385200D03*
X170993000Y-57861200D03*
X170942000Y-59537600D03*
X167437000Y-56083200D03*
X170891000Y-64160400D03*
X164440000Y-67208400D03*
X164440000Y-65481200D03*
X164440000Y-63804800D03*
X170891000Y-65836800D03*
X164440000Y-56083200D03*
X180696000Y-57607200D03*
X184302000Y-56083200D03*
X180746000Y-54457600D03*
X180696000Y-59283600D03*
X184201000Y-61061600D03*
X177698000Y-57607200D03*
X177698000Y-54457600D03*
X180696000Y-60960000D03*
X184150000Y-67310000D03*
X177698000Y-60960000D03*
X184252000Y-54406800D03*
X177698000Y-59283600D03*
X184252000Y-57759600D03*
X184201000Y-59436000D03*
X180696000Y-55981600D03*
X184150000Y-64058800D03*
X177698000Y-67106800D03*
X177698000Y-65379600D03*
X177698000Y-63703200D03*
X184150000Y-65735200D03*
X177698000Y-55981600D03*
X202997000Y-76149200D03*
X204521000Y-79756000D03*
X206146000Y-76200000D03*
X201320000Y-76149200D03*
X199542000Y-79654400D03*
X202997000Y-73152000D03*
X206146000Y-73152000D03*
X199644000Y-76149200D03*
X193294000Y-79603600D03*
X199644000Y-73152000D03*
X206197000Y-79705200D03*
X201320000Y-73152000D03*
X202844000Y-79705200D03*
X201168000Y-79654400D03*
X204622000Y-76149200D03*
X196545000Y-79603600D03*
X193497000Y-73152000D03*
X195224000Y-73152000D03*
X196901000Y-73152000D03*
X194869000Y-79603600D03*
X204622000Y-73152000D03*
X202794000Y-88544400D03*
X204318000Y-92151200D03*
X205943000Y-88595200D03*
X201117000Y-88544400D03*
X199339000Y-92049600D03*
X202794000Y-85547200D03*
X205943000Y-85547200D03*
X199441000Y-88544400D03*
X193091000Y-91998800D03*
X199441000Y-85547200D03*
X205994000Y-92100400D03*
X201117000Y-85547200D03*
X202641000Y-92100400D03*
X200965000Y-92049600D03*
X204419000Y-88544400D03*
X196342000Y-91998800D03*
X193294000Y-85547200D03*
X195021000Y-85547200D03*
X196698000Y-85547200D03*
X194666000Y-91998800D03*
X204419000Y-85547200D03*
X139395000Y-63957200D03*
X139395000Y-65633600D03*
X139395000Y-67360800D03*
X145847000Y-67564000D03*
X145847000Y-65989200D03*
X145847000Y-64312800D03*
X139395000Y-61214000D03*
X142392000Y-61214000D03*
X145898000Y-61315600D03*
X145898000Y-59690000D03*
X145948000Y-58013600D03*
X145999000Y-56337200D03*
X145948000Y-54660800D03*
X142392000Y-59537600D03*
X142392000Y-57861200D03*
X142392000Y-56235600D03*
X142443000Y-54711600D03*
X139395000Y-59537600D03*
X139395000Y-57861200D03*
X139395000Y-56235600D03*
X139395000Y-54711600D03*
D18*
X207823000Y-99314000D02*
X206363800Y-97854800D01*
X206363800Y-97854800D02*
X193483600Y-97854800D01*
X193483600Y-97854800D02*
X192126000Y-99212400D01*
X176428000Y-99314000D02*
X175072400Y-97958400D01*
X175072400Y-97958400D02*
X162138000Y-97958400D01*
X162138000Y-97958400D02*
X160630000Y-99466400D01*
X195478000Y-65989200D02*
X196982600Y-64484600D01*
X196982600Y-64484600D02*
X215665800Y-64484600D01*
X215665800Y-64484600D02*
X217018000Y-65836800D01*
D19*
X142278000Y-99441000D02*
X143453300Y-99441000D01*
X158090000Y-99466400D02*
X156914700Y-99466400D01*
X156914700Y-99466400D02*
X156914700Y-99099100D01*
X156914700Y-99099100D02*
X155962700Y-98147100D01*
X155962700Y-98147100D02*
X144306500Y-98147100D01*
X144306500Y-98147100D02*
X143453300Y-99000300D01*
X143453300Y-99000300D02*
X143453300Y-99441000D01*
X143053000Y-90424000D02*
X137198000Y-96279000D01*
X137198000Y-96279000D02*
X137198000Y-99441000D01*
X200203000Y-99314000D02*
X199027700Y-99314000D01*
X199027700Y-99314000D02*
X197829800Y-100511900D01*
X197829800Y-100511900D02*
X185805500Y-100511900D01*
X185805500Y-100511900D02*
X184506000Y-99212400D01*
X168808000Y-99314000D02*
X169983300Y-99314000D01*
X184506000Y-99212400D02*
X183330700Y-99212400D01*
X183330700Y-99212400D02*
X181937000Y-100606100D01*
X181937000Y-100606100D02*
X170908100Y-100606100D01*
X170908100Y-100606100D02*
X169983300Y-99681300D01*
X169983300Y-99681300D02*
X169983300Y-99314000D01*
X153010000Y-99466400D02*
X154185300Y-99466400D01*
X168808000Y-99314000D02*
X167632700Y-99314000D01*
X167632700Y-99314000D02*
X166202700Y-100744000D01*
X166202700Y-100744000D02*
X155095600Y-100744000D01*
X155095600Y-100744000D02*
X154185300Y-99833700D01*
X154185300Y-99833700D02*
X154185300Y-99466400D01*
X203918300Y-99314000D02*
X203918300Y-99681300D01*
X203918300Y-99681300D02*
X204833700Y-100596700D01*
X204833700Y-100596700D02*
X210925600Y-100596700D01*
X210925600Y-100596700D02*
X211676500Y-99845800D01*
X211676500Y-99845800D02*
X211676500Y-98752900D01*
X211676500Y-98752900D02*
X209600400Y-96676800D01*
X209600400Y-96676800D02*
X182325800Y-96676800D01*
X182325800Y-96676800D02*
X176073000Y-90424000D01*
X202743000Y-99314000D02*
X203918300Y-99314000D01*
X187046000Y-99212400D02*
X185870700Y-99212400D01*
X185870700Y-99212400D02*
X185870700Y-98404300D01*
X185870700Y-98404300D02*
X185503500Y-98037100D01*
X185503500Y-98037100D02*
X181146100Y-98037100D01*
X181146100Y-98037100D02*
X173533000Y-90424000D01*
X139738000Y-99441000D02*
X140913300Y-99441000D01*
X140913300Y-99441000D02*
X140913300Y-99073700D01*
X140913300Y-99073700D02*
X147320700Y-92666300D01*
X147320700Y-92666300D02*
X163670700Y-92666300D01*
X163670700Y-92666300D02*
X165913000Y-90424000D01*
D18*
X157302000Y-37079900D02*
X168905700Y-37079900D01*
X168905700Y-37079900D02*
X170256000Y-38430200D01*
X144920000Y-38367200D02*
X146270400Y-37016800D01*
X146270400Y-37016800D02*
X157238900Y-37016800D01*
X157238900Y-37016800D02*
X157302000Y-37079900D01*
X157302000Y-38430200D02*
X157302000Y-37079900D01*
X170256000Y-38430200D02*
X171631700Y-39805900D01*
X171631700Y-39805900D02*
X183490000Y-39805900D01*
X183490000Y-38455600D02*
X183490000Y-39805900D01*
X222275000Y-78841600D02*
X220924700Y-78841600D01*
X220924700Y-78841600D02*
X210136500Y-68053400D01*
X210136500Y-68053400D02*
X193085500Y-68053400D01*
X193085500Y-68053400D02*
X189930800Y-64898700D01*
X189930800Y-64898700D02*
X189930800Y-46246700D01*
X189930800Y-46246700D02*
X183490000Y-39805900D01*
X222275000Y-89255600D02*
X211162000Y-89255600D01*
D19*
X176073000Y-75184000D02*
X177801000Y-73456000D01*
X177801000Y-73456000D02*
X177801000Y-73455900D01*
X177801000Y-73455900D02*
X188861600Y-73455900D01*
X188861600Y-73455900D02*
X191465900Y-70851600D01*
X191465900Y-70851600D02*
X210380200Y-70851600D01*
X210380200Y-70851600D02*
X213464400Y-73935800D01*
X213464400Y-73935800D02*
X213464400Y-74848200D01*
X213464400Y-74848200D02*
X223595800Y-84979600D01*
X223595800Y-84979600D02*
X223595800Y-92280200D01*
X223595800Y-92280200D02*
X222715700Y-93160300D01*
X222715700Y-93160300D02*
X222275000Y-93160300D01*
X222275000Y-94335600D02*
X222275000Y-93160300D01*
X173533000Y-75184000D02*
X176227500Y-72489500D01*
X176227500Y-72489500D02*
X188554300Y-72489500D01*
X188554300Y-72489500D02*
X190642600Y-70401200D01*
X190642600Y-70401200D02*
X210633500Y-70401200D01*
X210633500Y-70401200D02*
X221099700Y-80867400D01*
X221099700Y-80867400D02*
X221099700Y-81381600D01*
X222275000Y-81381600D02*
X221099700Y-81381600D01*
X165913000Y-75184000D02*
X169309400Y-71787600D01*
X169309400Y-71787600D02*
X186204400Y-71787600D01*
X186204400Y-71787600D02*
X188199900Y-69792100D01*
X188199900Y-69792100D02*
X188199900Y-51053200D01*
X188199900Y-51053200D02*
X182901300Y-45754600D01*
X182901300Y-45754600D02*
X168341700Y-45754600D01*
X168341700Y-45754600D02*
X161017300Y-38430200D01*
X159842000Y-38430200D02*
X161017300Y-38430200D01*
X163373000Y-75184000D02*
X167444800Y-71112200D01*
X167444800Y-71112200D02*
X186242900Y-71112200D01*
X186242900Y-71112200D02*
X187749600Y-69605500D01*
X187749600Y-69605500D02*
X187749600Y-51239800D01*
X187749600Y-51239800D02*
X183519800Y-47010000D01*
X183519800Y-47010000D02*
X157278100Y-47010000D01*
X157278100Y-47010000D02*
X148635300Y-38367200D01*
X147460000Y-38367200D02*
X148635300Y-38367200D01*
X211162000Y-91795600D02*
X211162000Y-93073400D01*
X211162000Y-93073400D02*
X209877200Y-94358200D01*
X209877200Y-94358200D02*
X191885300Y-94358200D01*
X191885300Y-94358200D02*
X182871100Y-85344000D01*
X182871100Y-85344000D02*
X170993000Y-85344000D01*
X170993000Y-85344000D02*
X160833000Y-75184000D01*
X158293000Y-75184000D02*
X159421400Y-74055600D01*
X159421400Y-74055600D02*
X161252200Y-74055600D01*
X161252200Y-74055600D02*
X162103000Y-74906400D01*
X162103000Y-74906400D02*
X162103000Y-75475600D01*
X162103000Y-75475600D02*
X162949000Y-76321600D01*
X162949000Y-76321600D02*
X176493000Y-76321600D01*
X176493000Y-76321600D02*
X177343000Y-75471600D01*
X177343000Y-75471600D02*
X177343000Y-74896200D01*
X177343000Y-74896200D02*
X178142600Y-74096600D01*
X178142600Y-74096600D02*
X189035700Y-74096600D01*
X189035700Y-74096600D02*
X191830300Y-71302000D01*
X191830300Y-71302000D02*
X207449500Y-71302000D01*
X207449500Y-71302000D02*
X209064600Y-72917100D01*
X209064600Y-72917100D02*
X209064600Y-76616200D01*
X209064600Y-76616200D02*
X211290000Y-78841600D01*
X157302000Y-49289200D02*
X158579800Y-49289200D01*
X158579800Y-49289200D02*
X162176900Y-52886300D01*
X162176900Y-52886300D02*
X185652000Y-52886300D01*
X185652000Y-52886300D02*
X185948400Y-53182700D01*
X185948400Y-53182700D02*
X185948400Y-68859100D01*
X185948400Y-68859100D02*
X185787600Y-69019900D01*
X185787600Y-69019900D02*
X157829400Y-69019900D01*
X157829400Y-69019900D02*
X152125600Y-74723700D01*
X152125600Y-74723700D02*
X152125600Y-75304200D01*
X152125600Y-75304200D02*
X151158400Y-76271400D01*
X151158400Y-76271400D02*
X150568500Y-76271400D01*
X150568500Y-76271400D02*
X149585600Y-77254300D01*
X149585600Y-77254300D02*
X149585600Y-88971400D01*
X149585600Y-88971400D02*
X148133000Y-90424000D01*
X155753000Y-75184000D02*
X160500300Y-70436700D01*
X160500300Y-70436700D02*
X186281500Y-70436700D01*
X186281500Y-70436700D02*
X187299300Y-69418900D01*
X187299300Y-69418900D02*
X187299300Y-51986100D01*
X187299300Y-51986100D02*
X184817800Y-49504600D01*
X183540000Y-49504600D02*
X184817800Y-49504600D01*
X150673000Y-90424000D02*
X152023700Y-89073300D01*
X152023700Y-89073300D02*
X152023700Y-77372300D01*
X152023700Y-77372300D02*
X153124600Y-76271400D01*
X153124600Y-76271400D02*
X153674100Y-76271400D01*
X153674100Y-76271400D02*
X154665600Y-75279900D01*
X154665600Y-75279900D02*
X154665600Y-74684900D01*
X154665600Y-74684900D02*
X159364100Y-69986400D01*
X159364100Y-69986400D02*
X186094900Y-69986400D01*
X186094900Y-69986400D02*
X186849000Y-69232300D01*
X186849000Y-69232300D02*
X186849000Y-52809500D01*
X186849000Y-52809500D02*
X185004100Y-50964600D01*
X185004100Y-50964600D02*
X176965300Y-50964600D01*
X176965300Y-50964600D02*
X173830600Y-47829900D01*
X173830600Y-47829900D02*
X147593100Y-47829900D01*
X147593100Y-47829900D02*
X146197800Y-49225200D01*
X144920000Y-49225200D02*
X146197800Y-49225200D01*
X153213000Y-75184000D02*
X158860900Y-69536100D01*
X158860900Y-69536100D02*
X185908300Y-69536100D01*
X185908300Y-69536100D02*
X186398700Y-69045700D01*
X186398700Y-69045700D02*
X186398700Y-52996100D01*
X186398700Y-52996100D02*
X185679700Y-52277100D01*
X185679700Y-52277100D02*
X174395700Y-52277100D01*
X174395700Y-52277100D02*
X171533800Y-49415200D01*
X170256000Y-49415200D02*
X171533800Y-49415200D01*
X186233000Y-90424000D02*
X182423000Y-86614000D01*
X182423000Y-86614000D02*
X159563000Y-86614000D01*
X159563000Y-86614000D02*
X153213000Y-80264000D01*
M02*
