G04 #@! TF.GenerationSoftware,KiCad,Pcbnew,5.1.4-3.fc30*
G04 #@! TF.CreationDate,2019-10-27T12:54:59+05:30*
G04 #@! TF.ProjectId,pc-fan,70632d66-616e-42e6-9b69-6361645f7063,rev?*
G04 #@! TF.SameCoordinates,Original*
G04 #@! TF.FileFunction,Legend,Top*
G04 #@! TF.FilePolarity,Positive*
%FSLAX46Y46*%
G04 Gerber Fmt 4.6, Leading zero omitted, Abs format (unit mm)*
G04 Created by KiCad (PCBNEW 5.1.4-3.fc30) date 2019-10-27 12:54:59*
%MOMM*%
%LPD*%
G04 APERTURE LIST*
%ADD10C,0.120000*%
%ADD11C,0.150000*%
G04 APERTURE END LIST*
D10*
X164036000Y-67874400D02*
X164036000Y-66364400D01*
X167737000Y-67874400D02*
X167737000Y-66364400D01*
X171007000Y-66364400D02*
X160767000Y-66364400D01*
X160767000Y-67874400D02*
X160767000Y-63233400D01*
X171007000Y-67874400D02*
X171007000Y-63233400D01*
X171007000Y-63233400D02*
X160767000Y-63233400D01*
X171007000Y-67874400D02*
X160767000Y-67874400D01*
X138700000Y-67684400D02*
X138700000Y-66174400D01*
X142401000Y-67684400D02*
X142401000Y-66174400D01*
X145671000Y-66174400D02*
X135431000Y-66174400D01*
X135431000Y-67684400D02*
X135431000Y-63043400D01*
X145671000Y-67684400D02*
X145671000Y-63043400D01*
X145671000Y-63043400D02*
X135431000Y-63043400D01*
X145671000Y-67684400D02*
X135431000Y-67684400D01*
X177320000Y-67963800D02*
X177320000Y-66453800D01*
X181021000Y-67963800D02*
X181021000Y-66453800D01*
X184291000Y-66453800D02*
X174051000Y-66453800D01*
X174051000Y-67963800D02*
X174051000Y-63322800D01*
X184291000Y-67963800D02*
X184291000Y-63322800D01*
X184291000Y-63322800D02*
X174051000Y-63322800D01*
X184291000Y-67963800D02*
X174051000Y-67963800D01*
X151082000Y-67748400D02*
X151082000Y-66238400D01*
X154783000Y-67748400D02*
X154783000Y-66238400D01*
X158053000Y-66238400D02*
X147813000Y-66238400D01*
X147813000Y-67748400D02*
X147813000Y-63107400D01*
X158053000Y-67748400D02*
X158053000Y-63107400D01*
X158053000Y-63107400D02*
X147813000Y-63107400D01*
X158053000Y-67748400D02*
X147813000Y-67748400D01*
X190529000Y-68027200D02*
X190529000Y-66517200D01*
X194230000Y-68027200D02*
X194230000Y-66517200D01*
X197500000Y-66517200D02*
X187260000Y-66517200D01*
X187260000Y-68027200D02*
X187260000Y-63386200D01*
X197500000Y-68027200D02*
X197500000Y-63386200D01*
X197500000Y-63386200D02*
X187260000Y-63386200D01*
X197500000Y-68027200D02*
X187260000Y-68027200D01*
X203483000Y-68155200D02*
X203483000Y-66645200D01*
X207184000Y-68155200D02*
X207184000Y-66645200D01*
X210454000Y-66645200D02*
X200214000Y-66645200D01*
X200214000Y-68155200D02*
X200214000Y-63514200D01*
X210454000Y-68155200D02*
X210454000Y-63514200D01*
X210454000Y-63514200D02*
X200214000Y-63514200D01*
X210454000Y-68155200D02*
X200214000Y-68155200D01*
X172669000Y-61106800D02*
X172669000Y-60486800D01*
X173589000Y-62026800D02*
G75*
G03X173589000Y-62026800I-920000J0D01*
G01*
X146913000Y-60903600D02*
X146913000Y-60283600D01*
X147833000Y-61823600D02*
G75*
G03X147833000Y-61823600I-920000J0D01*
G01*
X185776000Y-61259200D02*
X185776000Y-60639200D01*
X186696000Y-62179200D02*
G75*
G03X186696000Y-62179200I-920000J0D01*
G01*
X159359000Y-60954400D02*
X159359000Y-60334400D01*
X160279000Y-61874400D02*
G75*
G03X160279000Y-61874400I-920000J0D01*
G01*
X198882000Y-61462200D02*
X198882000Y-60842200D01*
X199802000Y-62382200D02*
G75*
G03X199802000Y-62382200I-920000J0D01*
G01*
X211938000Y-61411600D02*
X211938000Y-60791600D01*
X212858000Y-62331600D02*
G75*
G03X212858000Y-62331600I-920000J0D01*
G01*
D11*
X188603000Y-94054000D02*
X135603000Y-94054000D01*
X188603000Y-71554000D02*
X188603000Y-94054000D01*
X135603000Y-71554000D02*
X188603000Y-71554000D01*
X135603000Y-94054000D02*
X135603000Y-71554000D01*
X140203000Y-79004000D02*
X135703000Y-79004000D01*
X140203000Y-86604000D02*
X140203000Y-79004000D01*
X135703000Y-86604000D02*
X140203000Y-86604000D01*
D10*
X222504000Y-93582800D02*
X221394000Y-93582800D01*
X221394000Y-93582800D02*
X221394000Y-92252800D01*
X232594000Y-93582800D02*
X232594000Y-83302800D01*
X232594000Y-83302800D02*
X223964000Y-83302800D01*
X223964000Y-93582800D02*
X223964000Y-83302800D01*
X232594000Y-93582800D02*
X223964000Y-93582800D01*
X232594000Y-85902800D02*
X223964000Y-85902800D01*
X232594000Y-88442800D02*
X223964000Y-88442800D01*
X232594000Y-90982800D02*
X223964000Y-90982800D01*
X223964000Y-84272800D02*
X223554000Y-84272800D01*
X223964000Y-84992800D02*
X223554000Y-84992800D01*
X223964000Y-86812800D02*
X223554000Y-86812800D01*
X223964000Y-87532800D02*
X223554000Y-87532800D01*
X223964000Y-89352800D02*
X223554000Y-89352800D01*
X223964000Y-90072800D02*
X223554000Y-90072800D01*
X223964000Y-91892800D02*
X223614000Y-91892800D01*
X223964000Y-92612800D02*
X223614000Y-92612800D01*
X232594000Y-91100900D02*
X223964000Y-91100900D01*
X232594000Y-91218995D02*
X223964000Y-91218995D01*
X232594000Y-91337090D02*
X223964000Y-91337090D01*
X232594000Y-91455185D02*
X223964000Y-91455185D01*
X232594000Y-91573280D02*
X223964000Y-91573280D01*
X232594000Y-91691375D02*
X223964000Y-91691375D01*
X232594000Y-91809470D02*
X223964000Y-91809470D01*
X232594000Y-91927565D02*
X223964000Y-91927565D01*
X232594000Y-92045660D02*
X223964000Y-92045660D01*
X232594000Y-92163755D02*
X223964000Y-92163755D01*
X232594000Y-92281850D02*
X223964000Y-92281850D01*
X232594000Y-92399945D02*
X223964000Y-92399945D01*
X232594000Y-92518040D02*
X223964000Y-92518040D01*
X232594000Y-92636135D02*
X223964000Y-92636135D01*
X232594000Y-92754230D02*
X223964000Y-92754230D01*
X232594000Y-92872325D02*
X223964000Y-92872325D01*
X232594000Y-92990420D02*
X223964000Y-92990420D01*
X232594000Y-93108515D02*
X223964000Y-93108515D01*
X232594000Y-93226610D02*
X223964000Y-93226610D01*
X232594000Y-93344705D02*
X223964000Y-93344705D01*
X232594000Y-93462800D02*
X223964000Y-93462800D01*
X172297000Y-53619400D02*
X172297000Y-54729400D01*
X172297000Y-54729400D02*
X170967000Y-54729400D01*
X172297000Y-43529400D02*
X164557000Y-43529400D01*
X164557000Y-43529400D02*
X164557000Y-52159400D01*
X172297000Y-52159400D02*
X164557000Y-52159400D01*
X172297000Y-43529400D02*
X172297000Y-52159400D01*
X167157000Y-43529400D02*
X167157000Y-52159400D01*
X169697000Y-43529400D02*
X169697000Y-52159400D01*
X165527000Y-52159400D02*
X165527000Y-52569400D01*
X166247000Y-52159400D02*
X166247000Y-52569400D01*
X168067000Y-52159400D02*
X168067000Y-52569400D01*
X168787000Y-52159400D02*
X168787000Y-52569400D01*
X170607000Y-52159400D02*
X170607000Y-52509400D01*
X171327000Y-52159400D02*
X171327000Y-52509400D01*
X169815100Y-43529400D02*
X169815100Y-52159400D01*
X169933195Y-43529400D02*
X169933195Y-52159400D01*
X170051290Y-43529400D02*
X170051290Y-52159400D01*
X170169385Y-43529400D02*
X170169385Y-52159400D01*
X170287480Y-43529400D02*
X170287480Y-52159400D01*
X170405575Y-43529400D02*
X170405575Y-52159400D01*
X170523670Y-43529400D02*
X170523670Y-52159400D01*
X170641765Y-43529400D02*
X170641765Y-52159400D01*
X170759860Y-43529400D02*
X170759860Y-52159400D01*
X170877955Y-43529400D02*
X170877955Y-52159400D01*
X170996050Y-43529400D02*
X170996050Y-52159400D01*
X171114145Y-43529400D02*
X171114145Y-52159400D01*
X171232240Y-43529400D02*
X171232240Y-52159400D01*
X171350335Y-43529400D02*
X171350335Y-52159400D01*
X171468430Y-43529400D02*
X171468430Y-52159400D01*
X171586525Y-43529400D02*
X171586525Y-52159400D01*
X171704620Y-43529400D02*
X171704620Y-52159400D01*
X171822715Y-43529400D02*
X171822715Y-52159400D01*
X171940810Y-43529400D02*
X171940810Y-52159400D01*
X172058905Y-43529400D02*
X172058905Y-52159400D01*
X172177000Y-43529400D02*
X172177000Y-52159400D01*
X146961000Y-53556400D02*
X146961000Y-54666400D01*
X146961000Y-54666400D02*
X145631000Y-54666400D01*
X146961000Y-43466400D02*
X139221000Y-43466400D01*
X139221000Y-43466400D02*
X139221000Y-52096400D01*
X146961000Y-52096400D02*
X139221000Y-52096400D01*
X146961000Y-43466400D02*
X146961000Y-52096400D01*
X141821000Y-43466400D02*
X141821000Y-52096400D01*
X144361000Y-43466400D02*
X144361000Y-52096400D01*
X140191000Y-52096400D02*
X140191000Y-52506400D01*
X140911000Y-52096400D02*
X140911000Y-52506400D01*
X142731000Y-52096400D02*
X142731000Y-52506400D01*
X143451000Y-52096400D02*
X143451000Y-52506400D01*
X145271000Y-52096400D02*
X145271000Y-52446400D01*
X145991000Y-52096400D02*
X145991000Y-52446400D01*
X144479100Y-43466400D02*
X144479100Y-52096400D01*
X144597195Y-43466400D02*
X144597195Y-52096400D01*
X144715290Y-43466400D02*
X144715290Y-52096400D01*
X144833385Y-43466400D02*
X144833385Y-52096400D01*
X144951480Y-43466400D02*
X144951480Y-52096400D01*
X145069575Y-43466400D02*
X145069575Y-52096400D01*
X145187670Y-43466400D02*
X145187670Y-52096400D01*
X145305765Y-43466400D02*
X145305765Y-52096400D01*
X145423860Y-43466400D02*
X145423860Y-52096400D01*
X145541955Y-43466400D02*
X145541955Y-52096400D01*
X145660050Y-43466400D02*
X145660050Y-52096400D01*
X145778145Y-43466400D02*
X145778145Y-52096400D01*
X145896240Y-43466400D02*
X145896240Y-52096400D01*
X146014335Y-43466400D02*
X146014335Y-52096400D01*
X146132430Y-43466400D02*
X146132430Y-52096400D01*
X146250525Y-43466400D02*
X146250525Y-52096400D01*
X146368620Y-43466400D02*
X146368620Y-52096400D01*
X146486715Y-43466400D02*
X146486715Y-52096400D01*
X146604810Y-43466400D02*
X146604810Y-52096400D01*
X146722905Y-43466400D02*
X146722905Y-52096400D01*
X146841000Y-43466400D02*
X146841000Y-52096400D01*
X185531000Y-53644800D02*
X185531000Y-54754800D01*
X185531000Y-54754800D02*
X184201000Y-54754800D01*
X185531000Y-43554800D02*
X177791000Y-43554800D01*
X177791000Y-43554800D02*
X177791000Y-52184800D01*
X185531000Y-52184800D02*
X177791000Y-52184800D01*
X185531000Y-43554800D02*
X185531000Y-52184800D01*
X180391000Y-43554800D02*
X180391000Y-52184800D01*
X182931000Y-43554800D02*
X182931000Y-52184800D01*
X178761000Y-52184800D02*
X178761000Y-52594800D01*
X179481000Y-52184800D02*
X179481000Y-52594800D01*
X181301000Y-52184800D02*
X181301000Y-52594800D01*
X182021000Y-52184800D02*
X182021000Y-52594800D01*
X183841000Y-52184800D02*
X183841000Y-52534800D01*
X184561000Y-52184800D02*
X184561000Y-52534800D01*
X183049100Y-43554800D02*
X183049100Y-52184800D01*
X183167195Y-43554800D02*
X183167195Y-52184800D01*
X183285290Y-43554800D02*
X183285290Y-52184800D01*
X183403385Y-43554800D02*
X183403385Y-52184800D01*
X183521480Y-43554800D02*
X183521480Y-52184800D01*
X183639575Y-43554800D02*
X183639575Y-52184800D01*
X183757670Y-43554800D02*
X183757670Y-52184800D01*
X183875765Y-43554800D02*
X183875765Y-52184800D01*
X183993860Y-43554800D02*
X183993860Y-52184800D01*
X184111955Y-43554800D02*
X184111955Y-52184800D01*
X184230050Y-43554800D02*
X184230050Y-52184800D01*
X184348145Y-43554800D02*
X184348145Y-52184800D01*
X184466240Y-43554800D02*
X184466240Y-52184800D01*
X184584335Y-43554800D02*
X184584335Y-52184800D01*
X184702430Y-43554800D02*
X184702430Y-52184800D01*
X184820525Y-43554800D02*
X184820525Y-52184800D01*
X184938620Y-43554800D02*
X184938620Y-52184800D01*
X185056715Y-43554800D02*
X185056715Y-52184800D01*
X185174810Y-43554800D02*
X185174810Y-52184800D01*
X185292905Y-43554800D02*
X185292905Y-52184800D01*
X185411000Y-43554800D02*
X185411000Y-52184800D01*
X159343000Y-53619400D02*
X159343000Y-54729400D01*
X159343000Y-54729400D02*
X158013000Y-54729400D01*
X159343000Y-43529400D02*
X151603000Y-43529400D01*
X151603000Y-43529400D02*
X151603000Y-52159400D01*
X159343000Y-52159400D02*
X151603000Y-52159400D01*
X159343000Y-43529400D02*
X159343000Y-52159400D01*
X154203000Y-43529400D02*
X154203000Y-52159400D01*
X156743000Y-43529400D02*
X156743000Y-52159400D01*
X152573000Y-52159400D02*
X152573000Y-52569400D01*
X153293000Y-52159400D02*
X153293000Y-52569400D01*
X155113000Y-52159400D02*
X155113000Y-52569400D01*
X155833000Y-52159400D02*
X155833000Y-52569400D01*
X157653000Y-52159400D02*
X157653000Y-52509400D01*
X158373000Y-52159400D02*
X158373000Y-52509400D01*
X156861100Y-43529400D02*
X156861100Y-52159400D01*
X156979195Y-43529400D02*
X156979195Y-52159400D01*
X157097290Y-43529400D02*
X157097290Y-52159400D01*
X157215385Y-43529400D02*
X157215385Y-52159400D01*
X157333480Y-43529400D02*
X157333480Y-52159400D01*
X157451575Y-43529400D02*
X157451575Y-52159400D01*
X157569670Y-43529400D02*
X157569670Y-52159400D01*
X157687765Y-43529400D02*
X157687765Y-52159400D01*
X157805860Y-43529400D02*
X157805860Y-52159400D01*
X157923955Y-43529400D02*
X157923955Y-52159400D01*
X158042050Y-43529400D02*
X158042050Y-52159400D01*
X158160145Y-43529400D02*
X158160145Y-52159400D01*
X158278240Y-43529400D02*
X158278240Y-52159400D01*
X158396335Y-43529400D02*
X158396335Y-52159400D01*
X158514430Y-43529400D02*
X158514430Y-52159400D01*
X158632525Y-43529400D02*
X158632525Y-52159400D01*
X158750620Y-43529400D02*
X158750620Y-52159400D01*
X158868715Y-43529400D02*
X158868715Y-52159400D01*
X158986810Y-43529400D02*
X158986810Y-52159400D01*
X159104905Y-43529400D02*
X159104905Y-52159400D01*
X159223000Y-43529400D02*
X159223000Y-52159400D01*
X198790000Y-53772200D02*
X198790000Y-54882200D01*
X198790000Y-54882200D02*
X197460000Y-54882200D01*
X198790000Y-43682200D02*
X191050000Y-43682200D01*
X191050000Y-43682200D02*
X191050000Y-52312200D01*
X198790000Y-52312200D02*
X191050000Y-52312200D01*
X198790000Y-43682200D02*
X198790000Y-52312200D01*
X193650000Y-43682200D02*
X193650000Y-52312200D01*
X196190000Y-43682200D02*
X196190000Y-52312200D01*
X192020000Y-52312200D02*
X192020000Y-52722200D01*
X192740000Y-52312200D02*
X192740000Y-52722200D01*
X194560000Y-52312200D02*
X194560000Y-52722200D01*
X195280000Y-52312200D02*
X195280000Y-52722200D01*
X197100000Y-52312200D02*
X197100000Y-52662200D01*
X197820000Y-52312200D02*
X197820000Y-52662200D01*
X196308100Y-43682200D02*
X196308100Y-52312200D01*
X196426195Y-43682200D02*
X196426195Y-52312200D01*
X196544290Y-43682200D02*
X196544290Y-52312200D01*
X196662385Y-43682200D02*
X196662385Y-52312200D01*
X196780480Y-43682200D02*
X196780480Y-52312200D01*
X196898575Y-43682200D02*
X196898575Y-52312200D01*
X197016670Y-43682200D02*
X197016670Y-52312200D01*
X197134765Y-43682200D02*
X197134765Y-52312200D01*
X197252860Y-43682200D02*
X197252860Y-52312200D01*
X197370955Y-43682200D02*
X197370955Y-52312200D01*
X197489050Y-43682200D02*
X197489050Y-52312200D01*
X197607145Y-43682200D02*
X197607145Y-52312200D01*
X197725240Y-43682200D02*
X197725240Y-52312200D01*
X197843335Y-43682200D02*
X197843335Y-52312200D01*
X197961430Y-43682200D02*
X197961430Y-52312200D01*
X198079525Y-43682200D02*
X198079525Y-52312200D01*
X198197620Y-43682200D02*
X198197620Y-52312200D01*
X198315715Y-43682200D02*
X198315715Y-52312200D01*
X198433810Y-43682200D02*
X198433810Y-52312200D01*
X198551905Y-43682200D02*
X198551905Y-52312200D01*
X198670000Y-43682200D02*
X198670000Y-52312200D01*
X211744000Y-53772200D02*
X211744000Y-54882200D01*
X211744000Y-54882200D02*
X210414000Y-54882200D01*
X211744000Y-43682200D02*
X204004000Y-43682200D01*
X204004000Y-43682200D02*
X204004000Y-52312200D01*
X211744000Y-52312200D02*
X204004000Y-52312200D01*
X211744000Y-43682200D02*
X211744000Y-52312200D01*
X206604000Y-43682200D02*
X206604000Y-52312200D01*
X209144000Y-43682200D02*
X209144000Y-52312200D01*
X204974000Y-52312200D02*
X204974000Y-52722200D01*
X205694000Y-52312200D02*
X205694000Y-52722200D01*
X207514000Y-52312200D02*
X207514000Y-52722200D01*
X208234000Y-52312200D02*
X208234000Y-52722200D01*
X210054000Y-52312200D02*
X210054000Y-52662200D01*
X210774000Y-52312200D02*
X210774000Y-52662200D01*
X209262100Y-43682200D02*
X209262100Y-52312200D01*
X209380195Y-43682200D02*
X209380195Y-52312200D01*
X209498290Y-43682200D02*
X209498290Y-52312200D01*
X209616385Y-43682200D02*
X209616385Y-52312200D01*
X209734480Y-43682200D02*
X209734480Y-52312200D01*
X209852575Y-43682200D02*
X209852575Y-52312200D01*
X209970670Y-43682200D02*
X209970670Y-52312200D01*
X210088765Y-43682200D02*
X210088765Y-52312200D01*
X210206860Y-43682200D02*
X210206860Y-52312200D01*
X210324955Y-43682200D02*
X210324955Y-52312200D01*
X210443050Y-43682200D02*
X210443050Y-52312200D01*
X210561145Y-43682200D02*
X210561145Y-52312200D01*
X210679240Y-43682200D02*
X210679240Y-52312200D01*
X210797335Y-43682200D02*
X210797335Y-52312200D01*
X210915430Y-43682200D02*
X210915430Y-52312200D01*
X211033525Y-43682200D02*
X211033525Y-52312200D01*
X211151620Y-43682200D02*
X211151620Y-52312200D01*
X211269715Y-43682200D02*
X211269715Y-52312200D01*
X211387810Y-43682200D02*
X211387810Y-52312200D01*
X211505905Y-43682200D02*
X211505905Y-52312200D01*
X211624000Y-43682200D02*
X211624000Y-52312200D01*
X224596000Y-53797200D02*
X224596000Y-54907200D01*
X224596000Y-54907200D02*
X223266000Y-54907200D01*
X224596000Y-43707200D02*
X214316000Y-43707200D01*
X214316000Y-43707200D02*
X214316000Y-52337200D01*
X224596000Y-52337200D02*
X214316000Y-52337200D01*
X224596000Y-43707200D02*
X224596000Y-52337200D01*
X216916000Y-43707200D02*
X216916000Y-52337200D01*
X219456000Y-43707200D02*
X219456000Y-52337200D01*
X221996000Y-43707200D02*
X221996000Y-52337200D01*
X215286000Y-52337200D02*
X215286000Y-52747200D01*
X216006000Y-52337200D02*
X216006000Y-52747200D01*
X217826000Y-52337200D02*
X217826000Y-52747200D01*
X218546000Y-52337200D02*
X218546000Y-52747200D01*
X220366000Y-52337200D02*
X220366000Y-52747200D01*
X221086000Y-52337200D02*
X221086000Y-52747200D01*
X222906000Y-52337200D02*
X222906000Y-52687200D01*
X223626000Y-52337200D02*
X223626000Y-52687200D01*
X222114100Y-43707200D02*
X222114100Y-52337200D01*
X222232195Y-43707200D02*
X222232195Y-52337200D01*
X222350290Y-43707200D02*
X222350290Y-52337200D01*
X222468385Y-43707200D02*
X222468385Y-52337200D01*
X222586480Y-43707200D02*
X222586480Y-52337200D01*
X222704575Y-43707200D02*
X222704575Y-52337200D01*
X222822670Y-43707200D02*
X222822670Y-52337200D01*
X222940765Y-43707200D02*
X222940765Y-52337200D01*
X223058860Y-43707200D02*
X223058860Y-52337200D01*
X223176955Y-43707200D02*
X223176955Y-52337200D01*
X223295050Y-43707200D02*
X223295050Y-52337200D01*
X223413145Y-43707200D02*
X223413145Y-52337200D01*
X223531240Y-43707200D02*
X223531240Y-52337200D01*
X223649335Y-43707200D02*
X223649335Y-52337200D01*
X223767430Y-43707200D02*
X223767430Y-52337200D01*
X223885525Y-43707200D02*
X223885525Y-52337200D01*
X224003620Y-43707200D02*
X224003620Y-52337200D01*
X224121715Y-43707200D02*
X224121715Y-52337200D01*
X224239810Y-43707200D02*
X224239810Y-52337200D01*
X224357905Y-43707200D02*
X224357905Y-52337200D01*
X224476000Y-43707200D02*
X224476000Y-52337200D01*
X135868000Y-99441000D02*
X135868000Y-98331000D01*
X135868000Y-98331000D02*
X137198000Y-98331000D01*
X135868000Y-109531000D02*
X148688000Y-109531000D01*
X148688000Y-109531000D02*
X148688000Y-100901000D01*
X135868000Y-100901000D02*
X148688000Y-100901000D01*
X135868000Y-109531000D02*
X135868000Y-100901000D01*
X146088000Y-109531000D02*
X146088000Y-100901000D01*
X143548000Y-109531000D02*
X143548000Y-100901000D01*
X141008000Y-109531000D02*
X141008000Y-100901000D01*
X138468000Y-109531000D02*
X138468000Y-100901000D01*
X147718000Y-100901000D02*
X147718000Y-100491000D01*
X146998000Y-100901000D02*
X146998000Y-100491000D01*
X145178000Y-100901000D02*
X145178000Y-100491000D01*
X144458000Y-100901000D02*
X144458000Y-100491000D01*
X142638000Y-100901000D02*
X142638000Y-100491000D01*
X141918000Y-100901000D02*
X141918000Y-100491000D01*
X140098000Y-100901000D02*
X140098000Y-100491000D01*
X139378000Y-100901000D02*
X139378000Y-100491000D01*
X137558000Y-100901000D02*
X137558000Y-100551000D01*
X136838000Y-100901000D02*
X136838000Y-100551000D01*
X138349900Y-109531000D02*
X138349900Y-100901000D01*
X138231805Y-109531000D02*
X138231805Y-100901000D01*
X138113710Y-109531000D02*
X138113710Y-100901000D01*
X137995615Y-109531000D02*
X137995615Y-100901000D01*
X137877520Y-109531000D02*
X137877520Y-100901000D01*
X137759425Y-109531000D02*
X137759425Y-100901000D01*
X137641330Y-109531000D02*
X137641330Y-100901000D01*
X137523235Y-109531000D02*
X137523235Y-100901000D01*
X137405140Y-109531000D02*
X137405140Y-100901000D01*
X137287045Y-109531000D02*
X137287045Y-100901000D01*
X137168950Y-109531000D02*
X137168950Y-100901000D01*
X137050855Y-109531000D02*
X137050855Y-100901000D01*
X136932760Y-109531000D02*
X136932760Y-100901000D01*
X136814665Y-109531000D02*
X136814665Y-100901000D01*
X136696570Y-109531000D02*
X136696570Y-100901000D01*
X136578475Y-109531000D02*
X136578475Y-100901000D01*
X136460380Y-109531000D02*
X136460380Y-100901000D01*
X136342285Y-109531000D02*
X136342285Y-100901000D01*
X136224190Y-109531000D02*
X136224190Y-100901000D01*
X136106095Y-109531000D02*
X136106095Y-100901000D01*
X135988000Y-109531000D02*
X135988000Y-100901000D01*
X150867000Y-99466400D02*
X150867000Y-98356400D01*
X150867000Y-98356400D02*
X152197000Y-98356400D01*
X150867000Y-109556400D02*
X163687000Y-109556400D01*
X163687000Y-109556400D02*
X163687000Y-100926400D01*
X150867000Y-100926400D02*
X163687000Y-100926400D01*
X150867000Y-109556400D02*
X150867000Y-100926400D01*
X161087000Y-109556400D02*
X161087000Y-100926400D01*
X158547000Y-109556400D02*
X158547000Y-100926400D01*
X156007000Y-109556400D02*
X156007000Y-100926400D01*
X153467000Y-109556400D02*
X153467000Y-100926400D01*
X162717000Y-100926400D02*
X162717000Y-100516400D01*
X161997000Y-100926400D02*
X161997000Y-100516400D01*
X160177000Y-100926400D02*
X160177000Y-100516400D01*
X159457000Y-100926400D02*
X159457000Y-100516400D01*
X157637000Y-100926400D02*
X157637000Y-100516400D01*
X156917000Y-100926400D02*
X156917000Y-100516400D01*
X155097000Y-100926400D02*
X155097000Y-100516400D01*
X154377000Y-100926400D02*
X154377000Y-100516400D01*
X152557000Y-100926400D02*
X152557000Y-100576400D01*
X151837000Y-100926400D02*
X151837000Y-100576400D01*
X153348900Y-109556400D02*
X153348900Y-100926400D01*
X153230805Y-109556400D02*
X153230805Y-100926400D01*
X153112710Y-109556400D02*
X153112710Y-100926400D01*
X152994615Y-109556400D02*
X152994615Y-100926400D01*
X152876520Y-109556400D02*
X152876520Y-100926400D01*
X152758425Y-109556400D02*
X152758425Y-100926400D01*
X152640330Y-109556400D02*
X152640330Y-100926400D01*
X152522235Y-109556400D02*
X152522235Y-100926400D01*
X152404140Y-109556400D02*
X152404140Y-100926400D01*
X152286045Y-109556400D02*
X152286045Y-100926400D01*
X152167950Y-109556400D02*
X152167950Y-100926400D01*
X152049855Y-109556400D02*
X152049855Y-100926400D01*
X151931760Y-109556400D02*
X151931760Y-100926400D01*
X151813665Y-109556400D02*
X151813665Y-100926400D01*
X151695570Y-109556400D02*
X151695570Y-100926400D01*
X151577475Y-109556400D02*
X151577475Y-100926400D01*
X151459380Y-109556400D02*
X151459380Y-100926400D01*
X151341285Y-109556400D02*
X151341285Y-100926400D01*
X151223190Y-109556400D02*
X151223190Y-100926400D01*
X151105095Y-109556400D02*
X151105095Y-100926400D01*
X150987000Y-109556400D02*
X150987000Y-100926400D01*
X166107000Y-99466400D02*
X166107000Y-98356400D01*
X166107000Y-98356400D02*
X167437000Y-98356400D01*
X166107000Y-109556400D02*
X178927000Y-109556400D01*
X178927000Y-109556400D02*
X178927000Y-100926400D01*
X166107000Y-100926400D02*
X178927000Y-100926400D01*
X166107000Y-109556400D02*
X166107000Y-100926400D01*
X176327000Y-109556400D02*
X176327000Y-100926400D01*
X173787000Y-109556400D02*
X173787000Y-100926400D01*
X171247000Y-109556400D02*
X171247000Y-100926400D01*
X168707000Y-109556400D02*
X168707000Y-100926400D01*
X177957000Y-100926400D02*
X177957000Y-100516400D01*
X177237000Y-100926400D02*
X177237000Y-100516400D01*
X175417000Y-100926400D02*
X175417000Y-100516400D01*
X174697000Y-100926400D02*
X174697000Y-100516400D01*
X172877000Y-100926400D02*
X172877000Y-100516400D01*
X172157000Y-100926400D02*
X172157000Y-100516400D01*
X170337000Y-100926400D02*
X170337000Y-100516400D01*
X169617000Y-100926400D02*
X169617000Y-100516400D01*
X167797000Y-100926400D02*
X167797000Y-100576400D01*
X167077000Y-100926400D02*
X167077000Y-100576400D01*
X168588900Y-109556400D02*
X168588900Y-100926400D01*
X168470805Y-109556400D02*
X168470805Y-100926400D01*
X168352710Y-109556400D02*
X168352710Y-100926400D01*
X168234615Y-109556400D02*
X168234615Y-100926400D01*
X168116520Y-109556400D02*
X168116520Y-100926400D01*
X167998425Y-109556400D02*
X167998425Y-100926400D01*
X167880330Y-109556400D02*
X167880330Y-100926400D01*
X167762235Y-109556400D02*
X167762235Y-100926400D01*
X167644140Y-109556400D02*
X167644140Y-100926400D01*
X167526045Y-109556400D02*
X167526045Y-100926400D01*
X167407950Y-109556400D02*
X167407950Y-100926400D01*
X167289855Y-109556400D02*
X167289855Y-100926400D01*
X167171760Y-109556400D02*
X167171760Y-100926400D01*
X167053665Y-109556400D02*
X167053665Y-100926400D01*
X166935570Y-109556400D02*
X166935570Y-100926400D01*
X166817475Y-109556400D02*
X166817475Y-100926400D01*
X166699380Y-109556400D02*
X166699380Y-100926400D01*
X166581285Y-109556400D02*
X166581285Y-100926400D01*
X166463190Y-109556400D02*
X166463190Y-100926400D01*
X166345095Y-109556400D02*
X166345095Y-100926400D01*
X166227000Y-109556400D02*
X166227000Y-100926400D01*
X181347000Y-99466400D02*
X181347000Y-98356400D01*
X181347000Y-98356400D02*
X182677000Y-98356400D01*
X181347000Y-109556400D02*
X194167000Y-109556400D01*
X194167000Y-109556400D02*
X194167000Y-100926400D01*
X181347000Y-100926400D02*
X194167000Y-100926400D01*
X181347000Y-109556400D02*
X181347000Y-100926400D01*
X191567000Y-109556400D02*
X191567000Y-100926400D01*
X189027000Y-109556400D02*
X189027000Y-100926400D01*
X186487000Y-109556400D02*
X186487000Y-100926400D01*
X183947000Y-109556400D02*
X183947000Y-100926400D01*
X193197000Y-100926400D02*
X193197000Y-100516400D01*
X192477000Y-100926400D02*
X192477000Y-100516400D01*
X190657000Y-100926400D02*
X190657000Y-100516400D01*
X189937000Y-100926400D02*
X189937000Y-100516400D01*
X188117000Y-100926400D02*
X188117000Y-100516400D01*
X187397000Y-100926400D02*
X187397000Y-100516400D01*
X185577000Y-100926400D02*
X185577000Y-100516400D01*
X184857000Y-100926400D02*
X184857000Y-100516400D01*
X183037000Y-100926400D02*
X183037000Y-100576400D01*
X182317000Y-100926400D02*
X182317000Y-100576400D01*
X183828900Y-109556400D02*
X183828900Y-100926400D01*
X183710805Y-109556400D02*
X183710805Y-100926400D01*
X183592710Y-109556400D02*
X183592710Y-100926400D01*
X183474615Y-109556400D02*
X183474615Y-100926400D01*
X183356520Y-109556400D02*
X183356520Y-100926400D01*
X183238425Y-109556400D02*
X183238425Y-100926400D01*
X183120330Y-109556400D02*
X183120330Y-100926400D01*
X183002235Y-109556400D02*
X183002235Y-100926400D01*
X182884140Y-109556400D02*
X182884140Y-100926400D01*
X182766045Y-109556400D02*
X182766045Y-100926400D01*
X182647950Y-109556400D02*
X182647950Y-100926400D01*
X182529855Y-109556400D02*
X182529855Y-100926400D01*
X182411760Y-109556400D02*
X182411760Y-100926400D01*
X182293665Y-109556400D02*
X182293665Y-100926400D01*
X182175570Y-109556400D02*
X182175570Y-100926400D01*
X182057475Y-109556400D02*
X182057475Y-100926400D01*
X181939380Y-109556400D02*
X181939380Y-100926400D01*
X181821285Y-109556400D02*
X181821285Y-100926400D01*
X181703190Y-109556400D02*
X181703190Y-100926400D01*
X181585095Y-109556400D02*
X181585095Y-100926400D01*
X181467000Y-109556400D02*
X181467000Y-100926400D01*
X196485000Y-99517200D02*
X196485000Y-98407200D01*
X196485000Y-98407200D02*
X197815000Y-98407200D01*
X196485000Y-109607200D02*
X209305000Y-109607200D01*
X209305000Y-109607200D02*
X209305000Y-100977200D01*
X196485000Y-100977200D02*
X209305000Y-100977200D01*
X196485000Y-109607200D02*
X196485000Y-100977200D01*
X206705000Y-109607200D02*
X206705000Y-100977200D01*
X204165000Y-109607200D02*
X204165000Y-100977200D01*
X201625000Y-109607200D02*
X201625000Y-100977200D01*
X199085000Y-109607200D02*
X199085000Y-100977200D01*
X208335000Y-100977200D02*
X208335000Y-100567200D01*
X207615000Y-100977200D02*
X207615000Y-100567200D01*
X205795000Y-100977200D02*
X205795000Y-100567200D01*
X205075000Y-100977200D02*
X205075000Y-100567200D01*
X203255000Y-100977200D02*
X203255000Y-100567200D01*
X202535000Y-100977200D02*
X202535000Y-100567200D01*
X200715000Y-100977200D02*
X200715000Y-100567200D01*
X199995000Y-100977200D02*
X199995000Y-100567200D01*
X198175000Y-100977200D02*
X198175000Y-100627200D01*
X197455000Y-100977200D02*
X197455000Y-100627200D01*
X198966900Y-109607200D02*
X198966900Y-100977200D01*
X198848805Y-109607200D02*
X198848805Y-100977200D01*
X198730710Y-109607200D02*
X198730710Y-100977200D01*
X198612615Y-109607200D02*
X198612615Y-100977200D01*
X198494520Y-109607200D02*
X198494520Y-100977200D01*
X198376425Y-109607200D02*
X198376425Y-100977200D01*
X198258330Y-109607200D02*
X198258330Y-100977200D01*
X198140235Y-109607200D02*
X198140235Y-100977200D01*
X198022140Y-109607200D02*
X198022140Y-100977200D01*
X197904045Y-109607200D02*
X197904045Y-100977200D01*
X197785950Y-109607200D02*
X197785950Y-100977200D01*
X197667855Y-109607200D02*
X197667855Y-100977200D01*
X197549760Y-109607200D02*
X197549760Y-100977200D01*
X197431665Y-109607200D02*
X197431665Y-100977200D01*
X197313570Y-109607200D02*
X197313570Y-100977200D01*
X197195475Y-109607200D02*
X197195475Y-100977200D01*
X197077380Y-109607200D02*
X197077380Y-100977200D01*
X196959285Y-109607200D02*
X196959285Y-100977200D01*
X196841190Y-109607200D02*
X196841190Y-100977200D01*
X196723095Y-109607200D02*
X196723095Y-100977200D01*
X196605000Y-109607200D02*
X196605000Y-100977200D01*
X211319000Y-99517200D02*
X211319000Y-98407200D01*
X211319000Y-98407200D02*
X212649000Y-98407200D01*
X211319000Y-109607200D02*
X224139000Y-109607200D01*
X224139000Y-109607200D02*
X224139000Y-100977200D01*
X211319000Y-100977200D02*
X224139000Y-100977200D01*
X211319000Y-109607200D02*
X211319000Y-100977200D01*
X221539000Y-109607200D02*
X221539000Y-100977200D01*
X218999000Y-109607200D02*
X218999000Y-100977200D01*
X216459000Y-109607200D02*
X216459000Y-100977200D01*
X213919000Y-109607200D02*
X213919000Y-100977200D01*
X223169000Y-100977200D02*
X223169000Y-100567200D01*
X222449000Y-100977200D02*
X222449000Y-100567200D01*
X220629000Y-100977200D02*
X220629000Y-100567200D01*
X219909000Y-100977200D02*
X219909000Y-100567200D01*
X218089000Y-100977200D02*
X218089000Y-100567200D01*
X217369000Y-100977200D02*
X217369000Y-100567200D01*
X215549000Y-100977200D02*
X215549000Y-100567200D01*
X214829000Y-100977200D02*
X214829000Y-100567200D01*
X213009000Y-100977200D02*
X213009000Y-100627200D01*
X212289000Y-100977200D02*
X212289000Y-100627200D01*
X213800900Y-109607200D02*
X213800900Y-100977200D01*
X213682805Y-109607200D02*
X213682805Y-100977200D01*
X213564710Y-109607200D02*
X213564710Y-100977200D01*
X213446615Y-109607200D02*
X213446615Y-100977200D01*
X213328520Y-109607200D02*
X213328520Y-100977200D01*
X213210425Y-109607200D02*
X213210425Y-100977200D01*
X213092330Y-109607200D02*
X213092330Y-100977200D01*
X212974235Y-109607200D02*
X212974235Y-100977200D01*
X212856140Y-109607200D02*
X212856140Y-100977200D01*
X212738045Y-109607200D02*
X212738045Y-100977200D01*
X212619950Y-109607200D02*
X212619950Y-100977200D01*
X212501855Y-109607200D02*
X212501855Y-100977200D01*
X212383760Y-109607200D02*
X212383760Y-100977200D01*
X212265665Y-109607200D02*
X212265665Y-100977200D01*
X212147570Y-109607200D02*
X212147570Y-100977200D01*
X212029475Y-109607200D02*
X212029475Y-100977200D01*
X211911380Y-109607200D02*
X211911380Y-100977200D01*
X211793285Y-109607200D02*
X211793285Y-100977200D01*
X211675190Y-109607200D02*
X211675190Y-100977200D01*
X211557095Y-109607200D02*
X211557095Y-100977200D01*
X211439000Y-109607200D02*
X211439000Y-100977200D01*
D11*
X165791761Y-69422019D02*
X165696523Y-69374400D01*
X165601285Y-69279161D01*
X165458428Y-69136304D01*
X165363190Y-69088685D01*
X165267952Y-69088685D01*
X165315571Y-69326780D02*
X165220333Y-69279161D01*
X165125095Y-69183923D01*
X165077476Y-68993447D01*
X165077476Y-68660114D01*
X165125095Y-68469638D01*
X165220333Y-68374400D01*
X165315571Y-68326780D01*
X165506047Y-68326780D01*
X165601285Y-68374400D01*
X165696523Y-68469638D01*
X165744142Y-68660114D01*
X165744142Y-68993447D01*
X165696523Y-69183923D01*
X165601285Y-69279161D01*
X165506047Y-69326780D01*
X165315571Y-69326780D01*
X166601285Y-68326780D02*
X166410809Y-68326780D01*
X166315571Y-68374400D01*
X166267952Y-68422019D01*
X166172714Y-68564876D01*
X166125095Y-68755352D01*
X166125095Y-69136304D01*
X166172714Y-69231542D01*
X166220333Y-69279161D01*
X166315571Y-69326780D01*
X166506047Y-69326780D01*
X166601285Y-69279161D01*
X166648904Y-69231542D01*
X166696523Y-69136304D01*
X166696523Y-68898209D01*
X166648904Y-68802971D01*
X166601285Y-68755352D01*
X166506047Y-68707733D01*
X166315571Y-68707733D01*
X166220333Y-68755352D01*
X166172714Y-68802971D01*
X166125095Y-68898209D01*
X140455761Y-69232019D02*
X140360523Y-69184400D01*
X140265285Y-69089161D01*
X140122428Y-68946304D01*
X140027190Y-68898685D01*
X139931952Y-68898685D01*
X139979571Y-69136780D02*
X139884333Y-69089161D01*
X139789095Y-68993923D01*
X139741476Y-68803447D01*
X139741476Y-68470114D01*
X139789095Y-68279638D01*
X139884333Y-68184400D01*
X139979571Y-68136780D01*
X140170047Y-68136780D01*
X140265285Y-68184400D01*
X140360523Y-68279638D01*
X140408142Y-68470114D01*
X140408142Y-68803447D01*
X140360523Y-68993923D01*
X140265285Y-69089161D01*
X140170047Y-69136780D01*
X139979571Y-69136780D01*
X141312904Y-68136780D02*
X140836714Y-68136780D01*
X140789095Y-68612971D01*
X140836714Y-68565352D01*
X140931952Y-68517733D01*
X141170047Y-68517733D01*
X141265285Y-68565352D01*
X141312904Y-68612971D01*
X141360523Y-68708209D01*
X141360523Y-68946304D01*
X141312904Y-69041542D01*
X141265285Y-69089161D01*
X141170047Y-69136780D01*
X140931952Y-69136780D01*
X140836714Y-69089161D01*
X140789095Y-69041542D01*
X179075761Y-69511419D02*
X178980523Y-69463800D01*
X178885285Y-69368561D01*
X178742428Y-69225704D01*
X178647190Y-69178085D01*
X178551952Y-69178085D01*
X178599571Y-69416180D02*
X178504333Y-69368561D01*
X178409095Y-69273323D01*
X178361476Y-69082847D01*
X178361476Y-68749514D01*
X178409095Y-68559038D01*
X178504333Y-68463800D01*
X178599571Y-68416180D01*
X178790047Y-68416180D01*
X178885285Y-68463800D01*
X178980523Y-68559038D01*
X179028142Y-68749514D01*
X179028142Y-69082847D01*
X178980523Y-69273323D01*
X178885285Y-69368561D01*
X178790047Y-69416180D01*
X178599571Y-69416180D01*
X179885285Y-68749514D02*
X179885285Y-69416180D01*
X179647190Y-68368561D02*
X179409095Y-69082847D01*
X180028142Y-69082847D01*
X152837761Y-69296019D02*
X152742523Y-69248400D01*
X152647285Y-69153161D01*
X152504428Y-69010304D01*
X152409190Y-68962685D01*
X152313952Y-68962685D01*
X152361571Y-69200780D02*
X152266333Y-69153161D01*
X152171095Y-69057923D01*
X152123476Y-68867447D01*
X152123476Y-68534114D01*
X152171095Y-68343638D01*
X152266333Y-68248400D01*
X152361571Y-68200780D01*
X152552047Y-68200780D01*
X152647285Y-68248400D01*
X152742523Y-68343638D01*
X152790142Y-68534114D01*
X152790142Y-68867447D01*
X152742523Y-69057923D01*
X152647285Y-69153161D01*
X152552047Y-69200780D01*
X152361571Y-69200780D01*
X153123476Y-68200780D02*
X153742523Y-68200780D01*
X153409190Y-68581733D01*
X153552047Y-68581733D01*
X153647285Y-68629352D01*
X153694904Y-68676971D01*
X153742523Y-68772209D01*
X153742523Y-69010304D01*
X153694904Y-69105542D01*
X153647285Y-69153161D01*
X153552047Y-69200780D01*
X153266333Y-69200780D01*
X153171095Y-69153161D01*
X153123476Y-69105542D01*
X192284761Y-69574819D02*
X192189523Y-69527200D01*
X192094285Y-69431961D01*
X191951428Y-69289104D01*
X191856190Y-69241485D01*
X191760952Y-69241485D01*
X191808571Y-69479580D02*
X191713333Y-69431961D01*
X191618095Y-69336723D01*
X191570476Y-69146247D01*
X191570476Y-68812914D01*
X191618095Y-68622438D01*
X191713333Y-68527200D01*
X191808571Y-68479580D01*
X191999047Y-68479580D01*
X192094285Y-68527200D01*
X192189523Y-68622438D01*
X192237142Y-68812914D01*
X192237142Y-69146247D01*
X192189523Y-69336723D01*
X192094285Y-69431961D01*
X191999047Y-69479580D01*
X191808571Y-69479580D01*
X192618095Y-68574819D02*
X192665714Y-68527200D01*
X192760952Y-68479580D01*
X192999047Y-68479580D01*
X193094285Y-68527200D01*
X193141904Y-68574819D01*
X193189523Y-68670057D01*
X193189523Y-68765295D01*
X193141904Y-68908152D01*
X192570476Y-69479580D01*
X193189523Y-69479580D01*
X205238761Y-69702819D02*
X205143523Y-69655200D01*
X205048285Y-69559961D01*
X204905428Y-69417104D01*
X204810190Y-69369485D01*
X204714952Y-69369485D01*
X204762571Y-69607580D02*
X204667333Y-69559961D01*
X204572095Y-69464723D01*
X204524476Y-69274247D01*
X204524476Y-68940914D01*
X204572095Y-68750438D01*
X204667333Y-68655200D01*
X204762571Y-68607580D01*
X204953047Y-68607580D01*
X205048285Y-68655200D01*
X205143523Y-68750438D01*
X205191142Y-68940914D01*
X205191142Y-69274247D01*
X205143523Y-69464723D01*
X205048285Y-69559961D01*
X204953047Y-69607580D01*
X204762571Y-69607580D01*
X206143523Y-69607580D02*
X205572095Y-69607580D01*
X205857809Y-69607580D02*
X205857809Y-68607580D01*
X205762571Y-68750438D01*
X205667333Y-68845676D01*
X205572095Y-68893295D01*
X171201380Y-60923466D02*
X170725190Y-61256800D01*
X171201380Y-61494895D02*
X170201380Y-61494895D01*
X170201380Y-61113942D01*
X170249000Y-61018704D01*
X170296619Y-60971085D01*
X170391857Y-60923466D01*
X170534714Y-60923466D01*
X170629952Y-60971085D01*
X170677571Y-61018704D01*
X170725190Y-61113942D01*
X170725190Y-61494895D01*
X170201380Y-60066323D02*
X170201380Y-60256800D01*
X170249000Y-60352038D01*
X170296619Y-60399657D01*
X170439476Y-60494895D01*
X170629952Y-60542514D01*
X171010904Y-60542514D01*
X171106142Y-60494895D01*
X171153761Y-60447276D01*
X171201380Y-60352038D01*
X171201380Y-60161561D01*
X171153761Y-60066323D01*
X171106142Y-60018704D01*
X171010904Y-59971085D01*
X170772809Y-59971085D01*
X170677571Y-60018704D01*
X170629952Y-60066323D01*
X170582333Y-60161561D01*
X170582333Y-60352038D01*
X170629952Y-60447276D01*
X170677571Y-60494895D01*
X170772809Y-60542514D01*
X145445380Y-60720266D02*
X144969190Y-61053600D01*
X145445380Y-61291695D02*
X144445380Y-61291695D01*
X144445380Y-60910742D01*
X144493000Y-60815504D01*
X144540619Y-60767885D01*
X144635857Y-60720266D01*
X144778714Y-60720266D01*
X144873952Y-60767885D01*
X144921571Y-60815504D01*
X144969190Y-60910742D01*
X144969190Y-61291695D01*
X144445380Y-59815504D02*
X144445380Y-60291695D01*
X144921571Y-60339314D01*
X144873952Y-60291695D01*
X144826333Y-60196457D01*
X144826333Y-59958361D01*
X144873952Y-59863123D01*
X144921571Y-59815504D01*
X145016809Y-59767885D01*
X145254904Y-59767885D01*
X145350142Y-59815504D01*
X145397761Y-59863123D01*
X145445380Y-59958361D01*
X145445380Y-60196457D01*
X145397761Y-60291695D01*
X145350142Y-60339314D01*
X184308380Y-61075866D02*
X183832190Y-61409200D01*
X184308380Y-61647295D02*
X183308380Y-61647295D01*
X183308380Y-61266342D01*
X183356000Y-61171104D01*
X183403619Y-61123485D01*
X183498857Y-61075866D01*
X183641714Y-61075866D01*
X183736952Y-61123485D01*
X183784571Y-61171104D01*
X183832190Y-61266342D01*
X183832190Y-61647295D01*
X183641714Y-60218723D02*
X184308380Y-60218723D01*
X183260761Y-60456819D02*
X183975047Y-60694914D01*
X183975047Y-60075866D01*
X157891380Y-60771066D02*
X157415190Y-61104400D01*
X157891380Y-61342495D02*
X156891380Y-61342495D01*
X156891380Y-60961542D01*
X156939000Y-60866304D01*
X156986619Y-60818685D01*
X157081857Y-60771066D01*
X157224714Y-60771066D01*
X157319952Y-60818685D01*
X157367571Y-60866304D01*
X157415190Y-60961542D01*
X157415190Y-61342495D01*
X156891380Y-60437733D02*
X156891380Y-59818685D01*
X157272333Y-60152019D01*
X157272333Y-60009161D01*
X157319952Y-59913923D01*
X157367571Y-59866304D01*
X157462809Y-59818685D01*
X157700904Y-59818685D01*
X157796142Y-59866304D01*
X157843761Y-59913923D01*
X157891380Y-60009161D01*
X157891380Y-60294876D01*
X157843761Y-60390114D01*
X157796142Y-60437733D01*
X197414380Y-61278866D02*
X196938190Y-61612200D01*
X197414380Y-61850295D02*
X196414380Y-61850295D01*
X196414380Y-61469342D01*
X196462000Y-61374104D01*
X196509619Y-61326485D01*
X196604857Y-61278866D01*
X196747714Y-61278866D01*
X196842952Y-61326485D01*
X196890571Y-61374104D01*
X196938190Y-61469342D01*
X196938190Y-61850295D01*
X196509619Y-60897914D02*
X196462000Y-60850295D01*
X196414380Y-60755057D01*
X196414380Y-60516961D01*
X196462000Y-60421723D01*
X196509619Y-60374104D01*
X196604857Y-60326485D01*
X196700095Y-60326485D01*
X196842952Y-60374104D01*
X197414380Y-60945533D01*
X197414380Y-60326485D01*
X210470380Y-61228266D02*
X209994190Y-61561600D01*
X210470380Y-61799695D02*
X209470380Y-61799695D01*
X209470380Y-61418742D01*
X209518000Y-61323504D01*
X209565619Y-61275885D01*
X209660857Y-61228266D01*
X209803714Y-61228266D01*
X209898952Y-61275885D01*
X209946571Y-61323504D01*
X209994190Y-61418742D01*
X209994190Y-61799695D01*
X210470380Y-60275885D02*
X210470380Y-60847314D01*
X210470380Y-60561600D02*
X209470380Y-60561600D01*
X209613238Y-60656838D01*
X209708476Y-60752076D01*
X209756095Y-60847314D01*
X186955380Y-83565904D02*
X187764904Y-83565904D01*
X187860142Y-83518285D01*
X187907761Y-83470666D01*
X187955380Y-83375428D01*
X187955380Y-83184952D01*
X187907761Y-83089714D01*
X187860142Y-83042095D01*
X187764904Y-82994476D01*
X186955380Y-82994476D01*
X187955380Y-81994476D02*
X187955380Y-82565904D01*
X187955380Y-82280190D02*
X186955380Y-82280190D01*
X187098238Y-82375428D01*
X187193476Y-82470666D01*
X187241095Y-82565904D01*
X222057980Y-96617923D02*
X222772266Y-96617923D01*
X222915123Y-96665542D01*
X223010361Y-96760780D01*
X223057980Y-96903638D01*
X223057980Y-96998876D01*
X223057980Y-95617923D02*
X223057980Y-96189352D01*
X223057980Y-95903638D02*
X222057980Y-95903638D01*
X222200838Y-95998876D01*
X222296076Y-96094114D01*
X222343695Y-96189352D01*
X222391314Y-94760780D02*
X223057980Y-94760780D01*
X222010361Y-94998876D02*
X222724647Y-95236971D01*
X222724647Y-94617923D01*
X220162380Y-90894780D02*
X219162380Y-90894780D01*
X219162380Y-90656685D01*
X219210000Y-90513828D01*
X219305238Y-90418590D01*
X219400476Y-90370971D01*
X219590952Y-90323352D01*
X219733809Y-90323352D01*
X219924285Y-90370971D01*
X220019523Y-90418590D01*
X220114761Y-90513828D01*
X220162380Y-90656685D01*
X220162380Y-90894780D01*
X220162380Y-89894780D02*
X219495714Y-89894780D01*
X219162380Y-89894780D02*
X219210000Y-89942400D01*
X219257619Y-89894780D01*
X219210000Y-89847161D01*
X219162380Y-89894780D01*
X219257619Y-89894780D01*
X220114761Y-89466209D02*
X220162380Y-89370971D01*
X220162380Y-89180495D01*
X220114761Y-89085257D01*
X220019523Y-89037638D01*
X219971904Y-89037638D01*
X219876666Y-89085257D01*
X219829047Y-89180495D01*
X219829047Y-89323352D01*
X219781428Y-89418590D01*
X219686190Y-89466209D01*
X219638571Y-89466209D01*
X219543333Y-89418590D01*
X219495714Y-89323352D01*
X219495714Y-89180495D01*
X219543333Y-89085257D01*
X219495714Y-88609066D02*
X220495714Y-88609066D01*
X219543333Y-88609066D02*
X219495714Y-88513828D01*
X219495714Y-88323352D01*
X219543333Y-88228114D01*
X219590952Y-88180495D01*
X219686190Y-88132876D01*
X219971904Y-88132876D01*
X220067142Y-88180495D01*
X220114761Y-88228114D01*
X220162380Y-88323352D01*
X220162380Y-88513828D01*
X220114761Y-88609066D01*
X220162380Y-87561447D02*
X220114761Y-87656685D01*
X220019523Y-87704304D01*
X219162380Y-87704304D01*
X220162380Y-86751923D02*
X219638571Y-86751923D01*
X219543333Y-86799542D01*
X219495714Y-86894780D01*
X219495714Y-87085257D01*
X219543333Y-87180495D01*
X220114761Y-86751923D02*
X220162380Y-86847161D01*
X220162380Y-87085257D01*
X220114761Y-87180495D01*
X220019523Y-87228114D01*
X219924285Y-87228114D01*
X219829047Y-87180495D01*
X219781428Y-87085257D01*
X219781428Y-86847161D01*
X219733809Y-86751923D01*
X219495714Y-86370971D02*
X220162380Y-86132876D01*
X219495714Y-85894780D02*
X220162380Y-86132876D01*
X220400476Y-86228114D01*
X220448095Y-86275733D01*
X220495714Y-86370971D01*
X167897076Y-55941980D02*
X167897076Y-56656266D01*
X167849457Y-56799123D01*
X167754219Y-56894361D01*
X167611361Y-56941980D01*
X167516123Y-56941980D01*
X168897076Y-56941980D02*
X168325647Y-56941980D01*
X168611361Y-56941980D02*
X168611361Y-55941980D01*
X168516123Y-56084838D01*
X168420885Y-56180076D01*
X168325647Y-56227695D01*
X169230409Y-55941980D02*
X169849457Y-55941980D01*
X169516123Y-56322933D01*
X169658980Y-56322933D01*
X169754219Y-56370552D01*
X169801838Y-56418171D01*
X169849457Y-56513409D01*
X169849457Y-56751504D01*
X169801838Y-56846742D01*
X169754219Y-56894361D01*
X169658980Y-56941980D01*
X169373266Y-56941980D01*
X169278028Y-56894361D01*
X169230409Y-56846742D01*
X167192333Y-58704171D02*
X166859000Y-58704171D01*
X166859000Y-59227980D02*
X166859000Y-58227980D01*
X167335190Y-58227980D01*
X167668523Y-58942266D02*
X168144714Y-58942266D01*
X167573285Y-59227980D02*
X167906619Y-58227980D01*
X168239952Y-59227980D01*
X168573285Y-59227980D02*
X168573285Y-58227980D01*
X169144714Y-59227980D01*
X169144714Y-58227980D01*
X169382809Y-59323219D02*
X170144714Y-59323219D01*
X170811380Y-58561314D02*
X170811380Y-59227980D01*
X170573285Y-58180361D02*
X170335190Y-58894647D01*
X170954238Y-58894647D01*
X142192276Y-56043580D02*
X142192276Y-56757866D01*
X142144657Y-56900723D01*
X142049419Y-56995961D01*
X141906561Y-57043580D01*
X141811323Y-57043580D01*
X143192276Y-57043580D02*
X142620847Y-57043580D01*
X142906561Y-57043580D02*
X142906561Y-56043580D01*
X142811323Y-56186438D01*
X142716085Y-56281676D01*
X142620847Y-56329295D01*
X143573228Y-56138819D02*
X143620847Y-56091200D01*
X143716085Y-56043580D01*
X143954180Y-56043580D01*
X144049419Y-56091200D01*
X144097038Y-56138819D01*
X144144657Y-56234057D01*
X144144657Y-56329295D01*
X144097038Y-56472152D01*
X143525609Y-57043580D01*
X144144657Y-57043580D01*
X141538333Y-58196171D02*
X141205000Y-58196171D01*
X141205000Y-58719980D02*
X141205000Y-57719980D01*
X141681190Y-57719980D01*
X142014523Y-58434266D02*
X142490714Y-58434266D01*
X141919285Y-58719980D02*
X142252619Y-57719980D01*
X142585952Y-58719980D01*
X142919285Y-58719980D02*
X142919285Y-57719980D01*
X143490714Y-58719980D01*
X143490714Y-57719980D01*
X143728809Y-58815219D02*
X144490714Y-58815219D01*
X145157380Y-57719980D02*
X144966904Y-57719980D01*
X144871666Y-57767600D01*
X144824047Y-57815219D01*
X144728809Y-57958076D01*
X144681190Y-58148552D01*
X144681190Y-58529504D01*
X144728809Y-58624742D01*
X144776428Y-58672361D01*
X144871666Y-58719980D01*
X145062142Y-58719980D01*
X145157380Y-58672361D01*
X145205000Y-58624742D01*
X145252619Y-58529504D01*
X145252619Y-58291409D01*
X145205000Y-58196171D01*
X145157380Y-58148552D01*
X145062142Y-58100933D01*
X144871666Y-58100933D01*
X144776428Y-58148552D01*
X144728809Y-58196171D01*
X144681190Y-58291409D01*
X180952676Y-55941980D02*
X180952676Y-56656266D01*
X180905057Y-56799123D01*
X180809819Y-56894361D01*
X180666961Y-56941980D01*
X180571723Y-56941980D01*
X181952676Y-56941980D02*
X181381247Y-56941980D01*
X181666961Y-56941980D02*
X181666961Y-55941980D01*
X181571723Y-56084838D01*
X181476485Y-56180076D01*
X181381247Y-56227695D01*
X182905057Y-56941980D02*
X182333628Y-56941980D01*
X182619342Y-56941980D02*
X182619342Y-55941980D01*
X182524104Y-56084838D01*
X182428866Y-56180076D01*
X182333628Y-56227695D01*
X180197133Y-58856571D02*
X179863800Y-58856571D01*
X179863800Y-59380380D02*
X179863800Y-58380380D01*
X180339990Y-58380380D01*
X180673323Y-59094666D02*
X181149514Y-59094666D01*
X180578085Y-59380380D02*
X180911419Y-58380380D01*
X181244752Y-59380380D01*
X181578085Y-59380380D02*
X181578085Y-58380380D01*
X182149514Y-59380380D01*
X182149514Y-58380380D01*
X182387609Y-59475619D02*
X183149514Y-59475619D01*
X183292371Y-58380380D02*
X183911419Y-58380380D01*
X183578085Y-58761333D01*
X183720942Y-58761333D01*
X183816180Y-58808952D01*
X183863800Y-58856571D01*
X183911419Y-58951809D01*
X183911419Y-59189904D01*
X183863800Y-59285142D01*
X183816180Y-59332761D01*
X183720942Y-59380380D01*
X183435228Y-59380380D01*
X183339990Y-59332761D01*
X183292371Y-59285142D01*
X154638276Y-55941980D02*
X154638276Y-56656266D01*
X154590657Y-56799123D01*
X154495419Y-56894361D01*
X154352561Y-56941980D01*
X154257323Y-56941980D01*
X155638276Y-56941980D02*
X155066847Y-56941980D01*
X155352561Y-56941980D02*
X155352561Y-55941980D01*
X155257323Y-56084838D01*
X155162085Y-56180076D01*
X155066847Y-56227695D01*
X156257323Y-55941980D02*
X156352561Y-55941980D01*
X156447800Y-55989600D01*
X156495419Y-56037219D01*
X156543038Y-56132457D01*
X156590657Y-56322933D01*
X156590657Y-56561028D01*
X156543038Y-56751504D01*
X156495419Y-56846742D01*
X156447800Y-56894361D01*
X156352561Y-56941980D01*
X156257323Y-56941980D01*
X156162085Y-56894361D01*
X156114466Y-56846742D01*
X156066847Y-56751504D01*
X156019228Y-56561028D01*
X156019228Y-56322933D01*
X156066847Y-56132457D01*
X156114466Y-56037219D01*
X156162085Y-55989600D01*
X156257323Y-55941980D01*
X153882733Y-58602571D02*
X153549400Y-58602571D01*
X153549400Y-59126380D02*
X153549400Y-58126380D01*
X154025590Y-58126380D01*
X154358923Y-58840666D02*
X154835114Y-58840666D01*
X154263685Y-59126380D02*
X154597019Y-58126380D01*
X154930352Y-59126380D01*
X155263685Y-59126380D02*
X155263685Y-58126380D01*
X155835114Y-59126380D01*
X155835114Y-58126380D01*
X156073209Y-59221619D02*
X156835114Y-59221619D01*
X157549400Y-58126380D02*
X157073209Y-58126380D01*
X157025590Y-58602571D01*
X157073209Y-58554952D01*
X157168447Y-58507333D01*
X157406542Y-58507333D01*
X157501780Y-58554952D01*
X157549400Y-58602571D01*
X157597019Y-58697809D01*
X157597019Y-58935904D01*
X157549400Y-59031142D01*
X157501780Y-59078761D01*
X157406542Y-59126380D01*
X157168447Y-59126380D01*
X157073209Y-59078761D01*
X157025590Y-59031142D01*
X196709180Y-57483333D02*
X197423466Y-57483333D01*
X197566323Y-57530952D01*
X197661561Y-57626190D01*
X197709180Y-57769047D01*
X197709180Y-57864285D01*
X197709180Y-56959523D02*
X197709180Y-56769047D01*
X197661561Y-56673809D01*
X197613942Y-56626190D01*
X197471085Y-56530952D01*
X197280609Y-56483333D01*
X196899657Y-56483333D01*
X196804419Y-56530952D01*
X196756800Y-56578571D01*
X196709180Y-56673809D01*
X196709180Y-56864285D01*
X196756800Y-56959523D01*
X196804419Y-57007142D01*
X196899657Y-57054761D01*
X197137752Y-57054761D01*
X197232990Y-57007142D01*
X197280609Y-56959523D01*
X197328228Y-56864285D01*
X197328228Y-56673809D01*
X197280609Y-56578571D01*
X197232990Y-56530952D01*
X197137752Y-56483333D01*
X189209771Y-55717866D02*
X189209771Y-56051200D01*
X189733580Y-56051200D02*
X188733580Y-56051200D01*
X188733580Y-55575009D01*
X189447866Y-55241676D02*
X189447866Y-54765485D01*
X189733580Y-55336914D02*
X188733580Y-55003580D01*
X189733580Y-54670247D01*
X189733580Y-54336914D02*
X188733580Y-54336914D01*
X189733580Y-53765485D01*
X188733580Y-53765485D01*
X189828819Y-53527390D02*
X189828819Y-52765485D01*
X188828819Y-52575009D02*
X188781200Y-52527390D01*
X188733580Y-52432152D01*
X188733580Y-52194057D01*
X188781200Y-52098819D01*
X188828819Y-52051200D01*
X188924057Y-52003580D01*
X189019295Y-52003580D01*
X189162152Y-52051200D01*
X189733580Y-52622628D01*
X189733580Y-52003580D01*
X207326380Y-57635733D02*
X208040666Y-57635733D01*
X208183523Y-57683352D01*
X208278761Y-57778590D01*
X208326380Y-57921447D01*
X208326380Y-58016685D01*
X207754952Y-57016685D02*
X207707333Y-57111923D01*
X207659714Y-57159542D01*
X207564476Y-57207161D01*
X207516857Y-57207161D01*
X207421619Y-57159542D01*
X207374000Y-57111923D01*
X207326380Y-57016685D01*
X207326380Y-56826209D01*
X207374000Y-56730971D01*
X207421619Y-56683352D01*
X207516857Y-56635733D01*
X207564476Y-56635733D01*
X207659714Y-56683352D01*
X207707333Y-56730971D01*
X207754952Y-56826209D01*
X207754952Y-57016685D01*
X207802571Y-57111923D01*
X207850190Y-57159542D01*
X207945428Y-57207161D01*
X208135904Y-57207161D01*
X208231142Y-57159542D01*
X208278761Y-57111923D01*
X208326380Y-57016685D01*
X208326380Y-56826209D01*
X208278761Y-56730971D01*
X208231142Y-56683352D01*
X208135904Y-56635733D01*
X207945428Y-56635733D01*
X207850190Y-56683352D01*
X207802571Y-56730971D01*
X207754952Y-56826209D01*
X202214571Y-56175066D02*
X202214571Y-56508400D01*
X202738380Y-56508400D02*
X201738380Y-56508400D01*
X201738380Y-56032209D01*
X202452666Y-55698876D02*
X202452666Y-55222685D01*
X202738380Y-55794114D02*
X201738380Y-55460780D01*
X202738380Y-55127447D01*
X202738380Y-54794114D02*
X201738380Y-54794114D01*
X202738380Y-54222685D01*
X201738380Y-54222685D01*
X202833619Y-53984590D02*
X202833619Y-53222685D01*
X202738380Y-52460780D02*
X202738380Y-53032209D01*
X202738380Y-52746495D02*
X201738380Y-52746495D01*
X201881238Y-52841733D01*
X201976476Y-52936971D01*
X202024095Y-53032209D01*
X223033866Y-55941980D02*
X223033866Y-56656266D01*
X222986247Y-56799123D01*
X222891009Y-56894361D01*
X222748152Y-56941980D01*
X222652914Y-56941980D01*
X223414819Y-55941980D02*
X224081485Y-55941980D01*
X223652914Y-56941980D01*
X217162309Y-57043580D02*
X217162309Y-56043580D01*
X217543261Y-56043580D01*
X217638500Y-56091200D01*
X217686119Y-56138819D01*
X217733738Y-56234057D01*
X217733738Y-56376914D01*
X217686119Y-56472152D01*
X217638500Y-56519771D01*
X217543261Y-56567390D01*
X217162309Y-56567390D01*
X218305166Y-57043580D02*
X218209928Y-56995961D01*
X218162309Y-56948342D01*
X218114690Y-56853104D01*
X218114690Y-56567390D01*
X218162309Y-56472152D01*
X218209928Y-56424533D01*
X218305166Y-56376914D01*
X218448023Y-56376914D01*
X218543261Y-56424533D01*
X218590880Y-56472152D01*
X218638500Y-56567390D01*
X218638500Y-56853104D01*
X218590880Y-56948342D01*
X218543261Y-56995961D01*
X218448023Y-57043580D01*
X218305166Y-57043580D01*
X218971833Y-56376914D02*
X219162309Y-57043580D01*
X219352785Y-56567390D01*
X219543261Y-57043580D01*
X219733738Y-56376914D01*
X220495642Y-56995961D02*
X220400404Y-57043580D01*
X220209928Y-57043580D01*
X220114690Y-56995961D01*
X220067071Y-56900723D01*
X220067071Y-56519771D01*
X220114690Y-56424533D01*
X220209928Y-56376914D01*
X220400404Y-56376914D01*
X220495642Y-56424533D01*
X220543261Y-56519771D01*
X220543261Y-56615009D01*
X220067071Y-56710247D01*
X220971833Y-57043580D02*
X220971833Y-56376914D01*
X220971833Y-56567390D02*
X221019452Y-56472152D01*
X221067071Y-56424533D01*
X221162309Y-56376914D01*
X221257547Y-56376914D01*
X136979066Y-94549980D02*
X136979066Y-95264266D01*
X136931447Y-95407123D01*
X136836209Y-95502361D01*
X136693352Y-95549980D01*
X136598114Y-95549980D01*
X137883828Y-94549980D02*
X137693352Y-94549980D01*
X137598114Y-94597600D01*
X137550495Y-94645219D01*
X137455257Y-94788076D01*
X137407638Y-94978552D01*
X137407638Y-95359504D01*
X137455257Y-95454742D01*
X137502876Y-95502361D01*
X137598114Y-95549980D01*
X137788590Y-95549980D01*
X137883828Y-95502361D01*
X137931447Y-95454742D01*
X137979066Y-95359504D01*
X137979066Y-95121409D01*
X137931447Y-95026171D01*
X137883828Y-94978552D01*
X137788590Y-94930933D01*
X137598114Y-94930933D01*
X137502876Y-94978552D01*
X137455257Y-95026171D01*
X137407638Y-95121409D01*
X136929000Y-97035880D02*
X136929000Y-96035880D01*
X137262333Y-96750166D01*
X137595666Y-96035880D01*
X137595666Y-97035880D01*
X138024238Y-96750166D02*
X138500428Y-96750166D01*
X137929000Y-97035880D02*
X138262333Y-96035880D01*
X138595666Y-97035880D01*
X138833761Y-96035880D02*
X139500428Y-97035880D01*
X139500428Y-96035880D02*
X138833761Y-97035880D01*
X140309952Y-96035880D02*
X140119476Y-96035880D01*
X140024238Y-96083500D01*
X139976619Y-96131119D01*
X139881380Y-96273976D01*
X139833761Y-96464452D01*
X139833761Y-96845404D01*
X139881380Y-96940642D01*
X139929000Y-96988261D01*
X140024238Y-97035880D01*
X140214714Y-97035880D01*
X140309952Y-96988261D01*
X140357571Y-96940642D01*
X140405190Y-96845404D01*
X140405190Y-96607309D01*
X140357571Y-96512071D01*
X140309952Y-96464452D01*
X140214714Y-96416833D01*
X140024238Y-96416833D01*
X139929000Y-96464452D01*
X139881380Y-96512071D01*
X139833761Y-96607309D01*
X141262333Y-96035880D02*
X141071857Y-96035880D01*
X140976619Y-96083500D01*
X140929000Y-96131119D01*
X140833761Y-96273976D01*
X140786142Y-96464452D01*
X140786142Y-96845404D01*
X140833761Y-96940642D01*
X140881380Y-96988261D01*
X140976619Y-97035880D01*
X141167095Y-97035880D01*
X141262333Y-96988261D01*
X141309952Y-96940642D01*
X141357571Y-96845404D01*
X141357571Y-96607309D01*
X141309952Y-96512071D01*
X141262333Y-96464452D01*
X141167095Y-96416833D01*
X140976619Y-96416833D01*
X140881380Y-96464452D01*
X140833761Y-96512071D01*
X140786142Y-96607309D01*
X141690904Y-96035880D02*
X142357571Y-96035880D01*
X141929000Y-97035880D01*
X143214714Y-96035880D02*
X142738523Y-96035880D01*
X142690904Y-96512071D01*
X142738523Y-96464452D01*
X142833761Y-96416833D01*
X143071857Y-96416833D01*
X143167095Y-96464452D01*
X143214714Y-96512071D01*
X143262333Y-96607309D01*
X143262333Y-96845404D01*
X143214714Y-96940642D01*
X143167095Y-96988261D01*
X143071857Y-97035880D01*
X142833761Y-97035880D01*
X142738523Y-96988261D01*
X142690904Y-96940642D01*
X143452809Y-97131119D02*
X144214714Y-97131119D01*
X144452809Y-97035880D02*
X144452809Y-96035880D01*
X144786142Y-96750166D01*
X145119476Y-96035880D01*
X145119476Y-97035880D01*
X145738523Y-97035880D02*
X145643285Y-96988261D01*
X145595666Y-96940642D01*
X145548047Y-96845404D01*
X145548047Y-96559690D01*
X145595666Y-96464452D01*
X145643285Y-96416833D01*
X145738523Y-96369214D01*
X145881380Y-96369214D01*
X145976619Y-96416833D01*
X146024238Y-96464452D01*
X146071857Y-96559690D01*
X146071857Y-96845404D01*
X146024238Y-96940642D01*
X145976619Y-96988261D01*
X145881380Y-97035880D01*
X145738523Y-97035880D01*
X146929000Y-97035880D02*
X146929000Y-96035880D01*
X146929000Y-96988261D02*
X146833761Y-97035880D01*
X146643285Y-97035880D01*
X146548047Y-96988261D01*
X146500428Y-96940642D01*
X146452809Y-96845404D01*
X146452809Y-96559690D01*
X146500428Y-96464452D01*
X146548047Y-96416833D01*
X146643285Y-96369214D01*
X146833761Y-96369214D01*
X146929000Y-96416833D01*
X147833761Y-96369214D02*
X147833761Y-97035880D01*
X147405190Y-96369214D02*
X147405190Y-96893023D01*
X147452809Y-96988261D01*
X147548047Y-97035880D01*
X147690904Y-97035880D01*
X147786142Y-96988261D01*
X147833761Y-96940642D01*
X148452809Y-97035880D02*
X148357571Y-96988261D01*
X148309952Y-96893023D01*
X148309952Y-96035880D01*
X149214714Y-96988261D02*
X149119476Y-97035880D01*
X148929000Y-97035880D01*
X148833761Y-96988261D01*
X148786142Y-96893023D01*
X148786142Y-96512071D01*
X148833761Y-96416833D01*
X148929000Y-96369214D01*
X149119476Y-96369214D01*
X149214714Y-96416833D01*
X149262333Y-96512071D01*
X149262333Y-96607309D01*
X148786142Y-96702547D01*
X149452809Y-97131119D02*
X150214714Y-97131119D01*
X150881380Y-96035880D02*
X150690904Y-96035880D01*
X150595666Y-96083500D01*
X150548047Y-96131119D01*
X150452809Y-96273976D01*
X150405190Y-96464452D01*
X150405190Y-96845404D01*
X150452809Y-96940642D01*
X150500428Y-96988261D01*
X150595666Y-97035880D01*
X150786142Y-97035880D01*
X150881380Y-96988261D01*
X150929000Y-96940642D01*
X150976619Y-96845404D01*
X150976619Y-96607309D01*
X150929000Y-96512071D01*
X150881380Y-96464452D01*
X150786142Y-96416833D01*
X150595666Y-96416833D01*
X150500428Y-96464452D01*
X150452809Y-96512071D01*
X150405190Y-96607309D01*
X151863266Y-94702380D02*
X151863266Y-95416666D01*
X151815647Y-95559523D01*
X151720409Y-95654761D01*
X151577552Y-95702380D01*
X151482314Y-95702380D01*
X152815647Y-94702380D02*
X152339457Y-94702380D01*
X152291838Y-95178571D01*
X152339457Y-95130952D01*
X152434695Y-95083333D01*
X152672790Y-95083333D01*
X152768028Y-95130952D01*
X152815647Y-95178571D01*
X152863266Y-95273809D01*
X152863266Y-95511904D01*
X152815647Y-95607142D01*
X152768028Y-95654761D01*
X152672790Y-95702380D01*
X152434695Y-95702380D01*
X152339457Y-95654761D01*
X152291838Y-95607142D01*
X150785000Y-97124780D02*
X150785000Y-96124780D01*
X151118333Y-96839066D01*
X151451666Y-96124780D01*
X151451666Y-97124780D01*
X151880238Y-96839066D02*
X152356428Y-96839066D01*
X151785000Y-97124780D02*
X152118333Y-96124780D01*
X152451666Y-97124780D01*
X152689761Y-96124780D02*
X153356428Y-97124780D01*
X153356428Y-96124780D02*
X152689761Y-97124780D01*
X154165952Y-96124780D02*
X153975476Y-96124780D01*
X153880238Y-96172400D01*
X153832619Y-96220019D01*
X153737380Y-96362876D01*
X153689761Y-96553352D01*
X153689761Y-96934304D01*
X153737380Y-97029542D01*
X153785000Y-97077161D01*
X153880238Y-97124780D01*
X154070714Y-97124780D01*
X154165952Y-97077161D01*
X154213571Y-97029542D01*
X154261190Y-96934304D01*
X154261190Y-96696209D01*
X154213571Y-96600971D01*
X154165952Y-96553352D01*
X154070714Y-96505733D01*
X153880238Y-96505733D01*
X153785000Y-96553352D01*
X153737380Y-96600971D01*
X153689761Y-96696209D01*
X155118333Y-96124780D02*
X154927857Y-96124780D01*
X154832619Y-96172400D01*
X154785000Y-96220019D01*
X154689761Y-96362876D01*
X154642142Y-96553352D01*
X154642142Y-96934304D01*
X154689761Y-97029542D01*
X154737380Y-97077161D01*
X154832619Y-97124780D01*
X155023095Y-97124780D01*
X155118333Y-97077161D01*
X155165952Y-97029542D01*
X155213571Y-96934304D01*
X155213571Y-96696209D01*
X155165952Y-96600971D01*
X155118333Y-96553352D01*
X155023095Y-96505733D01*
X154832619Y-96505733D01*
X154737380Y-96553352D01*
X154689761Y-96600971D01*
X154642142Y-96696209D01*
X155546904Y-96124780D02*
X156213571Y-96124780D01*
X155785000Y-97124780D01*
X157070714Y-96124780D02*
X156594523Y-96124780D01*
X156546904Y-96600971D01*
X156594523Y-96553352D01*
X156689761Y-96505733D01*
X156927857Y-96505733D01*
X157023095Y-96553352D01*
X157070714Y-96600971D01*
X157118333Y-96696209D01*
X157118333Y-96934304D01*
X157070714Y-97029542D01*
X157023095Y-97077161D01*
X156927857Y-97124780D01*
X156689761Y-97124780D01*
X156594523Y-97077161D01*
X156546904Y-97029542D01*
X157308809Y-97220019D02*
X158070714Y-97220019D01*
X158308809Y-97124780D02*
X158308809Y-96124780D01*
X158642142Y-96839066D01*
X158975476Y-96124780D01*
X158975476Y-97124780D01*
X159594523Y-97124780D02*
X159499285Y-97077161D01*
X159451666Y-97029542D01*
X159404047Y-96934304D01*
X159404047Y-96648590D01*
X159451666Y-96553352D01*
X159499285Y-96505733D01*
X159594523Y-96458114D01*
X159737380Y-96458114D01*
X159832619Y-96505733D01*
X159880238Y-96553352D01*
X159927857Y-96648590D01*
X159927857Y-96934304D01*
X159880238Y-97029542D01*
X159832619Y-97077161D01*
X159737380Y-97124780D01*
X159594523Y-97124780D01*
X160785000Y-97124780D02*
X160785000Y-96124780D01*
X160785000Y-97077161D02*
X160689761Y-97124780D01*
X160499285Y-97124780D01*
X160404047Y-97077161D01*
X160356428Y-97029542D01*
X160308809Y-96934304D01*
X160308809Y-96648590D01*
X160356428Y-96553352D01*
X160404047Y-96505733D01*
X160499285Y-96458114D01*
X160689761Y-96458114D01*
X160785000Y-96505733D01*
X161689761Y-96458114D02*
X161689761Y-97124780D01*
X161261190Y-96458114D02*
X161261190Y-96981923D01*
X161308809Y-97077161D01*
X161404047Y-97124780D01*
X161546904Y-97124780D01*
X161642142Y-97077161D01*
X161689761Y-97029542D01*
X162308809Y-97124780D02*
X162213571Y-97077161D01*
X162165952Y-96981923D01*
X162165952Y-96124780D01*
X163070714Y-97077161D02*
X162975476Y-97124780D01*
X162785000Y-97124780D01*
X162689761Y-97077161D01*
X162642142Y-96981923D01*
X162642142Y-96600971D01*
X162689761Y-96505733D01*
X162785000Y-96458114D01*
X162975476Y-96458114D01*
X163070714Y-96505733D01*
X163118333Y-96600971D01*
X163118333Y-96696209D01*
X162642142Y-96791447D01*
X163308809Y-97220019D02*
X164070714Y-97220019D01*
X164785000Y-96124780D02*
X164308809Y-96124780D01*
X164261190Y-96600971D01*
X164308809Y-96553352D01*
X164404047Y-96505733D01*
X164642142Y-96505733D01*
X164737380Y-96553352D01*
X164785000Y-96600971D01*
X164832619Y-96696209D01*
X164832619Y-96934304D01*
X164785000Y-97029542D01*
X164737380Y-97077161D01*
X164642142Y-97124780D01*
X164404047Y-97124780D01*
X164308809Y-97077161D01*
X164261190Y-97029542D01*
X167205666Y-94549980D02*
X167205666Y-95264266D01*
X167158047Y-95407123D01*
X167062809Y-95502361D01*
X166919952Y-95549980D01*
X166824714Y-95549980D01*
X168110428Y-94883314D02*
X168110428Y-95549980D01*
X167872333Y-94502361D02*
X167634238Y-95216647D01*
X168253285Y-95216647D01*
X165517000Y-96997780D02*
X165517000Y-95997780D01*
X165850333Y-96712066D01*
X166183666Y-95997780D01*
X166183666Y-96997780D01*
X166612238Y-96712066D02*
X167088428Y-96712066D01*
X166517000Y-96997780D02*
X166850333Y-95997780D01*
X167183666Y-96997780D01*
X167421761Y-95997780D02*
X168088428Y-96997780D01*
X168088428Y-95997780D02*
X167421761Y-96997780D01*
X168897952Y-95997780D02*
X168707476Y-95997780D01*
X168612238Y-96045400D01*
X168564619Y-96093019D01*
X168469380Y-96235876D01*
X168421761Y-96426352D01*
X168421761Y-96807304D01*
X168469380Y-96902542D01*
X168517000Y-96950161D01*
X168612238Y-96997780D01*
X168802714Y-96997780D01*
X168897952Y-96950161D01*
X168945571Y-96902542D01*
X168993190Y-96807304D01*
X168993190Y-96569209D01*
X168945571Y-96473971D01*
X168897952Y-96426352D01*
X168802714Y-96378733D01*
X168612238Y-96378733D01*
X168517000Y-96426352D01*
X168469380Y-96473971D01*
X168421761Y-96569209D01*
X169850333Y-95997780D02*
X169659857Y-95997780D01*
X169564619Y-96045400D01*
X169517000Y-96093019D01*
X169421761Y-96235876D01*
X169374142Y-96426352D01*
X169374142Y-96807304D01*
X169421761Y-96902542D01*
X169469380Y-96950161D01*
X169564619Y-96997780D01*
X169755095Y-96997780D01*
X169850333Y-96950161D01*
X169897952Y-96902542D01*
X169945571Y-96807304D01*
X169945571Y-96569209D01*
X169897952Y-96473971D01*
X169850333Y-96426352D01*
X169755095Y-96378733D01*
X169564619Y-96378733D01*
X169469380Y-96426352D01*
X169421761Y-96473971D01*
X169374142Y-96569209D01*
X170278904Y-95997780D02*
X170945571Y-95997780D01*
X170517000Y-96997780D01*
X171802714Y-95997780D02*
X171326523Y-95997780D01*
X171278904Y-96473971D01*
X171326523Y-96426352D01*
X171421761Y-96378733D01*
X171659857Y-96378733D01*
X171755095Y-96426352D01*
X171802714Y-96473971D01*
X171850333Y-96569209D01*
X171850333Y-96807304D01*
X171802714Y-96902542D01*
X171755095Y-96950161D01*
X171659857Y-96997780D01*
X171421761Y-96997780D01*
X171326523Y-96950161D01*
X171278904Y-96902542D01*
X172040809Y-97093019D02*
X172802714Y-97093019D01*
X173040809Y-96997780D02*
X173040809Y-95997780D01*
X173374142Y-96712066D01*
X173707476Y-95997780D01*
X173707476Y-96997780D01*
X174326523Y-96997780D02*
X174231285Y-96950161D01*
X174183666Y-96902542D01*
X174136047Y-96807304D01*
X174136047Y-96521590D01*
X174183666Y-96426352D01*
X174231285Y-96378733D01*
X174326523Y-96331114D01*
X174469380Y-96331114D01*
X174564619Y-96378733D01*
X174612238Y-96426352D01*
X174659857Y-96521590D01*
X174659857Y-96807304D01*
X174612238Y-96902542D01*
X174564619Y-96950161D01*
X174469380Y-96997780D01*
X174326523Y-96997780D01*
X175517000Y-96997780D02*
X175517000Y-95997780D01*
X175517000Y-96950161D02*
X175421761Y-96997780D01*
X175231285Y-96997780D01*
X175136047Y-96950161D01*
X175088428Y-96902542D01*
X175040809Y-96807304D01*
X175040809Y-96521590D01*
X175088428Y-96426352D01*
X175136047Y-96378733D01*
X175231285Y-96331114D01*
X175421761Y-96331114D01*
X175517000Y-96378733D01*
X176421761Y-96331114D02*
X176421761Y-96997780D01*
X175993190Y-96331114D02*
X175993190Y-96854923D01*
X176040809Y-96950161D01*
X176136047Y-96997780D01*
X176278904Y-96997780D01*
X176374142Y-96950161D01*
X176421761Y-96902542D01*
X177040809Y-96997780D02*
X176945571Y-96950161D01*
X176897952Y-96854923D01*
X176897952Y-95997780D01*
X177802714Y-96950161D02*
X177707476Y-96997780D01*
X177517000Y-96997780D01*
X177421761Y-96950161D01*
X177374142Y-96854923D01*
X177374142Y-96473971D01*
X177421761Y-96378733D01*
X177517000Y-96331114D01*
X177707476Y-96331114D01*
X177802714Y-96378733D01*
X177850333Y-96473971D01*
X177850333Y-96569209D01*
X177374142Y-96664447D01*
X178040809Y-97093019D02*
X178802714Y-97093019D01*
X179469380Y-96331114D02*
X179469380Y-96997780D01*
X179231285Y-95950161D02*
X178993190Y-96664447D01*
X179612238Y-96664447D01*
X183664066Y-94600780D02*
X183664066Y-95315066D01*
X183616447Y-95457923D01*
X183521209Y-95553161D01*
X183378352Y-95600780D01*
X183283114Y-95600780D01*
X184045019Y-94600780D02*
X184664066Y-94600780D01*
X184330733Y-94981733D01*
X184473590Y-94981733D01*
X184568828Y-95029352D01*
X184616447Y-95076971D01*
X184664066Y-95172209D01*
X184664066Y-95410304D01*
X184616447Y-95505542D01*
X184568828Y-95553161D01*
X184473590Y-95600780D01*
X184187876Y-95600780D01*
X184092638Y-95553161D01*
X184045019Y-95505542D01*
X180757000Y-96997780D02*
X180757000Y-95997780D01*
X181090333Y-96712066D01*
X181423666Y-95997780D01*
X181423666Y-96997780D01*
X181852238Y-96712066D02*
X182328428Y-96712066D01*
X181757000Y-96997780D02*
X182090333Y-95997780D01*
X182423666Y-96997780D01*
X182661761Y-95997780D02*
X183328428Y-96997780D01*
X183328428Y-95997780D02*
X182661761Y-96997780D01*
X184137952Y-95997780D02*
X183947476Y-95997780D01*
X183852238Y-96045400D01*
X183804619Y-96093019D01*
X183709380Y-96235876D01*
X183661761Y-96426352D01*
X183661761Y-96807304D01*
X183709380Y-96902542D01*
X183757000Y-96950161D01*
X183852238Y-96997780D01*
X184042714Y-96997780D01*
X184137952Y-96950161D01*
X184185571Y-96902542D01*
X184233190Y-96807304D01*
X184233190Y-96569209D01*
X184185571Y-96473971D01*
X184137952Y-96426352D01*
X184042714Y-96378733D01*
X183852238Y-96378733D01*
X183757000Y-96426352D01*
X183709380Y-96473971D01*
X183661761Y-96569209D01*
X185090333Y-95997780D02*
X184899857Y-95997780D01*
X184804619Y-96045400D01*
X184757000Y-96093019D01*
X184661761Y-96235876D01*
X184614142Y-96426352D01*
X184614142Y-96807304D01*
X184661761Y-96902542D01*
X184709380Y-96950161D01*
X184804619Y-96997780D01*
X184995095Y-96997780D01*
X185090333Y-96950161D01*
X185137952Y-96902542D01*
X185185571Y-96807304D01*
X185185571Y-96569209D01*
X185137952Y-96473971D01*
X185090333Y-96426352D01*
X184995095Y-96378733D01*
X184804619Y-96378733D01*
X184709380Y-96426352D01*
X184661761Y-96473971D01*
X184614142Y-96569209D01*
X185518904Y-95997780D02*
X186185571Y-95997780D01*
X185757000Y-96997780D01*
X187042714Y-95997780D02*
X186566523Y-95997780D01*
X186518904Y-96473971D01*
X186566523Y-96426352D01*
X186661761Y-96378733D01*
X186899857Y-96378733D01*
X186995095Y-96426352D01*
X187042714Y-96473971D01*
X187090333Y-96569209D01*
X187090333Y-96807304D01*
X187042714Y-96902542D01*
X186995095Y-96950161D01*
X186899857Y-96997780D01*
X186661761Y-96997780D01*
X186566523Y-96950161D01*
X186518904Y-96902542D01*
X187280809Y-97093019D02*
X188042714Y-97093019D01*
X188280809Y-96997780D02*
X188280809Y-95997780D01*
X188614142Y-96712066D01*
X188947476Y-95997780D01*
X188947476Y-96997780D01*
X189566523Y-96997780D02*
X189471285Y-96950161D01*
X189423666Y-96902542D01*
X189376047Y-96807304D01*
X189376047Y-96521590D01*
X189423666Y-96426352D01*
X189471285Y-96378733D01*
X189566523Y-96331114D01*
X189709380Y-96331114D01*
X189804619Y-96378733D01*
X189852238Y-96426352D01*
X189899857Y-96521590D01*
X189899857Y-96807304D01*
X189852238Y-96902542D01*
X189804619Y-96950161D01*
X189709380Y-96997780D01*
X189566523Y-96997780D01*
X190757000Y-96997780D02*
X190757000Y-95997780D01*
X190757000Y-96950161D02*
X190661761Y-96997780D01*
X190471285Y-96997780D01*
X190376047Y-96950161D01*
X190328428Y-96902542D01*
X190280809Y-96807304D01*
X190280809Y-96521590D01*
X190328428Y-96426352D01*
X190376047Y-96378733D01*
X190471285Y-96331114D01*
X190661761Y-96331114D01*
X190757000Y-96378733D01*
X191661761Y-96331114D02*
X191661761Y-96997780D01*
X191233190Y-96331114D02*
X191233190Y-96854923D01*
X191280809Y-96950161D01*
X191376047Y-96997780D01*
X191518904Y-96997780D01*
X191614142Y-96950161D01*
X191661761Y-96902542D01*
X192280809Y-96997780D02*
X192185571Y-96950161D01*
X192137952Y-96854923D01*
X192137952Y-95997780D01*
X193042714Y-96950161D02*
X192947476Y-96997780D01*
X192757000Y-96997780D01*
X192661761Y-96950161D01*
X192614142Y-96854923D01*
X192614142Y-96473971D01*
X192661761Y-96378733D01*
X192757000Y-96331114D01*
X192947476Y-96331114D01*
X193042714Y-96378733D01*
X193090333Y-96473971D01*
X193090333Y-96569209D01*
X192614142Y-96664447D01*
X193280809Y-97093019D02*
X194042714Y-97093019D01*
X194185571Y-95997780D02*
X194804619Y-95997780D01*
X194471285Y-96378733D01*
X194614142Y-96378733D01*
X194709380Y-96426352D01*
X194757000Y-96473971D01*
X194804619Y-96569209D01*
X194804619Y-96807304D01*
X194757000Y-96902542D01*
X194709380Y-96950161D01*
X194614142Y-96997780D01*
X194328428Y-96997780D01*
X194233190Y-96950161D01*
X194185571Y-96902542D01*
X198954666Y-94651580D02*
X198954666Y-95365866D01*
X198907047Y-95508723D01*
X198811809Y-95603961D01*
X198668952Y-95651580D01*
X198573714Y-95651580D01*
X199383238Y-94746819D02*
X199430857Y-94699200D01*
X199526095Y-94651580D01*
X199764190Y-94651580D01*
X199859428Y-94699200D01*
X199907047Y-94746819D01*
X199954666Y-94842057D01*
X199954666Y-94937295D01*
X199907047Y-95080152D01*
X199335619Y-95651580D01*
X199954666Y-95651580D01*
X195768000Y-97112080D02*
X195768000Y-96112080D01*
X196101333Y-96826366D01*
X196434666Y-96112080D01*
X196434666Y-97112080D01*
X196863238Y-96826366D02*
X197339428Y-96826366D01*
X196768000Y-97112080D02*
X197101333Y-96112080D01*
X197434666Y-97112080D01*
X197672761Y-96112080D02*
X198339428Y-97112080D01*
X198339428Y-96112080D02*
X197672761Y-97112080D01*
X199148952Y-96112080D02*
X198958476Y-96112080D01*
X198863238Y-96159700D01*
X198815619Y-96207319D01*
X198720380Y-96350176D01*
X198672761Y-96540652D01*
X198672761Y-96921604D01*
X198720380Y-97016842D01*
X198768000Y-97064461D01*
X198863238Y-97112080D01*
X199053714Y-97112080D01*
X199148952Y-97064461D01*
X199196571Y-97016842D01*
X199244190Y-96921604D01*
X199244190Y-96683509D01*
X199196571Y-96588271D01*
X199148952Y-96540652D01*
X199053714Y-96493033D01*
X198863238Y-96493033D01*
X198768000Y-96540652D01*
X198720380Y-96588271D01*
X198672761Y-96683509D01*
X200101333Y-96112080D02*
X199910857Y-96112080D01*
X199815619Y-96159700D01*
X199768000Y-96207319D01*
X199672761Y-96350176D01*
X199625142Y-96540652D01*
X199625142Y-96921604D01*
X199672761Y-97016842D01*
X199720380Y-97064461D01*
X199815619Y-97112080D01*
X200006095Y-97112080D01*
X200101333Y-97064461D01*
X200148952Y-97016842D01*
X200196571Y-96921604D01*
X200196571Y-96683509D01*
X200148952Y-96588271D01*
X200101333Y-96540652D01*
X200006095Y-96493033D01*
X199815619Y-96493033D01*
X199720380Y-96540652D01*
X199672761Y-96588271D01*
X199625142Y-96683509D01*
X200529904Y-96112080D02*
X201196571Y-96112080D01*
X200768000Y-97112080D01*
X202053714Y-96112080D02*
X201577523Y-96112080D01*
X201529904Y-96588271D01*
X201577523Y-96540652D01*
X201672761Y-96493033D01*
X201910857Y-96493033D01*
X202006095Y-96540652D01*
X202053714Y-96588271D01*
X202101333Y-96683509D01*
X202101333Y-96921604D01*
X202053714Y-97016842D01*
X202006095Y-97064461D01*
X201910857Y-97112080D01*
X201672761Y-97112080D01*
X201577523Y-97064461D01*
X201529904Y-97016842D01*
X202291809Y-97207319D02*
X203053714Y-97207319D01*
X203291809Y-97112080D02*
X203291809Y-96112080D01*
X203625142Y-96826366D01*
X203958476Y-96112080D01*
X203958476Y-97112080D01*
X204577523Y-97112080D02*
X204482285Y-97064461D01*
X204434666Y-97016842D01*
X204387047Y-96921604D01*
X204387047Y-96635890D01*
X204434666Y-96540652D01*
X204482285Y-96493033D01*
X204577523Y-96445414D01*
X204720380Y-96445414D01*
X204815619Y-96493033D01*
X204863238Y-96540652D01*
X204910857Y-96635890D01*
X204910857Y-96921604D01*
X204863238Y-97016842D01*
X204815619Y-97064461D01*
X204720380Y-97112080D01*
X204577523Y-97112080D01*
X205768000Y-97112080D02*
X205768000Y-96112080D01*
X205768000Y-97064461D02*
X205672761Y-97112080D01*
X205482285Y-97112080D01*
X205387047Y-97064461D01*
X205339428Y-97016842D01*
X205291809Y-96921604D01*
X205291809Y-96635890D01*
X205339428Y-96540652D01*
X205387047Y-96493033D01*
X205482285Y-96445414D01*
X205672761Y-96445414D01*
X205768000Y-96493033D01*
X206672761Y-96445414D02*
X206672761Y-97112080D01*
X206244190Y-96445414D02*
X206244190Y-96969223D01*
X206291809Y-97064461D01*
X206387047Y-97112080D01*
X206529904Y-97112080D01*
X206625142Y-97064461D01*
X206672761Y-97016842D01*
X207291809Y-97112080D02*
X207196571Y-97064461D01*
X207148952Y-96969223D01*
X207148952Y-96112080D01*
X208053714Y-97064461D02*
X207958476Y-97112080D01*
X207768000Y-97112080D01*
X207672761Y-97064461D01*
X207625142Y-96969223D01*
X207625142Y-96588271D01*
X207672761Y-96493033D01*
X207768000Y-96445414D01*
X207958476Y-96445414D01*
X208053714Y-96493033D01*
X208101333Y-96588271D01*
X208101333Y-96683509D01*
X207625142Y-96778747D01*
X208291809Y-97207319D02*
X209053714Y-97207319D01*
X209244190Y-96207319D02*
X209291809Y-96159700D01*
X209387047Y-96112080D01*
X209625142Y-96112080D01*
X209720380Y-96159700D01*
X209768000Y-96207319D01*
X209815619Y-96302557D01*
X209815619Y-96397795D01*
X209768000Y-96540652D01*
X209196571Y-97112080D01*
X209815619Y-97112080D01*
X214753666Y-94651580D02*
X214753666Y-95365866D01*
X214706047Y-95508723D01*
X214610809Y-95603961D01*
X214467952Y-95651580D01*
X214372714Y-95651580D01*
X215753666Y-95651580D02*
X215182238Y-95651580D01*
X215467952Y-95651580D02*
X215467952Y-94651580D01*
X215372714Y-94794438D01*
X215277476Y-94889676D01*
X215182238Y-94937295D01*
X210602000Y-97112080D02*
X210602000Y-96112080D01*
X210935333Y-96826366D01*
X211268666Y-96112080D01*
X211268666Y-97112080D01*
X211697238Y-96826366D02*
X212173428Y-96826366D01*
X211602000Y-97112080D02*
X211935333Y-96112080D01*
X212268666Y-97112080D01*
X212506761Y-96112080D02*
X213173428Y-97112080D01*
X213173428Y-96112080D02*
X212506761Y-97112080D01*
X213982952Y-96112080D02*
X213792476Y-96112080D01*
X213697238Y-96159700D01*
X213649619Y-96207319D01*
X213554380Y-96350176D01*
X213506761Y-96540652D01*
X213506761Y-96921604D01*
X213554380Y-97016842D01*
X213602000Y-97064461D01*
X213697238Y-97112080D01*
X213887714Y-97112080D01*
X213982952Y-97064461D01*
X214030571Y-97016842D01*
X214078190Y-96921604D01*
X214078190Y-96683509D01*
X214030571Y-96588271D01*
X213982952Y-96540652D01*
X213887714Y-96493033D01*
X213697238Y-96493033D01*
X213602000Y-96540652D01*
X213554380Y-96588271D01*
X213506761Y-96683509D01*
X214935333Y-96112080D02*
X214744857Y-96112080D01*
X214649619Y-96159700D01*
X214602000Y-96207319D01*
X214506761Y-96350176D01*
X214459142Y-96540652D01*
X214459142Y-96921604D01*
X214506761Y-97016842D01*
X214554380Y-97064461D01*
X214649619Y-97112080D01*
X214840095Y-97112080D01*
X214935333Y-97064461D01*
X214982952Y-97016842D01*
X215030571Y-96921604D01*
X215030571Y-96683509D01*
X214982952Y-96588271D01*
X214935333Y-96540652D01*
X214840095Y-96493033D01*
X214649619Y-96493033D01*
X214554380Y-96540652D01*
X214506761Y-96588271D01*
X214459142Y-96683509D01*
X215363904Y-96112080D02*
X216030571Y-96112080D01*
X215602000Y-97112080D01*
X216887714Y-96112080D02*
X216411523Y-96112080D01*
X216363904Y-96588271D01*
X216411523Y-96540652D01*
X216506761Y-96493033D01*
X216744857Y-96493033D01*
X216840095Y-96540652D01*
X216887714Y-96588271D01*
X216935333Y-96683509D01*
X216935333Y-96921604D01*
X216887714Y-97016842D01*
X216840095Y-97064461D01*
X216744857Y-97112080D01*
X216506761Y-97112080D01*
X216411523Y-97064461D01*
X216363904Y-97016842D01*
X217125809Y-97207319D02*
X217887714Y-97207319D01*
X218125809Y-97112080D02*
X218125809Y-96112080D01*
X218459142Y-96826366D01*
X218792476Y-96112080D01*
X218792476Y-97112080D01*
X219411523Y-97112080D02*
X219316285Y-97064461D01*
X219268666Y-97016842D01*
X219221047Y-96921604D01*
X219221047Y-96635890D01*
X219268666Y-96540652D01*
X219316285Y-96493033D01*
X219411523Y-96445414D01*
X219554380Y-96445414D01*
X219649619Y-96493033D01*
X219697238Y-96540652D01*
X219744857Y-96635890D01*
X219744857Y-96921604D01*
X219697238Y-97016842D01*
X219649619Y-97064461D01*
X219554380Y-97112080D01*
X219411523Y-97112080D01*
X220602000Y-97112080D02*
X220602000Y-96112080D01*
X220602000Y-97064461D02*
X220506761Y-97112080D01*
X220316285Y-97112080D01*
X220221047Y-97064461D01*
X220173428Y-97016842D01*
X220125809Y-96921604D01*
X220125809Y-96635890D01*
X220173428Y-96540652D01*
X220221047Y-96493033D01*
X220316285Y-96445414D01*
X220506761Y-96445414D01*
X220602000Y-96493033D01*
X221506761Y-96445414D02*
X221506761Y-97112080D01*
X221078190Y-96445414D02*
X221078190Y-96969223D01*
X221125809Y-97064461D01*
X221221047Y-97112080D01*
X221363904Y-97112080D01*
X221459142Y-97064461D01*
X221506761Y-97016842D01*
X222125809Y-97112080D02*
X222030571Y-97064461D01*
X221982952Y-96969223D01*
X221982952Y-96112080D01*
X222887714Y-97064461D02*
X222792476Y-97112080D01*
X222602000Y-97112080D01*
X222506761Y-97064461D01*
X222459142Y-96969223D01*
X222459142Y-96588271D01*
X222506761Y-96493033D01*
X222602000Y-96445414D01*
X222792476Y-96445414D01*
X222887714Y-96493033D01*
X222935333Y-96588271D01*
X222935333Y-96683509D01*
X222459142Y-96778747D01*
X223125809Y-97207319D02*
X223887714Y-97207319D01*
X224649619Y-97112080D02*
X224078190Y-97112080D01*
X224363904Y-97112080D02*
X224363904Y-96112080D01*
X224268666Y-96254938D01*
X224173428Y-96350176D01*
X224078190Y-96397795D01*
M02*
