M48
; DRILL file {KiCad 5.1.4-3.fc30} date Sun 27 Oct 2019 12:55:02 PM IST
; FORMAT={-:-/ absolute / inch / decimal}
; #@! TF.CreationDate,2019-10-27T12:55:02+05:30
; #@! TF.GenerationSoftware,Kicad,Pcbnew,5.1.4-3.fc30
; #@! TF.FileFunction,NonPlated,1,2,NPTH
FMAT,2
INCH
%
G90
G05
T0
M30
