G04 #@! TF.GenerationSoftware,KiCad,Pcbnew,5.1.4-3.fc30*
G04 #@! TF.CreationDate,2019-10-27T12:54:59+05:30*
G04 #@! TF.ProjectId,pc-fan,70632d66-616e-42e6-9b69-6361645f7063,rev?*
G04 #@! TF.SameCoordinates,Original*
G04 #@! TF.FileFunction,Legend,Bot*
G04 #@! TF.FilePolarity,Positive*
%FSLAX46Y46*%
G04 Gerber Fmt 4.6, Leading zero omitted, Abs format (unit mm)*
G04 Created by KiCad (PCBNEW 5.1.4-3.fc30) date 2019-10-27 12:54:59*
%MOMM*%
%LPD*%
G04 APERTURE LIST*
%ADD10C,0.120000*%
%ADD11C,0.150000*%
G04 APERTURE END LIST*
D10*
X166710000Y-79292400D02*
X160700000Y-79292400D01*
X164460000Y-86112400D02*
X160700000Y-86112400D01*
X160700000Y-79292400D02*
X160700000Y-80552400D01*
X160700000Y-86112400D02*
X160700000Y-84852400D01*
D11*
X163371904Y-77654780D02*
X163371904Y-78464304D01*
X163324285Y-78559542D01*
X163276666Y-78607161D01*
X163181428Y-78654780D01*
X162990952Y-78654780D01*
X162895714Y-78607161D01*
X162848095Y-78559542D01*
X162800476Y-78464304D01*
X162800476Y-77654780D01*
X162371904Y-77750019D02*
X162324285Y-77702400D01*
X162229047Y-77654780D01*
X161990952Y-77654780D01*
X161895714Y-77702400D01*
X161848095Y-77750019D01*
X161800476Y-77845257D01*
X161800476Y-77940495D01*
X161848095Y-78083352D01*
X162419523Y-78654780D01*
X161800476Y-78654780D01*
M02*
